ID	Time	Ratio	Diamond	Coin	Medal	ReqVip	Exp	NeedItem
11	3600		0	100	0	0	125	
12	7200		0	200	0	0	250	
13	14400		0	500	0	0	500	
14	28800		20	100	0	1	1000	5047
15	43200		50	100	0	2	1500	-1
20		1	0	500	0			
21		1.2	0	1500	0			
22		1.5	10	100	0	0		
23		2	20	100	0	1		5048
24		3	50	100	0	2		-1
