Id	Type	Item	ItemType	Times	Sign	Condition	ExchangeIcon
1	redstar	1510#1	item	1	1	800	
2	redstar	1023#1	item	1	1	800	
3	redstar	1024#1	item	1	1	800	
4	redstar	1804#1	item	1	1	800	
5	redstar	1608#1	item	1	1	800	
6	redstar	1510#1#30	item	0		800	
7	redstar	1023#1#30	item	0		800	
8	redstar	1024#1#30	item	0		800	
9	redstar	1804#1#30	item	0		800	
10	redstar	1608#1#30	item	0		800	
11	redstar	1510#1#7	item	0		800	
12	redstar	1023#1#7	item	0		800	
13	eventcoin_001	1609#1	item	1	1	800	christmas_cap
14	eventcoin_001	1513#1	item	1	1	800	christmas_cap
15	eventcoin_001	1306#1	item	1	1	800	christmas_cap
16	eventcoin_001	1809#1	item	1	1	800	christmas_cap
17	eventcoin_001	1713#1#30	item	0		600	christmas_cap
18	eventcoin_001	1609#1#30	item	0		400	christmas_cap
19	eventcoin_001	1513#1#30	item	0		400	christmas_cap
20	eventcoin_001	1306#1#30	item	0		400	christmas_cap
21	eventcoin_001	1809#1#30	item	0		400	christmas_cap
22	eventcoin_001	1713#1#7	item	0		300	christmas_cap
23	eventcoin_001	1609#1#7	item	0		200	christmas_cap
24	eventcoin_001	1513#1#7	item	0		200	christmas_cap
25	eventcoin_001	1306#1#7	item	0		200	christmas_cap
26	eventcoin_001	1809#1#7	item	0		200	christmas_cap
27	eventcoin_001	1713#1#3	item	0		200	christmas_cap
28	eventcoin_001	1609#1#3	item	0		100	christmas_cap
29	eventcoin_001	1513#1#3	item	0		100	christmas_cap
30	eventcoin_001	1306#1#3	item	0		100	christmas_cap
31	eventcoin_001	1809#1#3	item	0		100	christmas_cap
