ID	Name	MatType
1000	Cube#ID_1;dimian#ID_2;Cube#ID_3;Cube#ID_4;Cube#ID_5;Cube#ID_6;Cube#ID_7;Cube#ID_8;Cube#ID_9;Cube#ID_10;Cube#ID_11;Cube#ID_12;Cube#ID_13;Cube#ID_14;Cube#ID_15;Cube#ID_16;Cube#ID_17;Cube#ID_18;Cube#ID_19;Cube#ID_20;Cube#ID_21;Cube#ID_22;Cube#ID_23;Cube#ID_24;Cube#ID_25;Cube#ID_26;Cube#ID_27;Cube#ID_28;Cube#ID_29;Cube#ID_30;Cube#ID_31;Cube#ID_32;Cube#ID_33;Cube#ID_34;Cube#ID_35;Cube#ID_36;dunzi#ID_37;Cube#ID_38;Cube#ID_39;Cube#ID_40;Cube#ID_41;Cube#ID_42;Cube#ID_43;Cube#ID_44;Cube#ID_45;Cube#ID_46;Cube#ID_47;Cube#ID_48;Cube#ID_49;Cube#ID_50;Cube#ID_51;Cube#ID_52;Cube#ID_53;Cube#ID_54;Cube#ID_55;Cube#ID_56;Cube#ID_57;Cube#ID_58;Cube#ID_59;Cube#ID_60;Cube#ID_61;Cube#ID_62;Cube#ID_63;Cube#ID_64;Cube#ID_65;Cube#ID_66;Cube#ID_67;Cube#ID_68;Cube#ID_69;Cube#ID_70;Cube#ID_71;Cube#ID_72;Cube#ID_73;Cube#ID_74;Cube#ID_75;Cube#ID_76;Cube#ID_77;Cube#ID_78;Cube#ID_79;Cube#ID_80;Cube#ID_81;Cube#ID_82;Cube#ID_83;Cube#ID_84;Cube#ID_85;Cube#ID_86;Cube#ID_87;Cube#ID_88;Cube#ID_89;Cube#ID_90;Cube#ID_91;Cube#ID_92;Cube#ID_93;Cube#ID_94;Cube#ID_95;Cube#ID_96;Cube#ID_97;Cube#ID_98;Cube#ID_99;Cube#ID_100;Cube#ID_101;Cube#ID_102;Cube#ID_103;Cube#ID_104;Cube#ID_105;Cube#ID_106;Cube#ID_107;Cube#ID_108;Cube#ID_109;Cube#ID_110;Cube#ID_111;Cube#ID_112;Cube#ID_113;Cube#ID_114;Cube#ID_115;Cube#ID_116;Cube#ID_117;Cube#ID_118;Cube#ID_119;Cube#ID_120;Cube#ID_121;Cube#ID_122;Cube#ID_123;Cube#ID_124;Cube#ID_125;Cube#ID_126;Cube#ID_127;Cube#ID_128;Cube#ID_129;Cube#ID_130;Cube#ID_131;Cube#ID_132;Cube#ID_133;Cube#ID_134;Cube#ID_135;Cube#ID_136;Cube#ID_137;Cube#ID_138;Cube#ID_139;Cube#ID_140;Cube#ID_141;Cube#ID_142;Cube#ID_143;Cube#ID_144;Cube#ID_145;Cube#ID_146;Cube#ID_147;Cube#ID_148;Cube#ID_149;Cube#ID_150;Cube#ID_151;Cube#ID_152;Cube#ID_153;Cube#ID_154;Cube#ID_155;Cube#ID_156;Cube#ID_157;Cube#ID_158;Cube#ID_159;Cube#ID_160;Cube#ID_161;Cube#ID_162;Cube#ID_163;Cube#ID_164;Cube#ID_165;Cube#ID_166;Cube#ID_167;Cube#ID_168;Cube#ID_169;Cube#ID_170;Cube#ID_171;Cube#ID_172;Cube#ID_173;Cube#ID_174;Cube#ID_175;Cube#ID_176;Cube#ID_177;Cube#ID_178;Cube#ID_179;Cube#ID_180;Cube#ID_181;Cube#ID_182;Cube#ID_183;Cube#ID_184;Cube#ID_185;Cube#ID_186;Cube#ID_187;Cube#ID_188;Cube#ID_189;Cube#ID_190;Cube#ID_191;Cube#ID_192;Cube#ID_193;Cube#ID_194;Cube#ID_195;Cube#ID_196;Cube#ID_197;Cube#ID_198;Cube#ID_199;Cube#ID_200;Cube#ID_201;Cube#ID_202;Cube#ID_203;Cube#ID_204;Cube#ID_205;Cube#ID_206;Cube#ID_207;Cube#ID_208;Cube#ID_209;Cube#ID_210;Cube#ID_211;Cube#ID_212;Cube#ID_213;Cube#ID_214;Cube#ID_215;Cube#ID_216;Cube#ID_217;Cube#ID_218;Cube#ID_219;Cube#ID_220;Cube#ID_221;Cube#ID_222;Cube#ID_223;Cube#ID_224;Cube#ID_225;Cube#ID_226;Cube#ID_227;Cube#ID_228;Cube#ID_229;Cube#ID_230;Cube#ID_231;Cube#ID_232;Cube#ID_233;Cube#ID_234;Cube#ID_235;Cube#ID_236;Cube#ID_237;Cube#ID_238;Cube#ID_239;Cube#ID_240;Cube#ID_241;yanti#ID_242;Cube#ID_243;Cube#ID_244;Cube#ID_245;Cube#ID_246;Cube#ID_247;Cube#ID_248;Cube#ID_249;Cube#ID_250;Cube#ID_251;Cube#ID_252;Cube#ID_253;Cube#ID_254;Cube#ID_255;Cube#ID_256;Cube#ID_257;Cube#ID_258;Cube#ID_259;Cube#ID_260;Cube#ID_261;Cube#ID_262;Cube#ID_263;Cube#ID_264;Cube#ID_265;Cube#ID_266;Cube#ID_267;Cube#ID_268;Cube#ID_269;Cube#ID_270;Cube#ID_271;Cube#ID_272;Cube#ID_273;Cube#ID_274;Cube#ID_275;Cube#ID_276;Cube#ID_277;Cube#ID_278;Cube#ID_279;Cube#ID_280;Cube#ID_281;Cube#ID_282;Cube#ID_283;Cube#ID_284;Cube#ID_285;Cube#ID_286;Cube#ID_287;Cube#ID_288;Cube#ID_289;Cube#ID_290;Cube#ID_291;Cube#ID_292;Cube#ID_293;Cube#ID_294;Cube#ID_295;Cube#ID_296;Cube#ID_297;Cube#ID_298;Cube#ID_299;Cube#ID_300;Cube#ID_301;Cube#ID_302;Cube#ID_303;Cube#ID_304;Cube#ID_305;Cube#ID_306;Cube#ID_307;Cube#ID_308;Cube#ID_309;Cube#ID_310;Cube#ID_311;Cube#ID_312;Cube#ID_313;Cube#ID_314;Cube#ID_315;Cube#ID_316;Cube#ID_317;Cube#ID_318;Cube#ID_319;Cube#ID_320;Cube#ID_321;Cube#ID_322;Cube#ID_323;Cube#ID_324;Cube#ID_325;Cube#ID_326;Cube#ID_327;Cube#ID_328;Cube#ID_329;Cube#ID_330;Cube#ID_331;Cube#ID_332;Cube#ID_333;Cube#ID_334;Cube#ID_335;Cube#ID_336	3;0;6;3;3;3;3;3;3;3;3;6;3;3;3;3;3;3;6;3;3;3;3;3;3;3;3;6;3;3;3;3;3;3;3;3;0;3;3;3;3;3;3;3;3;3;3;3;3;3;3;3;3;3;3;3;3;3;3;3;3;3;3;3;3;3;3;3;3;3;3;3;3;3;3;3;3;3;3;3;3;1;1;1;1;3;3;3;3;3;3;3;3;3;3;3;3;3;3;3;3;3;3;3;3;3;3;3;3;3;3;3;3;3;3;1;3;3;1;3;1;3;3;3;3;3;3;3;3;3;3;1;3;3;3;3;3;3;3;3;3;3;3;3;3;3;3;3;3;3;3;3;3;3;3;3;3;3;3;3;3;3;3;3;3;3;3;3;3;3;3;3;3;3;3;3;3;1;1;1;1;3;3;3;3;3;3;3;3;3;3;3;3;3;3;3;3;3;3;3;3;3;3;3;3;3;3;3;3;3;3;3;3;3;3;3;3;3;3;3;3;3;3;3;3;3;3;3;3;3;3;1;1;1;1;3;3;3;3;3;3;0;3;3;3;3;3;3;3;3;3;3;3;3;3;3;3;3;3;3;3;3;3;3;3;3;3;3;3;3;3;3;3;3;3;3;3;3;3;3;3;3;3;3;3;3;3;3;3;3;3;3;3;3;3;3;3;3;3;3;3;3;3;3;3;3;3;3;3;3;3;3;3;3;3;3;3;3;3;3;3;3;3;3;3;3;3;3;3;3;3;3;3;3;3;3
1001	Cube#ID_1;Ceiling#ID_2;Ceiling#ID_3;Ceiling#ID_4;Ceiling#ID_5;Ceiling#ID_6;Ceiling#ID_7;Cube#ID_8;Cube#ID_9;Cube#ID_10;Cube#ID_11;Ceiling#ID_12;Ceiling#ID_13;Ceiling#ID_14;Ceiling#ID_15;Ceiling#ID_16;Ceiling#ID_17;Ceiling#ID_18;Ceiling#ID_19;Ceiling#ID_20;Ceiling#ID_21;Ceiling#ID_22;Ceiling#ID_23;Ceiling#ID_24;Ceiling#ID_25;Cube#ID_26;Cube#ID_27;Cube#ID_28;Cube#ID_29;Cube#ID_30;Cube#ID_31;Cube#ID_32;Cube#ID_33;Cube#ID_34;Cube#ID_35;Cube#ID_36;Ceiling#ID_37;Cube#ID_38;Cube#ID_39;Ceiling#ID_40;Ceiling#ID_41;Ceiling#ID_42;Ceiling#ID_43;Cube#ID_44;Cube#ID_45;Cube#ID_46;Cube#ID_47;Cube#ID_48;Cube#ID_49;Cube#ID_50;Cube#ID_51;Cube#ID_52;Cube#ID_53;Cube#ID_54;Cube#ID_55;Cube#ID_56;Cube#ID_57;Cube#ID_58;Cube#ID_59;Cube#ID_60;Cube#ID_61;Cube#ID_62;Cube#ID_63;Cube#ID_64;Cube#ID_65;Cube#ID_66;Cube#ID_67;Cube#ID_68;Cube#ID_69;Cube#ID_70;Cube#ID_71;Cube#ID_72;Cube#ID_73;Cube#ID_74;Cube#ID_75;Cube#ID_76;Cube#ID_77;Cube#ID_78;Cube#ID_79;Cube#ID_80;Cube#ID_81;Cube#ID_82;Cube#ID_83;Cube#ID_84;Cube#ID_85;Cube#ID_86;Cube#ID_87;Ceiling#ID_88;Ceiling#ID_89;Ceiling#ID_90;Cube#ID_91;Cube#ID_92;Ceiling#ID_93;Ceiling#ID_94;Cube#ID_95;Cube#ID_96;Cube#ID_97;Cube#ID_98;Ceiling#ID_99;Ceiling#ID_100;Cube#ID_101;Cube#ID_102;Ceiling#ID_103;Cube#ID_104;Cube#ID_105;Cube#ID_106;Ceiling#ID_107;Cube#ID_108;Cube#ID_109;Cube#ID_110;Cube#ID_111;Ceiling#ID_112;Cube#ID_113;Cube#ID_114;Ceiling#ID_115;Cube#ID_116;Cube#ID_117;Ceiling#ID_118;Ceiling#ID_119;Ceiling#ID_120;Ceiling#ID_121;Ceiling#ID_122;Ceiling#ID_123	1;1;1;1;1;1;1;1;1;1;1;1;1;1;1;1;1;1;1;1;1;1;1;1;1;2;2;2;2;2;2;2;2;2;2;2;2;2;2;2;2;2;2;2;2;1;1;1;1;1;1;1;1;1;1;1;3;3;3;3;3;3;3;3;3;3;3;3;3;3;3;3;3;3;3;3;3;3;3;3;3;3;3;3;3;3;3;3;3;3;3;3;3;3;3;3;3;3;3;3;3;3;3;3;3;3;3;3;3;3;3;3;3;3;3;3;3;3;3;3;3;3;3
1002	wall#ID_1;wall#ID_2;wall#ID_3;wall#ID_4;wall#ID_5;wall#ID_6;ceiling#ID_7;blindage#ID_8;blindage#ID_9;blindage#ID_10;blindage#ID_11;blindage#ID_12;blindage#ID_13;blindage#ID_14;blindage#ID_15;blindage#ID_16;blindage#ID_17;blindage#ID_18;blindage#ID_19;blindage#ID_20;blindage#ID_21;blindage#ID_22;blindage#ID_23;metal blindage#ID_24;metal blindage#ID_25;metal blindage#ID_26;metal blindage#ID_27;metal blindage#ID_28;metal blindage#ID_29;metal blindage#ID_30;metal blindage#ID_31;metal blindage#ID_32;metal blindage#ID_33;metal blindage#ID_34;metal blindage#ID_35;metal blindage#ID_36;metal blindage#ID_37;metal blindage#ID_38;metal blindage#ID_39;metal blindage#ID_40;metal blindage#ID_41;metal blindage#ID_42;metal blindage#ID_43;metal blindage#ID_44;metal blindage#ID_45;metal blindage#ID_46;metal blindage#ID_47;metal blindage#ID_48;metal blindage#ID_49;metal blindage#ID_50;metal blindage#ID_51;Ceiling#ID_52;Ceiling#ID_53;Ceiling#ID_54;Ceiling#ID_55;Ceiling#ID_56;Ceiling#ID_57;Ceiling#ID_58;Ceiling#ID_59;Ceiling#ID_60;Ceiling#ID_61;Ceiling#ID_62;Ceiling#ID_63;Ceiling#ID_64;Ceiling#ID_65;Ceiling#ID_66;Ceiling#ID_67;Ceiling#ID_68;Ceiling#ID_69;Ceiling#ID_70;Ceiling#ID_71;Ceiling#ID_72;Ceiling#ID_73;Ceiling#ID_74;Ceiling#ID_75;Ceiling#ID_76;Ceiling#ID_77;Ceiling#ID_78;Ceiling#ID_79;Ceiling#ID_80;Ceiling#ID_81;Ceiling#ID_82;Ceiling#ID_83;Ceiling#ID_84;Ceiling#ID_85;Ceiling#ID_86;Ceiling#ID_87;Ceiling#ID_88	3;3;3;3;3;3;3;3;3;3;3;3;3;3;3;3;3;3;3;3;3;3;3;1;1;1;1;1;1;1;1;1;1;1;1;1;1;1;1;1;1;1;1;1;1;1;1;1;1;1;1;1;1;1;1;1;1;1;1;1;1;1;1;1;1;1;1;1;1;1;1;1;1;1;1;1;1;1;1;1;1;1;1;1;1;1;1;1
1003	dimian#ID_1;Cube#ID_2;Cube#ID_3;Cube#ID_4;Cube#ID_5;Cube#ID_6;Cube#ID_7;Cube#ID_8;Cube#ID_9;Cube#ID_10;dunzi#ID_11;Cube#ID_12;Cube#ID_13;Cube#ID_14;Cube#ID_15;Cube#ID_16;Cube#ID_17;Cube#ID_18;Cube#ID_19;Cube#ID_20;Cube#ID_21;Cube#ID_22;Cube#ID_23;Cube#ID_24;Cube#ID_25;Cube#ID_26;Cube#ID_27;Cube#ID_28;Cube#ID_29;Cube#ID_30;Cube#ID_31;Cube#ID_32;Cube#ID_33;Cube#ID_34;Cube#ID_35;Cube#ID_36;Cube#ID_37;Cube#ID_38;Cube#ID_39;Cube#ID_40;Cube#ID_41;Cube#ID_42;Cube#ID_43;Cube#ID_44;Cube#ID_45;Cube#ID_46;Cube#ID_47;Cube#ID_48;Cube#ID_49;Cube#ID_50;Cube#ID_51;Cube#ID_52;Cube#ID_53;Cube#ID_54;Cube#ID_55;Cube#ID_56;Cube#ID_57;Cube#ID_58;Cube#ID_59;Cube#ID_60;Cube#ID_61;Cube#ID_62;Cube#ID_63;yanti#ID_64;Cube#ID_65;Cube#ID_66;Cube#ID_67;Cube#ID_68;Cube#ID_69;Cube#ID_70;Cube#ID_71;Cube#ID_72;Cube#ID_73;Cube#ID_74;Cube#ID_75;Cube#ID_76;Cube#ID_77;Cube#ID_78;Cube#ID_79;Cube#ID_80;Cube#ID_81;Cube#ID_82;Cube#ID_83;Cube#ID_84;Cube#ID_85;Cube#ID_86;Cube#ID_87;Cube#ID_88;Cube#ID_89;Cube#ID_90;Cube#ID_91;Cube#ID_92;Cube#ID_93;Cube#ID_94;Cube#ID_95;Cube#ID_96;Cube#ID_97;Cube#ID_98	0;6;3;3;3;3;3;3;3;3;0;3;3;3;3;3;3;3;3;3;3;3;3;3;3;3;3;3;3;3;3;3;3;3;3;3;3;3;3;3;3;3;3;3;3;3;3;3;3;3;3;3;3;3;3;1;1;1;1;3;3;3;3;0;3;3;3;3;3;3;3;3;3;3;3;3;3;3;3;3;3;3;3;3;3;3;3;3;3;3;3;3;3;3;3;3;3;3
1004	Cube#ID_1;Cube#ID_2;Cube#ID_3;Cube#ID_4;Cube#ID_5;Cube#ID_6;Cube#ID_7;Cube#ID_8;Cube#ID_9;Cube#ID_10;Cube#ID_11;Cube#ID_12;Cube#ID_13;Cube#ID_14;Cube#ID_15;Cube#ID_16;Cube#ID_17;Cube#ID_18;Cube#ID_19;Cube#ID_20;Cube#ID_21;Cube#ID_22;Cube#ID_23;Cube#ID_24;Cube#ID_25;Cube#ID_26;Ceiling#ID_27;Cube#ID_28;Cube#ID_29;Cube#ID_30;Cube#ID_31;Cube#ID_32;Cube#ID_33;Cube#ID_34;Cube#ID_35;Cube#ID_36;Cube#ID_37;Cube#ID_38;Cube#ID_39;Cube#ID_40;Cube#ID_41;Cube#ID_42;Cube#ID_43;Cube#ID_44;Cube#ID_45;Cube#ID_46;Cube#ID_47;Cube#ID_48;Cube#ID_49;Cube#ID_50;Cube#ID_51;Cube#ID_52;Cube#ID_53;Cube#ID_54;Cube#ID_55;Cube#ID_56;Cube#ID_57;Cube#ID_58;Cube#ID_59;Cube#ID_60;Cube#ID_61;Cube#ID_62;Cube#ID_63;Cube#ID_64;Cube#ID_65;Cube#ID_66;Cube#ID_67;Cube#ID_68;Cube#ID_69;Cube#ID_70;Cube#ID_71;Cube#ID_72;Cube#ID_73;Cube#ID_74;Cube#ID_75;Cube#ID_76;Cube#ID_77;Cube#ID_78;Cube#ID_79;Cube#ID_80;Cube#ID_81;Cube#ID_82;Cube#ID_83;Cube#ID_84;Cube#ID_85;Ceiling#ID_86;Ceiling#ID_87;Ceiling#ID_88;Ceiling#ID_89;Ceiling#ID_90;Cube#ID_91;Cube#ID_92;Cube#ID_93;Cube#ID_94;Cube#ID_95;Cube#ID_96;Cube#ID_97;Cube#ID_98;Cube#ID_99;Cube#ID_100;Cube#ID_101;Cube#ID_102;Cube#ID_103;Cube#ID_104;Cube#ID_105;Cube#ID_106;Cube#ID_107;Cube#ID_108;Cube#ID_109;Cube#ID_110;Cube#ID_111;Cube#ID_112;Cube#ID_113;Cube#ID_114;Cube#ID_115;Cube#ID_116;Cube#ID_117;Cube#ID_118;Cube#ID_119;Cube#ID_120;Cube#ID_121;Cube#ID_122;Cube#ID_123;Cube#ID_124;Cube#ID_125;Cube#ID_126;Cube#ID_127;Cube#ID_128;Cube#ID_129;Cube#ID_130;Cube#ID_131;Ceiling#ID_132;Cube#ID_133;Cube#ID_134;Ceiling#ID_135;Ceiling#ID_136;Cube#ID_137;Cube#ID_138;Cube#ID_139;Cube#ID_140;Cube#ID_141;Cube#ID_142;Cube#ID_143;Cube#ID_144;Cube#ID_145;Cube#ID_146;Cube#ID_147;Cube#ID_148;Cube#ID_149;Cube#ID_150;Cube#ID_151;Cube#ID_152;Cube#ID_153;Cube#ID_154;Cube#ID_155;Cube#ID_156;Cube#ID_157;Cube#ID_158;Cube#ID_159;Cube#ID_160;Cube#ID_161;Cube#ID_162;Cube#ID_163;Cube#ID_164;Cube#ID_165;Cube#ID_166;Cube#ID_167;Ceiling#ID_168;Ceiling#ID_169;Cube#ID_170;Cube#ID_171;Cube#ID_172;Cube#ID_173;Cube#ID_174;Cube#ID_175;Cube#ID_176;Cube#ID_177;Cube#ID_178;Cube#ID_179;Cube#ID_180;Cube#ID_181;Cube#ID_182;Cube#ID_183;Cube#ID_184;Cube#ID_185;Cube#ID_186;Cube#ID_187;Ceiling#ID_188;Cube#ID_189;Cube#ID_190;Cube#ID_191;Cube#ID_192;Cube#ID_193;Cube#ID_194;Cube#ID_195;Cube#ID_196;Cube#ID_197;Ceiling#ID_198;Ceiling#ID_199;Cube#ID_200;Ceiling#ID_201;Ceiling#ID_202;Ceiling#ID_203;Ceiling#ID_204;Cube#ID_205;Cube#ID_206;Cube#ID_207;Cube#ID_208;Cube#ID_209;Cube#ID_210;Cube#ID_211;Cube#ID_212;Cube#ID_213;Cube#ID_214;Ceiling#ID_215;Cube#ID_216;Cube#ID_217;Cube#ID_218;Cube#ID_219;Ceiling#ID_220;Cube#ID_221;Cube#ID_222;Cube#ID_223;Cube#ID_224;Cube#ID_225;Ceiling#ID_226;Cube#ID_227;Cube#ID_228;Cube#ID_229;Cube#ID_230;Cube#ID_231;Cube#ID_232;Cube#ID_233;Cube#ID_234;Cube#ID_235;Cube#ID_236;Cube#ID_237;Cube#ID_238;Cube#ID_239;Cube#ID_240;Cube#ID_241;Cube#ID_242;Cube#ID_243;Cube#ID_244;Cube#ID_245;Cube#ID_246;Cube#ID_247;Cube#ID_248;Cube#ID_249;Cube#ID_250;Cube#ID_251;Cube#ID_252;Cube#ID_253;Cube#ID_254;Cube#ID_255;Cube#ID_256;Cube#ID_257;Cube#ID_258;Cube#ID_259;Cube#ID_260;Cube#ID_261;Cylinder#ID_262;Cylinder#ID_263;Cube#ID_264;Cube#ID_265;Cube#ID_266;Cube#ID_267;Cube#ID_268;Cube#ID_269;Cube#ID_270;Cube#ID_271;Cube#ID_272;Cube#ID_273;Ceiling#ID_274;Ceiling#ID_275;Ceiling#ID_276;Ceiling#ID_277	3;3;3;3;3;3;3;3;3;3;3;3;3;3;3;3;3;3;3;3;3;3;3;3;3;3;3;3;3;3;3;3;3;3;3;3;3;3;3;3;3;3;3;3;3;3;3;3;3;3;3;3;3;3;3;3;1;1;3;3;3;3;3;3;3;3;3;3;3;3;3;3;3;3;3;3;3;3;3;3;3;3;3;3;3;3;3;3;3;3;2;2;2;2;2;2;2;2;2;2;2;2;2;2;2;2;2;2;2;2;2;2;2;2;2;2;2;2;2;2;2;2;2;2;2;2;2;2;2;2;2;2;2;2;2;2;1;1;1;1;1;1;1;1;1;1;1;1;1;1;1;1;1;1;1;1;1;1;1;1;1;1;1;1;1;1;1;1;1;1;1;1;1;1;1;1;1;1;1;1;1;1;1;1;1;1;1;1;1;1;1;1;1;1;1;1;1;1;3;2;2;2;2;2;1;1;1;1;1;1;1;1;1;1;1;1;1;1;1;1;1;1;1;1;1;1;1;1;1;1;1;1;1;1;1;1;1;1;1;1;1;1;1;1;1;1;1;1;1;1;1;1;1;1;1;1;1;1;1;1;1;1;1;1;1;1;1;1;1;1;1;1;1;1;1;1;1
1005	Cube#ID_1;Cube#ID_2;Ceiling#ID_3;Cube#ID_4;Cube#ID_5;Cube#ID_6;Ceiling#ID_7;Ceiling#ID_8;Ceiling#ID_9;Cube#ID_10;Cube#ID_11;Cube#ID_12;Cube#ID_13;Cube#ID_14;Cube#ID_15;Cube#ID_16;Ceiling#ID_17;Cube#ID_18;Cube#ID_19;Cube#ID_20;Ceiling#ID_21;Ceiling#ID_22;Ceiling#ID_23;Ceiling#ID_24;Ceiling#ID_25;Ceiling#ID_26;Cube#ID_27;Cube#ID_28;Cube#ID_29;Cube#ID_30;Cube#ID_31;Cube#ID_32;Ceiling#ID_33;Cube#ID_34;Cube#ID_35;Ceiling#ID_36;Cube#ID_37;Cube#ID_38;Cube#ID_39;Ceiling#ID_40;Ceiling#ID_41;Ceiling#ID_42;Cube#ID_43;Cube#ID_44;Cube#ID_45;Cube#ID_46;Cube#ID_47;Cube#ID_48;Cube#ID_49;Cube#ID_50;Cube#ID_51;Cube#ID_52;Cube#ID_53;Cube#ID_54;Ceiling#ID_55;Cube#ID_56;Ceiling#ID_57;Cube#ID_58;Cube#ID_59;Cube#ID_60;Cube#ID_61;Cube#ID_62;Cube#ID_63;Cube#ID_64;Cube#ID_65;Cube#ID_66;Cube#ID_67;Cube#ID_68;Cube#ID_69;Cube#ID_70;Ceiling#ID_71;Cube#ID_72;Cube#ID_73;Cube#ID_74;Ceiling#ID_75;Ceiling#ID_76;Ceiling#ID_77;Ceiling#ID_78;Cube#ID_79;Cube#ID_80;Cube#ID_81;Cube#ID_82;Cube#ID_83;Cube#ID_84;Cube#ID_85;Cube#ID_86;Cube#ID_87;Cube#ID_88;Cube#ID_89;Cube#ID_90;Cube#ID_91;Cube#ID_92;Cube#ID_93;Cube#ID_94;Cube#ID_95;Ceiling#ID_96;Ceiling#ID_97;Cube#ID_98;Ceiling#ID_99;Ceiling#ID_100;Cube#ID_101;Ceiling#ID_102;Cube#ID_103;Cube#ID_104;Cube#ID_105;Cube#ID_106;Cube#ID_107;Cube#ID_108;Cube#ID_109;Ceiling#ID_110;Cube#ID_111;Cube#ID_112;Cube#ID_113;Cube#ID_114;Cube#ID_115;Cube#ID_116;Cube#ID_117;Cube#ID_118;Cube#ID_119;Ceiling#ID_120;Cube#ID_121;Cube#ID_122;Cube#ID_123;Cube#ID_124;Cube#ID_125;Cube#ID_126;Cube#ID_127;Cube#ID_128;Cube#ID_129;Cube#ID_130;Cube#ID_131;Cube#ID_132;Cube#ID_133;Cube#ID_134;Cube#ID_135;Cube#ID_136;Cube#ID_137;Cube#ID_138;Cube#ID_139;Cube#ID_140;Cube#ID_141;Cube#ID_142;Cube#ID_143;Cube#ID_144;Cube#ID_145;Cube#ID_146;Cube#ID_147;Cube#ID_148;Cube#ID_149;Cube#ID_150;Cube#ID_151;Cube#ID_152;Cube#ID_153;Cube#ID_154;Cube#ID_155;Cube#ID_156;Cube#ID_157;Cube#ID_158;Cube#ID_159;Cube#ID_160;Cube#ID_161;Cube#ID_162;Cube#ID_163;Cube#ID_164;Cube#ID_165;Cube#ID_166;Cube#ID_167;Cube#ID_168;Cube#ID_169;Cube#ID_170;Cube#ID_171;Cube#ID_172;Cube#ID_173;Cube#ID_174;Ceiling#ID_175;Cube#ID_176;Cube#ID_177;Cube#ID_178;Cube#ID_179;Cube#ID_180;Cube#ID_181;Ceiling#ID_182;Cube#ID_183;Cube#ID_184;Cube#ID_185;Cube#ID_186;Cube#ID_187;Cube#ID_188;Cube#ID_189;Ceiling#ID_190;Cube#ID_191;Cube#ID_192;Cube#ID_193;Cube#ID_194;Cube#ID_195;Cube#ID_196;Cube#ID_197;Cube#ID_198;Cube#ID_199;Cube#ID_200;Cube#ID_201;Cube#ID_202;Cube#ID_203;Cube#ID_204;Ceiling#ID_205;Ceiling#ID_206;Ceiling#ID_207;Ceiling#ID_208;Ceiling#ID_209;Ceiling#ID_210;Ceiling#ID_211;Cube#ID_212;Cube#ID_213;Cube#ID_214;Cube#ID_215;Cube#ID_216;Cube#ID_217;Cube#ID_218;Cube#ID_219;Ceiling#ID_220;Ceiling#ID_221;Ceiling#ID_222;Ceiling#ID_223;Ceiling#ID_224;Ceiling#ID_225;Ceiling#ID_226;Ceiling#ID_227;Ceiling#ID_228;Ceiling#ID_229;Ceiling#ID_230;Cube#ID_231;men#ID_232;men#ID_233;box#ID_234;box#ID_235;box#ID_236;box#ID_237;box#ID_238;box#ID_239;box#ID_240;box#ID_241;box#ID_242;box#ID_243;box#ID_244;box#ID_245;box#ID_246;box#ID_247;box#ID_248;box#ID_249;box#ID_250;box#ID_251;box#ID_252;box#ID_253;box#ID_254;box#ID_255;box#ID_256;box#ID_257;box#ID_258;louti#ID_259;louti#ID_260;louti#ID_261;louti#ID_262;louti#ID_263;louti#ID_264;louti#ID_265;louti#ID_266;louti#ID_267;louti#ID_268;louti#ID_269;louti#ID_270;louti#ID_271;louti#ID_272;louti#ID_273;louti#ID_274;Cube#ID_275;Cube#ID_276;Cube#ID_277;Cube#ID_278;Cube#ID_279;Cube#ID_280;Cube#ID_281;Cube#ID_282;Cube#ID_283;Cube#ID_284;Cube#ID_285;Cube#ID_286;Cube#ID_287;Cube#ID_288;Cube#ID_289;Cube#ID_290;Cube#ID_291;Cylinder#ID_292;Cylinder#ID_293;Cylinder#ID_294;Cylinder#ID_295;Cylinder#ID_296;Cylinder#ID_297;Cylinder#ID_298;Cylinder#ID_299;Cylinder#ID_300;Cylinder#ID_301;Cylinder#ID_302;Cylinder#ID_303;Cylinder#ID_304;Cylinder#ID_305;Cylinder#ID_306;Cylinder#ID_307;Cylinder#ID_308;Cylinder#ID_309;Cylinder#ID_310;Cylinder#ID_311;Cylinder#ID_312;Cylinder#ID_313;Cylinder#ID_314;Cylinder#ID_315;Cylinder#ID_316;Cylinder#ID_317;Cylinder#ID_318;Cylinder#ID_319;Cylinder#ID_320;Cylinder#ID_321;Cylinder#ID_322;Cylinder#ID_323;Cylinder#ID_324;Cylinder#ID_325;Cylinder#ID_326;Cylinder#ID_327;Cylinder#ID_328;Cylinder#ID_329;Cylinder#ID_330;Cylinder#ID_331	3;3;3;3;3;3;3;3;3;3;3;3;3;3;3;3;3;3;3;3;3;3;3;3;3;3;3;3;3;3;3;3;3;3;3;3;3;3;3;3;3;3;3;3;3;3;3;3;3;3;3;3;3;3;3;3;3;3;3;3;3;3;3;3;3;3;3;3;3;3;3;3;3;3;3;3;3;3;3;3;3;3;3;3;3;3;3;3;3;3;3;3;3;3;3;3;3;3;3;3;3;3;3;3;3;3;3;3;3;3;3;3;3;3;3;3;3;3;3;3;3;3;3;3;3;3;3;3;3;3;3;3;3;3;3;3;3;3;3;3;3;3;3;3;3;3;3;3;3;3;3;3;3;3;3;3;3;3;3;3;3;3;3;3;3;3;3;3;3;3;3;3;3;3;3;3;3;3;3;3;3;3;3;3;3;3;3;3;3;3;3;3;3;3;3;3;3;3;3;3;3;3;3;3;3;3;3;3;3;3;3;3;3;3;3;3;3;3;3;3;3;3;3;3;3;3;3;3;3;3;2;2;2;2;2;2;2;2;2;2;2;2;2;2;2;2;2;2;2;2;2;2;2;2;2;2;2;2;3;3;3;3;3;3;3;3;3;3;3;3;3;3;3;3;2;2;2;2;2;2;3;3;3;3;3;3;3;3;3;3;3;2;2;2;2;2;2;2;2;2;2;2;2;2;2;2;2;2;2;2;2;2;2;2;2;2;2;2;2;2;2;2;2;2;2;2;2;2;2;2;2
1006	wall01#ID_1;wall01#ID_2;wall01#ID_3;wall01#ID_4;wall01#ID_5;wall01#ID_6;wall01#ID_7;wall01#ID_8;wall01#ID_9;wall01#ID_10;wall01#ID_11;wall01#ID_12;wall01#ID_13;wall01#ID_14;wall01#ID_15;wall02#ID_16;wall02#ID_17;wall02#ID_18;wall02#ID_19;wall02#ID_20;wall02#ID_21;wall02#ID_22;wall02#ID_23;wall02#ID_24;wall02#ID_25;wall02#ID_26;wall02#ID_27;wall02#ID_28;wall02#ID_29;wall02#ID_30;wall02#ID_31;wall02#ID_32;wall02#ID_33;wall02#ID_34;wall02#ID_35;wall02#ID_36;wall02#ID_37;wall02#ID_38;wall02#ID_39;wall02#ID_40;wall02#ID_41;wall02#ID_42;wall02#ID_43;wall02#ID_44;wall02#ID_45;ceiling#ID_46;ceiling#ID_47;ceiling#ID_48;ceiling#ID_49;ceiling#ID_50;ceiling#ID_51;ceiling#ID_52;ceiling#ID_53;ceiling#ID_54;ceiling#ID_55;ceiling#ID_56;ceiling#ID_57;ceiling#ID_58;ceiling#ID_59;ceiling#ID_60;ceiling#ID_61;ceiling#ID_62;ceiling#ID_63;ceiling#ID_64;ceiling#ID_65;ceiling#ID_66;ceiling#ID_67;ceiling#ID_68;ceiling#ID_69;ceiling#ID_70;ceiling#ID_71;ceiling#ID_72;ceiling#ID_73;ceiling#ID_74;ceiling#ID_75;ceiling#ID_76;ceiling#ID_77;ceiling#ID_78;ceiling#ID_79;ceiling#ID_80;ceiling#ID_81;ceiling#ID_82;ceiling#ID_83;ceiling#ID_84;ceiling#ID_85;ceiling#ID_86;ceiling#ID_87;ceiling#ID_88;ceiling#ID_89;ceiling#ID_90;ceiling#ID_91;ceiling#ID_92;ceiling#ID_93;ceiling#ID_94;ceiling#ID_95;ceiling#ID_96;ceiling#ID_97;ceiling#ID_98;ceiling#ID_99;ceiling#ID_100;ceiling#ID_101;ceiling#ID_102;ceiling#ID_103;ceiling#ID_104;ceiling#ID_105;ceiling#ID_106;ceiling#ID_107;ceiling#ID_108;ceiling#ID_109;ceiling#ID_110;ceiling#ID_111;ceiling#ID_112;ceiling#ID_113;ceiling#ID_114;ceiling#ID_115;ceiling#ID_116;ceiling#ID_117;ceiling#ID_118;ceiling#ID_119;ceiling#ID_120;ceiling#ID_121;ceiling#ID_122;ceiling#ID_123;ceiling#ID_124;ceiling#ID_125;ceiling#ID_126;ceiling#ID_127;ceiling#ID_128;ceiling#ID_129;ceiling#ID_130;ceiling#ID_131;ceiling#ID_132;ceiling#ID_133;ceiling#ID_134;ceiling#ID_135;ceiling#ID_136;ceiling#ID_137;ceiling#ID_138;ceiling#ID_139;ceiling#ID_140;ceiling#ID_141;ceiling#ID_142;ceiling#ID_143;ceiling#ID_144;ceiling#ID_145;ceiling#ID_146;ceiling#ID_147;ceiling#ID_148;ceiling#ID_149;ceiling#ID_150;ceiling#ID_151;ceiling#ID_152;ceiling#ID_153;ceiling#ID_154;ceiling#ID_155;ceiling#ID_156;ceiling#ID_157;ceiling#ID_158;ceiling#ID_159;ceiling#ID_160;ceiling#ID_161;ceiling#ID_162;ceiling#ID_163;ceiling#ID_164;ceiling#ID_165;ceiling#ID_166;ceiling#ID_167;ceiling#ID_168;ceiling#ID_169;ceiling#ID_170;ceiling#ID_171;ceiling#ID_172;ceiling#ID_173;ceiling#ID_174;ceiling#ID_175;ceiling#ID_176;ceiling#ID_177;ceiling#ID_178;ceiling#ID_179;ceiling#ID_180;ceiling#ID_181;ceiling#ID_182;ceiling#ID_183;ceiling#ID_184;ceiling#ID_185;ceiling#ID_186;ceiling#ID_187;ceiling#ID_188;ceiling#ID_189;ceiling#ID_190;ceiling#ID_191;ceiling#ID_192;ceiling#ID_193;ceiling#ID_194;ceiling#ID_195;ceiling#ID_196;ceiling#ID_197;ceiling#ID_198;ceiling#ID_199;ceiling#ID_200;ceiling#ID_201;ceiling#ID_202;ceiling#ID_203;ceiling#ID_204;ceiling#ID_205;ceiling#ID_206;ceiling#ID_207;ceiling#ID_208;ceiling#ID_209;ceiling#ID_210;ceiling#ID_211;ceiling#ID_212;ceiling#ID_213;ceiling#ID_214;ceiling#ID_215;ceiling#ID_216;ceiling#ID_217;ceiling#ID_218;ceiling#ID_219;ceiling#ID_220;ceiling#ID_221;ceiling#ID_222;ceiling#ID_223;ceiling#ID_224;ceiling#ID_225;ceiling#ID_226;ceiling#ID_227;ceiling#ID_228;ceiling#ID_229;ceiling#ID_230;ceiling#ID_231;ceiling#ID_232;ceiling#ID_233;ceiling#ID_234;ceiling#ID_235;ceiling#ID_236;ceiling#ID_237;pingfeng#ID_238;pingfeng#ID_239;pingfeng#ID_240;pingfeng#ID_241;pingfeng#ID_242;pingfeng#ID_243;pingfeng#ID_244;pingfeng#ID_245;pingfeng#ID_246;pingfeng#ID_247;pingfeng#ID_248;pingfeng#ID_249;pingfeng#ID_250;shoushuche#ID_251;shoushuche#ID_252;shoushuche#ID_253;shoushuche#ID_254;tiexingzi#ID_255;muxiang#ID_256;muxiang#ID_257;muxiang#ID_258;muxiang#ID_259;muxiang#ID_260;muxiang#ID_261;muxiang#ID_262;muxiang#ID_263;muxiang#ID_264;muxiang#ID_265;muxiang#ID_266;muxiang#ID_267;muxiang#ID_268;muxiang#ID_269;muxiang#ID_270;muxiang#ID_271;muxiang#ID_272;muxiang#ID_273;muxiang#ID_274;muxiang#ID_275;muxiang#ID_276;muxiang#ID_277;muxiang#ID_278;muxiang#ID_279;muxiang#ID_280;muxiang#ID_281;muxiang#ID_282;muxiang#ID_283;muxiang#ID_284;muxiang#ID_285;muxiang#ID_286;muxiang#ID_287;muxiang#ID_288;muxiang#ID_289;muxiang#ID_290;muxiang#ID_291;muxiang#ID_292;muxiang#ID_293;muxiang#ID_294;muxiang#ID_295;muxiang#ID_296;muxiang#ID_297;muxiang#ID_298;muxiang#ID_299;muxiang#ID_300;muxiang#ID_301;muxiang#ID_302;muxiang#ID_303;muxiang#ID_304;muxiang#ID_305;muxiang#ID_306;shujia#ID_307;Cube#ID_308;Cube#ID_309;Cube#ID_310;Cube#ID_311;Cube#ID_312;Cube#ID_313;Cube#ID_314;Cube#ID_315;Cube#ID_316;Cube#ID_317;Cube#ID_318;Cube#ID_319;Cube#ID_320;Cube#ID_321;louti#ID_322;louti#ID_323;louti#ID_324;louti#ID_325;louti#ID_326;louti#ID_327;louti#ID_328;louti#ID_329;floor#ID_330;floor#ID_331;floor#ID_332;floor#ID_333;floor#ID_334;floor#ID_335;floor#ID_336	3;3;3;3;3;3;3;3;3;3;3;3;3;3;3;3;3;3;3;3;3;3;3;3;3;3;3;3;3;3;3;3;3;3;3;3;3;3;3;3;3;3;3;3;3;1;1;1;1;1;1;1;1;1;1;1;1;1;1;1;1;1;1;1;1;1;1;1;1;1;1;1;1;1;1;1;1;1;1;1;1;1;1;1;1;1;1;1;1;1;1;1;1;1;1;1;1;1;1;1;1;1;1;1;1;1;1;1;1;1;1;1;1;1;1;1;1;1;1;1;1;1;1;1;1;1;1;1;1;1;1;1;1;1;1;1;1;1;1;1;1;1;1;1;1;1;1;1;1;1;1;1;1;1;1;1;1;1;1;1;1;1;1;1;1;1;1;1;1;1;1;1;1;1;1;1;1;1;1;1;1;1;1;1;1;1;1;1;1;1;1;1;1;1;1;1;1;1;1;1;1;1;1;1;1;1;1;1;1;1;1;1;1;1;1;1;1;1;1;1;1;1;1;1;1;1;1;1;1;1;1;1;1;1;1;1;1;1;1;1;1;1;1;1;1;1;1;1;1;1;1;1;1;1;1;2;2;2;2;2;2;2;2;2;2;2;2;2;2;2;2;2;2;2;2;2;2;2;2;2;2;2;2;2;2;2;2;2;2;2;2;2;2;2;2;2;2;2;2;2;2;2;2;2;2;2;3;3;3;3;3;3;3;3;3;3;3;3;3;3;3;1;1;1;1;1;1;1;1;3;3;3;3;3;3;3
1007	floor#ID_1;floor#ID_2;floor#ID_3;floor#ID_4;floor#ID_5;floor#ID_6;floor#ID_7;floor#ID_8;floor#ID_9;floor#ID_10;floor#ID_11;floor#ID_12;floor#ID_13;floor#ID_14;floor#ID_15;louti#ID_16;louti#ID_17;louti#ID_18;louti#ID_19;wall#ID_20;wall#ID_21;wall#ID_22;wall#ID_23;wall#ID_24;wall#ID_25;wall#ID_26;wall#ID_27;wall#ID_28;wall#ID_29;wall#ID_30;wall#ID_31;ceiling#ID_32;wall#ID_33;wall#ID_34;wall#ID_35;wall#ID_36;ceiling#ID_37;wall#ID_38;wall#ID_39;wall#ID_40;ceiling#ID_41;wall#ID_42;wall#ID_43;wall#ID_44;ceiling#ID_45;wall#ID_46;wall#ID_47;wall#ID_48;wall#ID_49;wall#ID_50;wall#ID_51;wall#ID_52;wall#ID_53;wall#ID_54;wall#ID_55;wall#ID_56;wall#ID_57;wall#ID_58;wall#ID_59;wall#ID_60;wall#ID_61;ceiling#ID_62;ceiling#ID_63;top#ID_64;top#ID_65;top#ID_66;top#ID_67;gaotai#ID_68;gaotai#ID_69;gaotai#ID_70;gaotai#ID_71;gaotai#ID_72;gaotai#ID_73;moxiang#ID_74;moxiang#ID_75;moxiang#ID_76;moxiang#ID_77;moxiang#ID_78;moxiang#ID_79;moxiang#ID_80;moxiang#ID_81;moxiang#ID_82;gaotai#ID_83;yanti#ID_84;yanti#ID_85;yanti#ID_86;yanti#ID_87;yanti#ID_88;yanti#ID_89;yanti#ID_90;yanti#ID_91;yanti#ID_92;yanti#ID_93;yanti#ID_94;yanti#ID_95;yanti#ID_96;yanti#ID_97;yanti#ID_98;yanti#ID_99;Cube#ID_100;Cube#ID_101;Cube#ID_102;Cube#ID_103;Cube#ID_104;Cube#ID_105;Cube#ID_106;Cube#ID_107;Cube#ID_108;Cube#ID_109;Cube#ID_110;Cube#ID_111;Cube#ID_112;Cube#ID_113;Cube#ID_114;Cube#ID_115;Cube#ID_116;Cube#ID_117;Cube#ID_118;Cube#ID_119;Cube#ID_120;Cube#ID_121;Cube#ID_122;Cube#ID_123;deng#ID_124;deng#ID_125;deng#ID_126;deng#ID_127;deng#ID_128;deng#ID_129;deng#ID_130;deng#ID_131;deng#ID_132;deng#ID_133;deng#ID_134;deng#ID_135;deng#ID_136;deng#ID_137;deng#ID_138;deng#ID_139;deng#ID_140;deng#ID_141;deng#ID_142;deng#ID_143;deng#ID_144;deng#ID_145;deng#ID_146;deng#ID_147;deng#ID_148;deng#ID_149;deng#ID_150;deng#ID_151;deng#ID_152;deng#ID_153;lajitong#ID_154;deng#ID_155;lajitong#ID_156;deng#ID_157;zidongshouhuo#ID_158;zidongshouhuo#ID_159;car#ID_160;car#ID_161;car#ID_162;car#ID_163;car#ID_164;car#ID_165;car#ID_166;car#ID_167;car#ID_168;car#ID_169;car#ID_170;car#ID_171;car#ID_172;car#ID_173;car#ID_174;car#ID_175;car#ID_176;car#ID_177;car#ID_178;car#ID_179;car#ID_180	3;3;3;3;3;3;3;3;3;3;3;3;3;3;3;3;3;3;3;3;3;3;3;3;3;3;3;3;3;3;3;3;3;3;3;3;3;3;3;3;3;3;3;3;3;3;3;3;3;3;3;3;3;3;3;3;3;3;3;3;3;2;2;2;2;2;2;2;2;2;2;2;2;2;2;2;2;2;2;2;2;2;2;3;3;3;3;3;3;3;3;3;3;3;3;3;3;3;3;3;3;3;3;3;3;3;3;3;3;3;3;3;3;3;3;3;3;3;3;3;3;3;3;2;2;2;2;2;2;2;2;2;2;2;2;2;2;2;2;2;2;2;2;2;2;2;2;2;2;2;2;2;2;1;1;1;1;1;1;1;1;1;1;1;1;1;1;1;1;1;1;1;1;1;1;1;1;1;1;1
1008	Cube#ID_1;Cube#ID_2;Cube#ID_3;Cube#ID_4;Cube#ID_5;Cube#ID_6;Cube#ID_7;Cube#ID_8;Cube#ID_9;Cube#ID_10;Cube#ID_11;Cube#ID_12;Cube#ID_13;Cube#ID_14;Cube#ID_15;Cube#ID_16;Cube#ID_17;Cube#ID_18;Cube#ID_19;Cube#ID_20;Cube#ID_21;Cube#ID_22;Cube#ID_23;Cube#ID_24;Cube#ID_25;Cube#ID_26;Cube#ID_27;Cube#ID_28;Cube#ID_29;Cube#ID_30;Cube#ID_31;Cube#ID_32;Cube#ID_33;Cube#ID_34;Cube#ID_35;Cube#ID_36;Cube#ID_37;Cube#ID_38;Cube#ID_39;Cube#ID_40;Cube#ID_41;Cube#ID_42;Cube#ID_43;Cube#ID_44;Cube#ID_45;Cube#ID_46;Cube#ID_47;Cube#ID_48;Cube#ID_49;Cube#ID_50;Cube#ID_51;Cube#ID_52;Cube#ID_53;Cube#ID_54;Cube#ID_55;Cube#ID_56;Cube#ID_57;Cube#ID_58;Cube#ID_59;Cube#ID_60;Cube#ID_61;Cube#ID_62;Cube#ID_63;Cube#ID_64;Cube#ID_65;Cube#ID_66;Cube#ID_67;Cube#ID_68;Cube#ID_69;Cube#ID_70;Cube#ID_71;Cube#ID_72;Cube#ID_73;Cube#ID_74;Cube#ID_75;Cube#ID_76;Cube#ID_77;Cube#ID_78;Cube#ID_79;Cube#ID_80;Cube#ID_81;Cube#ID_82;Cube#ID_83;Cube#ID_84;Cube#ID_85;Cube#ID_86;Cube#ID_87;Cube#ID_88;Cube#ID_89;Cube#ID_90;Cube#ID_91;Cube#ID_92;Cube#ID_93;Cube#ID_94;Cube#ID_95;Cube#ID_96;Cube#ID_97;Cube#ID_98;Cube#ID_99;Cube#ID_100;Cube#ID_101;Cube#ID_102;Cube#ID_103;Cube#ID_104;Cube#ID_105;Cube#ID_106;Cube#ID_107;Cube#ID_108;Cube#ID_109;Cube#ID_110;Cube#ID_111;Cube#ID_112;Cube#ID_113;Cube#ID_114;Cube#ID_115;Cube#ID_116;Cube#ID_117;Cube#ID_118;Cube#ID_119;Cube#ID_120;Cube#ID_121;Cube#ID_122;Cube#ID_123;Cube#ID_124;Cube#ID_125;Cube#ID_126;Cube#ID_127;Cube#ID_128;Cube#ID_129;Cube#ID_130;Cube#ID_131;Cube#ID_132;Cube#ID_133;Cube#ID_134;Cube#ID_135;Cube#ID_136;Cube#ID_137;Cube#ID_138;Cube#ID_139;Cube#ID_140;Cube#ID_141;Cube#ID_142;Cube#ID_143;Cube#ID_144;Cube#ID_145;Cube#ID_146;Cube#ID_147;Cube#ID_148;Cube#ID_149;Cube#ID_150;Cube#ID_151;Cube#ID_152;Cube#ID_153;Cube#ID_154;Cube#ID_155;Cube#ID_156;Cube#ID_157;Cube#ID_158;Cube#ID_159;Cube#ID_160;Cube#ID_161;Cube#ID_162;Cube#ID_163;Cube#ID_164;Cube#ID_165;Cube#ID_166;Cube#ID_167;Cube#ID_168;Cube#ID_169;Cube#ID_170;Cube#ID_171;Cube#ID_172;Cube#ID_173;Cube#ID_174;Cube#ID_175;Cube#ID_176;Cube#ID_177;Cube#ID_178;Cube#ID_179;Cube#ID_180;Cube#ID_181;Cube#ID_182;Cube#ID_183;Cube#ID_184;Cube#ID_185;Cube#ID_186;Cube#ID_187;Cube#ID_188;Cube#ID_189;Cube#ID_190;Cube#ID_191;Cube#ID_192;Cube#ID_193;Cube#ID_194;Cube#ID_195;Cube#ID_196;Cube#ID_197;Cube#ID_198;Cube#ID_199;Cube#ID_200;Cube#ID_201;Cube#ID_202;Cube#ID_203;Cube#ID_204;Cube#ID_205;Cube#ID_206;Cube#ID_207;Cube#ID_208;Cube#ID_209;Cube#ID_210;Cube#ID_211;Cube#ID_212;Cube#ID_213;Cube#ID_214;Cube#ID_215;Cube#ID_216;Cube#ID_217;Cube#ID_218;Cube#ID_219;Cube#ID_220;Cube#ID_221;Cube#ID_222;Cube#ID_223;Cube#ID_224;Cube#ID_225;Cube#ID_226;Cube#ID_227;Cube#ID_228;Cube#ID_229;Cube#ID_230;Cube#ID_231;Cube#ID_232;Cube#ID_233;Cube#ID_234;Cube#ID_235;Cube#ID_236;Cube#ID_237;Cube#ID_238;Cube#ID_239;Cube#ID_240;Cube#ID_241;Cube#ID_242;Cube#ID_243;Cube#ID_244;Cube#ID_245;Cube#ID_246;Cube#ID_247;Cube#ID_248;Cube#ID_249;Cube#ID_250;Cube#ID_251;Cube#ID_252;Cube#ID_253;Cube#ID_254;Cube#ID_255;Cube#ID_256;Cube#ID_257;Cube#ID_258;Cube#ID_259;Cube#ID_260;Cube#ID_261;Cube#ID_262;Cube#ID_263;Cube#ID_264;Cube#ID_265;Cube#ID_266;Cube#ID_267;Cube#ID_268;Cube#ID_269;Cube#ID_270;Cube#ID_271;Cube#ID_272;Cube#ID_273;Cube#ID_274;Cube#ID_275;Cube#ID_276;Cube#ID_277;Cube#ID_278;Cube#ID_279;Cube#ID_280;Cube#ID_281;Cube#ID_282;Cube#ID_283;Cube#ID_284;Cube#ID_285;Cube#ID_286;Cube#ID_287;Cube#ID_288;Cube#ID_289;Cube#ID_290;Cube#ID_291;Cube#ID_292;Cube#ID_293;Cube#ID_294;Cube#ID_295;Cube#ID_296;Cube#ID_297;Cube#ID_298;Cube#ID_299;Cube#ID_300;Cube#ID_301;Cube#ID_302;Cube#ID_303;Cube#ID_304;Cube#ID_305;Cube#ID_306;Cube#ID_307;Cube#ID_308;Cube#ID_309;Cube#ID_310;Cube#ID_311;Cube#ID_312;Cube#ID_313;Cube#ID_314;Cube#ID_315;Cube#ID_316;Cube#ID_317;Cube#ID_318;Cube#ID_319;Cube#ID_320;Cube#ID_321;Cube#ID_322;Cube#ID_323;Cube#ID_324;Cube#ID_325;Cube#ID_326;Cube#ID_327;Cube#ID_328;Cube#ID_329;Cube#ID_330;Cube#ID_331;Cube#ID_332;Cube#ID_333;Cube#ID_334;Cube#ID_335;Cube#ID_336;Cube#ID_337;Cube#ID_338;Cube#ID_339;Cube#ID_340;Cube#ID_341;Cube#ID_342;Cube#ID_343;Cube#ID_344;Cube#ID_345;Cube#ID_346;Cube#ID_347;Cube#ID_348;Cube#ID_349;Cube#ID_350;Cube#ID_351;Cube#ID_352;Cube#ID_353;Cube#ID_354;Cube#ID_355;Cube#ID_356;Cube#ID_357;Cube#ID_358;Cube#ID_359;Cube#ID_360;Cube#ID_361;Cube#ID_362;Cube#ID_363;Cube#ID_364;Cube#ID_365;Cube#ID_366	3;3;3;3;3;3;3;3;3;3;3;3;3;3;3;3;3;3;3;3;3;3;3;3;3;3;3;3;3;3;3;3;3;3;3;3;3;3;3;3;3;3;3;3;3;3;3;3;3;3;3;3;3;3;3;3;3;3;3;3;3;3;3;3;3;3;3;3;3;3;3;3;3;3;3;3;3;3;3;3;3;3;3;3;3;3;3;3;3;3;3;3;3;3;3;3;3;3;3;3;3;3;3;3;3;3;3;3;3;3;3;3;3;3;3;3;3;3;3;3;3;3;3;3;3;3;3;3;3;3;3;3;3;3;3;3;3;3;3;3;3;3;3;3;3;3;3;3;3;3;3;3;3;3;3;3;3;3;3;3;3;3;3;3;3;3;3;3;3;3;3;3;3;3;3;3;3;3;3;3;3;3;3;3;3;3;3;3;3;3;3;3;3;3;3;3;3;3;3;3;3;3;3;3;3;3;3;3;3;3;3;3;3;3;3;3;3;3;3;3;3;3;3;3;3;3;3;3;3;3;3;3;3;3;3;3;3;3;3;3;3;3;3;3;3;3;3;3;3;3;3;3;3;3;3;3;3;3;3;3;3;3;3;3;3;3;3;3;3;3;3;3;3;3;3;3;3;3;3;3;3;2;2;2;2;2;2;2;2;2;2;2;2;2;2;2;2;2;2;2;2;2;2;2;2;2;2;2;2;2;2;2;2;2;2;2;2;2;2;2;2;2;2;2;2;2;2;2;2;2;2;2;2;2;2;2;2;2;2;2;2;2;2;2;2;2;2;2;2;2;2;2;2;2;2;2;2;2;2;3;3;3;3;3;3;3
1009	Cube#ID_1;Cube#ID_2;Cube#ID_3;Cube#ID_4;Cube#ID_5;Cube#ID_6;Cube#ID_7;Cube#ID_8;Cube#ID_9;Cube#ID_10;Cube#ID_11;Cube#ID_12;Cube#ID_13;Cube#ID_14;Cube#ID_15;Cube#ID_16;Cube#ID_17;Cube#ID_18;Cube#ID_19;Cube#ID_20;Cube#ID_21;Cube#ID_22;Cube#ID_23;Cube#ID_24;Cube#ID_25;Cube#ID_26;Cube#ID_27;Cube#ID_28;Cube#ID_29;Cube#ID_30;Cube#ID_31;Cube#ID_32;Cube#ID_33;Cube#ID_34;Cube#ID_35;Cube#ID_36;Cube#ID_37;Cube#ID_38;Cube#ID_39;Cube#ID_40;Cube#ID_41;Cube#ID_42;Cube#ID_43;Cube#ID_44;Cube#ID_45;Cube#ID_46;Cube#ID_47;Cube#ID_48;Cube#ID_49;Cube#ID_50;Cube#ID_51;Cube#ID_52;Cube#ID_53;Cube#ID_54;Cube#ID_55;Ceiling#ID_56;Ceiling#ID_57;Ceiling#ID_58;Cube#ID_59;Cube#ID_60;Cube#ID_61;Cube#ID_62;Cube#ID_63;Cube#ID_64;Cube#ID_65;Cube#ID_66;Cube#ID_67;Cube#ID_68;Cube#ID_69;Cube#ID_70;Cube#ID_71;Cube#ID_72;Cube#ID_73;Cube#ID_74;Cube#ID_75;Cube#ID_76;Cube#ID_77;Cube#ID_78;Cube#ID_79;Cube#ID_80;Cube#ID_81;Cube#ID_82;Ceiling#ID_83;Ceiling#ID_84;Ceiling#ID_85;Ceiling#ID_86;Ceiling#ID_87;Ceiling#ID_88;Ceiling#ID_89;Ceiling#ID_90;Ceiling#ID_91;Cube#ID_92;Cube#ID_93;Cube#ID_94;Cube#ID_95;Cube#ID_96;Cube#ID_97;Cube#ID_98	1;1;1;1;1;1;1;1;1;1;1;1;1;1;1;1;1;1;1;1;1;1;1;1;1;1;1;1;1;1;1;1;1;1;1;1;1;1;1;1;1;1;1;1;1;1;1;1;1;1;1;1;1;1;1;1;1;1;1;1;1;1;1;1;1;1;1;1;1;1;1;1;1;1;1;1;1;1;1;1;1;1;1;1;1;1;1;1;1;1;1;1;1;1;1;1;1;1
2001	wall01#ID_1;wall01#ID_2;wall01#ID_3;wall01#ID_4;wall01#ID_5;wall01#ID_6;wall01#ID_7;wall01#ID_8;wall01#ID_9;wall01#ID_10;wall01#ID_11;wall01#ID_12;wall01#ID_13;wall01#ID_14;wall01#ID_15;wall01#ID_16;wall01#ID_17;wall01#ID_18;wall01#ID_19;wall01#ID_20;wall01#ID_21;wall01#ID_22;wall02#ID_23;wall02#ID_24;wall02#ID_25;wall02#ID_26;wall02#ID_27;wall02#ID_28;wall02#ID_29;wall02#ID_30;wall02#ID_31;wall02#ID_32;wall02#ID_33;wall02#ID_34;wall02#ID_35;wall02#ID_36;wall02#ID_37;wall02#ID_38;wall02#ID_39;wall02#ID_40;wall02#ID_41;wall02#ID_42;wall02#ID_43;wall02#ID_44;wall02#ID_45;wall02#ID_46;wall02#ID_47;wall02#ID_48;wall02#ID_49;wall02#ID_50;wall02#ID_51;wall02#ID_52;gangtiao#ID_53;gangtiao#ID_54;gangtiao#ID_55;gangtiao#ID_56;gangtiao#ID_57;gangtiao#ID_58;gangtiao#ID_59;gangtiao#ID_60;gangtiao#ID_61;gangtiao#ID_62;gangtiao#ID_63;gangtiao#ID_64;gangtiao#ID_65;gangtiao#ID_66;gangtiao#ID_67;gangtiao#ID_68;gangtiao#ID_69;gangtiao#ID_70;gangtiao#ID_71;gangtiao#ID_72;gangtiao#ID_73;gangtiao#ID_74;gangtiao#ID_75;gangtiao#ID_76;gangtiao#ID_77;gangtiao#ID_78;gangtiao#ID_79;gangtiao#ID_80;gangtiao#ID_81;gangtiao#ID_82;gangtiao#ID_83;gangtiao#ID_84;gangtiao#ID_85;gangtiao#ID_86;gangtiao#ID_87;gangtiao#ID_88;gangtiao#ID_89;gangtiao#ID_90;gangtiao#ID_91;gangtiao#ID_92;gangtiao#ID_93;gangtiao#ID_94;gangtiao#ID_95;gangtiao#ID_96;gangtiao#ID_97;gangtiao#ID_98;gangtiao#ID_99;gangtiao#ID_100;gangtiao#ID_101;gangtiao#ID_102;gangtiao#ID_103;gangtiao#ID_104;gangtiao#ID_105;gangtiao#ID_106;gangtiao#ID_107;gangtiao#ID_108;gangtiao#ID_109;gangtiao#ID_110;gangtiao#ID_111;gangtiao#ID_112;gangtiao#ID_113;gangtiao#ID_114;gangtiao#ID_115;gangtiao#ID_116;gangtiao#ID_117;gangtiao#ID_118;gangtiao#ID_119;gangtiao#ID_120;gangtiao#ID_121;gangtiao#ID_122;gangtiao#ID_123;gangtiao#ID_124;gangtiao#ID_125;gangtiao#ID_126;gangtiao#ID_127;gangtiao#ID_128;gangtiao#ID_129;gangtiao#ID_130;gangtiao#ID_131;gangtiao#ID_132;gangtiao#ID_133;gangtiao#ID_134;gangtiao#ID_135;gangtiao#ID_136;gangtiao#ID_137;gangtiao#ID_138;gangtiao#ID_139;gangtiao#ID_140;gangtiao#ID_141;gangtiao#ID_142;gangtiao#ID_143;gangtiao#ID_144;gangtiao#ID_145;gangtiao#ID_146;gangtiao#ID_147;gangtiao#ID_148;gangtiao#ID_149;gangtiao#ID_150;gangtiao#ID_151;gangtiao#ID_152;gangtiao#ID_153;gangtiao#ID_154;gangtiao#ID_155;gangtiao#ID_156;gangtiao#ID_157;gangtiao#ID_158;gangtiao#ID_159;gangtiao#ID_160;gangtiao#ID_161;gangtiao#ID_162;gangtiao#ID_163;gangtiao#ID_164;gangtiao#ID_165;gangtiao#ID_166;gangtiao#ID_167;gangtiao#ID_168;gangtiao#ID_169;gangtiao#ID_170;gangtiao#ID_171;gangtiao#ID_172;gangtiao#ID_173;gangtiao#ID_174;gangtiao#ID_175;gangtiao#ID_176;gangtiao#ID_177;gangtiao#ID_178;gangtiao#ID_179;gangtiao#ID_180;gangtiao#ID_181;gangtiao#ID_182;gangtiao#ID_183;gangtiao#ID_184;gangtiao#ID_185;gangtiao#ID_186;gangtiao#ID_187;gangtiao#ID_188;gangtiao#ID_189;gangtiao#ID_190;gangtiao#ID_191;gangtiao#ID_192;gangtiao#ID_193;gangtiao#ID_194;gangtiao#ID_195;gangtiao#ID_196;gangtiao#ID_197;gangtiao#ID_198;gangtiao#ID_199;gangtiao#ID_200;gangtiao#ID_201;gangtiao#ID_202;gangtiao#ID_203;gangtiao#ID_204;gangtiao#ID_205;gangtiao#ID_206;gangtiao#ID_207;gangtiao#ID_208;gangtiao#ID_209;gangtiao#ID_210;gangtiao#ID_211;gangtiao#ID_212;gangtiao#ID_213;gangtiao#ID_214;gangtiao#ID_215;gangtiao#ID_216;gangtiao#ID_217;gangtiao#ID_218;gangtiao#ID_219;gangtiao#ID_220;gangtiao#ID_221;gangtiao#ID_222;gangtiao#ID_223;gangtiao#ID_224;gangtiao#ID_225;gangtiao#ID_226;gangtiao#ID_227;gangtiao#ID_228;gangtiao#ID_229;gangtiao#ID_230;gangtiao#ID_231;gangtiao#ID_232;gangtiao#ID_233;gangtiao#ID_234;gangtiao#ID_235;gangtiao#ID_236;pingfeng#ID_237;pingfeng#ID_238;pingfeng#ID_239;pingfeng#ID_240;pingfeng#ID_241;pingfeng#ID_242;pingfeng#ID_243;pingfeng#ID_244;pingfeng#ID_245;pingfeng#ID_246;pingfeng#ID_247;pingfeng#ID_248;pingfeng#ID_249;shoushuche#ID_250;shoushuche#ID_251;shoushuche#ID_252;shoushuche#ID_253;tiecaizhi#ID_254;tiecaizhi#ID_255;tiecaizhi#ID_256;tiecaizhi#ID_257;tiecaizhi#ID_258;tiecaizhi#ID_259;tiexiangzi#ID_260;muxiang#ID_261;muxiang#ID_262;muxiang#ID_263;muxiang#ID_264;muxiang#ID_265;muxiang#ID_266;muxiang#ID_267;muxiang#ID_268;muxiang#ID_269;muxiang#ID_270;muxiang#ID_271;muxiang#ID_272;muxiang#ID_273;muxiang#ID_274;muxiang#ID_275;muxiang#ID_276;muxiang#ID_277;muxiang#ID_278;muxiang#ID_279;muxiang#ID_280;muxiang#ID_281;muxiang#ID_282;muxiang#ID_283;muxiang#ID_284;muxiang#ID_285;muxiang#ID_286;muxiang#ID_287;muxiang#ID_288;muxiang#ID_289;muxiang#ID_290;muxiang#ID_291;muxiang#ID_292;muxiang#ID_293;muxiang#ID_294;muxiang#ID_295;muxiang#ID_296;muxiang#ID_297;muxiang#ID_298;muxiang#ID_299;muxiang#ID_300;muxiang#ID_301;muxiang#ID_302;muxiang#ID_303;muxiang#ID_304;muxiang#ID_305;muxiang#ID_306;muxiang#ID_307;muxiang#ID_308;muxiang#ID_309;muxiang#ID_310;muxiang#ID_311;muxiang#ID_312;muxiang#ID_313;muxiang#ID_314;muxiang#ID_315;muxiang#ID_316;muxiang#ID_317;muxiang#ID_318;muxiang#ID_319;Cube#ID_320;Cube#ID_321;Cube#ID_322;Cube#ID_323;Cube#ID_324;Cube#ID_325;Cube#ID_326;Cube#ID_327;louti#ID_328;louti#ID_329;louti#ID_330;louti#ID_331;louti#ID_332;louti#ID_333;louti#ID_334;louti#ID_335;louti#ID_336;louti#ID_337;louti#ID_338;louti#ID_339;louti#ID_340;louti#ID_341;louti#ID_342;louti#ID_343;louti#ID_344;louti#ID_345;louti#ID_346;louti#ID_347;floor#ID_348;floor#ID_349;floor#ID_350;floor#ID_351;floor#ID_352;floor#ID_353;floor#ID_354	3;3;3;3;3;3;3;3;3;3;3;3;3;3;3;3;3;3;3;3;3;3;3;3;3;3;3;3;3;3;3;3;3;3;3;3;3;3;3;3;3;3;3;3;3;3;3;3;3;3;3;3;1;1;1;1;1;1;1;1;1;1;1;1;1;1;1;1;1;1;1;1;1;1;1;1;1;1;1;1;1;1;1;1;1;1;1;1;1;1;1;1;1;1;1;1;1;1;1;1;1;1;1;1;1;1;1;1;1;1;1;1;1;1;1;1;1;1;1;1;1;1;1;1;1;1;1;1;1;1;1;1;1;1;1;1;1;1;1;1;1;1;1;1;1;1;1;1;1;1;1;1;1;1;1;1;1;1;1;1;1;1;1;1;1;1;1;1;1;1;1;1;1;1;1;1;1;1;1;1;1;1;1;1;1;1;1;1;1;1;1;1;1;1;1;1;1;1;1;1;1;1;1;1;1;1;1;1;1;1;1;1;1;1;1;1;1;1;1;1;1;1;1;1;1;1;1;1;1;1;1;1;1;1;1;1;1;1;1;1;1;1;1;1;1;1;1;1;1;1;1;1;1;1;1;1;1;1;1;1;2;2;2;2;2;2;2;2;2;2;2;2;2;2;2;2;2;2;2;2;2;2;2;2;2;2;2;2;2;2;2;2;2;2;2;2;2;2;2;2;2;2;2;2;2;2;2;2;2;2;2;2;2;2;2;2;2;2;2;2;2;3;3;3;3;3;3;1;1;1;1;1;1;1;1;1;1;1;1;1;1;1;1;1;1;1;1;3;3;3;3;3;3;3
2002	Cube#ID_1;Cube#ID_2;Cube#ID_3;Cube#ID_4;Cube#ID_5;Cube#ID_6;Cube#ID_7;Cube#ID_8;Cube#ID_9;Cube#ID_10;Cube#ID_11;Cube#ID_12;Cube#ID_13;Cube#ID_14;Cube#ID_15;Cube#ID_16;Cube#ID_17;Cube#ID_18;Cube#ID_19;Cube#ID_20;Cube#ID_21;Cube#ID_22;Cube#ID_23;Cube#ID_24;Cube#ID_25;Cube#ID_26;Cube#ID_27;Cube#ID_28;Cube#ID_29;Cube#ID_30;Cube#ID_31;Cube#ID_32;Cube#ID_33;Cube#ID_34;Cube#ID_35;Cube#ID_36;Cube#ID_37;Cube#ID_38;Cube#ID_39;Cube#ID_40;Cube#ID_41;Cube#ID_42;Cube#ID_43;Cube#ID_44;Cube#ID_45;Cube#ID_46;Cube#ID_47;Cube#ID_48;Cube#ID_49;Cube#ID_50;Cube#ID_51;Cube#ID_52;Cube#ID_53;Cube#ID_54;Cube#ID_55;Cube#ID_56;Cube#ID_57;Cube#ID_58;Cube#ID_59;Cube#ID_60;Cube#ID_61;Cube#ID_62;Cube#ID_63;Cube#ID_64;Cube#ID_65;Cube#ID_66;Cube#ID_67;Cube#ID_68;Cube#ID_69;Cube#ID_70;Cube#ID_71;Cube#ID_72;Cube#ID_73;Cube#ID_74;Cube#ID_75;Cube#ID_76;Cube#ID_77;Cube#ID_78;Cube#ID_79;Cube#ID_80;Cube#ID_81;Cube#ID_82;Cube#ID_83;Cube#ID_84;Cube#ID_85;Cube#ID_86;Cube#ID_87;Cube#ID_88;Cube#ID_89;Cube#ID_90;Cube#ID_91;Cube#ID_92;Cube#ID_93;Cube#ID_94;Cube#ID_95;Cube#ID_96;Cube#ID_97;Cube#ID_98;Cube#ID_99;Cube#ID_100;Cube#ID_101;Cube#ID_102;Cube#ID_103;Cube#ID_104;Cube#ID_105;Cube#ID_106;Cube#ID_107;Cube#ID_108;Cube#ID_109;Cube#ID_110;Cube#ID_111;Cube#ID_112;Cube#ID_113;Cube#ID_114;Cube#ID_115;Cube#ID_116;Cube#ID_117;Cube#ID_118;Cube#ID_119;Cube#ID_120;Cube#ID_121;Cube#ID_122;Cube#ID_123;Cube#ID_124;Cube#ID_125;Cube#ID_126;Cube#ID_127;Cube#ID_128;Cube#ID_129;Cube#ID_130;Cube#ID_131;Cube#ID_132;Cube#ID_133;Cube#ID_134;Cube#ID_135;Cube#ID_136;Cube#ID_137;Cube#ID_138;Cube#ID_139;Cube#ID_140;Cube#ID_141;Cube#ID_142;Cube#ID_143;Cube#ID_144;Cube#ID_145;Cube#ID_146;Cube#ID_147;Cube#ID_148;Cube#ID_149;Cube#ID_150;Cube#ID_151;Cube#ID_152;Cube#ID_153;Cube#ID_154;Cube#ID_155;Cube#ID_156;Cube#ID_157;Cube#ID_158;Cube#ID_159;Cube#ID_160;Cube#ID_161;Cube#ID_162;Cube#ID_163;Cylinder#ID_164;Cylinder#ID_165;Cylinder#ID_166;Cylinder#ID_167;Cylinder#ID_168;Cylinder#ID_169;Cylinder#ID_170;Cylinder#ID_171;Cylinder#ID_172;Cylinder#ID_173;Cylinder#ID_174;Cylinder#ID_175;Cylinder#ID_176;Cylinder#ID_177;Cylinder#ID_178;Cylinder#ID_179;Cylinder#ID_180;Cube#ID_181;Cube#ID_182;Cube#ID_183;Cube#ID_184;Cube#ID_185;Cube#ID_186;Cube#ID_187;Cylinder#ID_188;Cylinder#ID_189;Cylinder#ID_190;Cylinder#ID_191;Cylinder#ID_192;Cylinder#ID_193;Cylinder#ID_194;Cylinder#ID_195;Cylinder#ID_196;Cylinder#ID_197;Cylinder#ID_198;Cylinder#ID_199;Cylinder#ID_200;Cylinder#ID_201;Cylinder#ID_202;Cylinder#ID_203;Cylinder#ID_204;Cylinder#ID_205;Cylinder#ID_206;Cylinder#ID_207;Cylinder#ID_208;Cylinder#ID_209;Cylinder#ID_210;Cylinder#ID_211;Cylinder#ID_212;Cylinder#ID_213;Cylinder#ID_214;Cylinder#ID_215;Cylinder#ID_216;Cylinder#ID_217;Cylinder#ID_218;Cylinder#ID_219;Cylinder#ID_220;Cube#ID_221;Cube#ID_222;Cube#ID_223;Cube#ID_224;Cube#ID_225;Cube#ID_226;Cube#ID_227;Cube#ID_228;Cube#ID_229;Cube#ID_230	3;3;3;3;3;3;3;3;3;3;3;3;3;3;3;3;3;3;3;3;3;3;3;3;3;3;3;3;3;3;3;3;3;3;3;3;3;3;3;3;3;3;3;3;3;3;3;3;3;3;3;3;3;3;3;3;3;3;3;3;3;3;3;3;3;3;3;3;3;3;3;3;3;3;3;3;3;3;3;3;3;3;3;3;3;3;3;3;3;3;3;3;3;3;3;3;3;3;3;3;3;3;3;3;3;3;3;3;3;3;3;3;3;3;3;3;3;3;3;3;3;3;3;3;3;3;3;3;3;3;3;3;3;3;3;3;3;3;3;3;3;3;3;3;3;3;3;3;3;3;3;3;3;3;3;3;3;3;3;3;3;3;3;2;2;2;2;2;2;2;2;2;2;2;2;2;2;2;2;2;1;1;1;1;1;1;1;2;2;2;2;2;2;2;2;2;2;2;2;2;2;2;2;2;2;2;2;2;2;2;2;2;2;2;2;2;2;2;2;2;2;2;2;2;2;2;2;2;3;3
2003	Cube#ID_1;Cube#ID_2;Cube#ID_3;Cube#ID_4;Cube#ID_5;Cube#ID_6;Cube#ID_7;Cube#ID_8;Cube#ID_9;Cube#ID_10;Cube#ID_11;Cube#ID_12;Cube#ID_13;Cube#ID_14;Cube#ID_15;Cube#ID_16;Cube#ID_17;Cube#ID_18;Cube#ID_19;Cube#ID_20;Cube#ID_21;Cube#ID_22;Cube#ID_23;Cube#ID_24;Cube#ID_25;Cube#ID_26;Cube#ID_27;Cube#ID_28;Cube#ID_29;Cube#ID_30;Cube#ID_31;Cube#ID_32;Cube#ID_33;Cube#ID_34;Cube#ID_35;Cube#ID_36;Cube#ID_37;Cube#ID_38;Cube#ID_39;Cube#ID_40;Cube#ID_41;Cube#ID_42;Cube#ID_43;Cube#ID_44;Cube#ID_45;Cube#ID_46;Cube#ID_47;Cube#ID_48;Cube#ID_49;Cube#ID_50;Cube#ID_51;Cube#ID_52;Cube#ID_53;Cube#ID_54;Cube#ID_55;Cube#ID_56;Cube#ID_57;Cube#ID_58;Cube#ID_59;Cube#ID_60;Cube#ID_61;Cube#ID_62;Cube#ID_63;Cube#ID_64;Cube#ID_65;Cube#ID_66;Cube#ID_67;Cube#ID_68;Cube#ID_69;Cube#ID_70;Cube#ID_71;Cube#ID_72;Cube#ID_73;Cube#ID_74;Cube#ID_75;Cube#ID_76;Cube#ID_77;Cube#ID_78;Cube#ID_79;Cube#ID_80;Cube#ID_81;Cube#ID_82;Cube#ID_83;Cube#ID_84;Cube#ID_85;Cube#ID_86;Cube#ID_87;Cube#ID_88;Cube#ID_89;Cube#ID_90;Cube#ID_91;Cube#ID_92;Cube#ID_93;Cube#ID_94;Cube#ID_95;Cube#ID_96;Cube#ID_97;Cube#ID_98;Cube#ID_99;Cube#ID_100;Cube#ID_101;Cube#ID_102;Cube#ID_103;Cube#ID_104;Cube#ID_105;Cube#ID_106;Cube#ID_107;Cube#ID_108;Cube#ID_109;Cube#ID_110;Cube#ID_111;Cube#ID_112;Cube#ID_113;Cube#ID_114;Cube#ID_115;Cube#ID_116;Cube#ID_117;Cube#ID_118;Cube#ID_119;Cube#ID_120;Cube#ID_121;Cube#ID_122;Cube#ID_123;Cube#ID_124;Cube#ID_125;Cube#ID_126;Cube#ID_127;Cube#ID_128;Cube#ID_129;Cube#ID_130;Cube#ID_131;Cube#ID_132;Cube#ID_133;Cube#ID_134;Cube#ID_135;Cube#ID_136;Cube#ID_137;Cube#ID_138;Cube#ID_139;Cube#ID_140;Cube#ID_141;Cube#ID_142;Cube#ID_143;Cube#ID_144;Cube#ID_145;Cube#ID_146;Cube#ID_147;Cube#ID_148;Cube#ID_149;Cube#ID_150;Cube#ID_151;Cube#ID_152;Cube#ID_153;Cube#ID_154;Cube#ID_155;Cube#ID_156;Cube#ID_157;Cube#ID_158;Cube#ID_159;Cube#ID_160;Cube#ID_161;Cube#ID_162;Cube#ID_163;Cube#ID_164;Cube#ID_165;Cube#ID_166;Cube#ID_167;Cube#ID_168;Cube#ID_169;Cube#ID_170;Cube#ID_171;Cube#ID_172;Cube#ID_173;Cube#ID_174;Cube#ID_175;Cube#ID_176;Cube#ID_177;Cube#ID_178;Cube#ID_179;Cube#ID_180;Cube#ID_181;Cube#ID_182;Cube#ID_183;Cube#ID_184;Cube#ID_185;Cube#ID_186;Cube#ID_187;Cube#ID_188;Cube#ID_189;Cube#ID_190;Cube#ID_191;Cube#ID_192;Cube#ID_193;Cube#ID_194;Cube#ID_195;Cube#ID_196;Cube#ID_197;Cube#ID_198;Cube#ID_199;Cube#ID_200;Cube#ID_201;Cube#ID_202;Cube#ID_203;Cube#ID_204;Cube#ID_205;Cube#ID_206;Cube#ID_207;Cube#ID_208;Cube#ID_209;Cube#ID_210;Cube#ID_211;Cube#ID_212;Cube#ID_213;Cube#ID_214;Cube#ID_215;Cube#ID_216;Cube#ID_217;Cube#ID_218;Cube#ID_219;Cube#ID_220;Cube#ID_221;Cube#ID_222;Cube#ID_223;Cube#ID_224;Cube#ID_225;Cube#ID_226;Cube#ID_227;Cube#ID_228;Cube#ID_229;Cube#ID_230;Cube#ID_231;Cube#ID_232;Cube#ID_233;Cube#ID_234;Cube#ID_235;Cube#ID_236;Cube#ID_237;Cube#ID_238;Cube#ID_239;Cube#ID_240;Cube#ID_241;Cube#ID_242;Cube#ID_243;Cube#ID_244;Cube#ID_245;Cube#ID_246;Cube#ID_247;Cube#ID_248;Cube#ID_249;Cube#ID_250;Cube#ID_251;Cube#ID_252;Cube#ID_253;Cube#ID_254;Cube#ID_255;Cube#ID_256;Cube#ID_257;Cube#ID_258;Cube#ID_259;Cube#ID_260;Cube#ID_261;Cube#ID_262;Cube#ID_263;Cube#ID_264;Cube#ID_265;Cube#ID_266;Cube#ID_267;Cube#ID_268;Cube#ID_269;Cube#ID_270;Cube#ID_271;Cube#ID_272;Cube#ID_273;Cube#ID_274;Cube#ID_275;Cube#ID_276;Cube#ID_277;Cube#ID_278;Cube#ID_279;Cube#ID_280;Cube#ID_281;Cube#ID_282;Cube#ID_283;Cube#ID_284;Cube#ID_285;Cube#ID_286;Cube#ID_287;Cube#ID_288;Cube#ID_289;Cube#ID_290;Cube#ID_291;Cube#ID_292;Cube#ID_293;Cube#ID_294;Cube#ID_295;Cube#ID_296;Cube#ID_297;Cube#ID_298;Cube#ID_299;Cube#ID_300;Cube#ID_301;Cube#ID_302;Cube#ID_303;Cube#ID_304;Cube#ID_305;Cube#ID_306;Cube#ID_307;Cube#ID_308;Cube#ID_309;Cube#ID_310;Cube#ID_311;Cube#ID_312;Cube#ID_313;Cube#ID_314;Cube#ID_315;Cube#ID_316;Cube#ID_317;Cube#ID_318;Cube#ID_319	3;3;3;3;3;3;3;3;3;3;3;3;3;3;3;3;3;3;3;3;3;3;3;3;3;3;3;3;3;3;3;3;3;3;3;3;3;3;3;3;3;3;3;3;3;3;3;3;3;3;3;3;3;3;3;3;3;3;3;3;3;3;3;3;3;3;3;3;3;3;3;3;3;3;3;3;3;3;3;3;3;3;3;3;3;3;3;3;3;3;3;3;3;3;3;3;3;3;3;3;3;3;3;3;3;3;3;3;3;3;3;3;3;3;3;3;3;3;3;3;3;3;3;3;3;3;3;3;3;3;3;3;3;3;3;3;3;3;3;3;3;3;3;3;3;3;3;3;3;3;3;3;3;3;3;3;3;3;3;3;3;3;3;3;3;3;3;3;3;3;3;3;3;3;3;3;3;3;3;3;3;3;3;3;3;3;3;3;3;3;3;3;3;3;3;3;3;3;3;3;3;3;3;3;3;3;3;3;3;3;3;3;3;3;3;3;3;3;3;3;3;3;3;3;3;3;3;3;3;3;3;3;3;3;3;3;2;2;2;2;2;2;2;2;2;2;2;2;2;2;2;2;2;2;2;2;2;2;2;2;2;2;2;2;2;2;2;2;2;2;2;2;2;2;2;2;2;2;2;2;2;2;2;2;2;2;2;2;2;2;2;2;2;2;2;2;2;2;2;2;2;2;2;2;2;2;3;3;3;3;3;3;3;3;3;3;3;3;3
5001	Cube#ID_1;Cube#ID_2;Ceiling#ID_3;Cube#ID_4;Cube#ID_5;Cube#ID_6;Ceiling#ID_7;Ceiling#ID_8;Ceiling#ID_9;Cube#ID_10;Cube#ID_11;Cube#ID_12;Cube#ID_13;Cube#ID_14;Cube#ID_15;Cube#ID_16;Ceiling#ID_17;Cube#ID_18;Cube#ID_19;Cube#ID_20;Ceiling#ID_21;Ceiling#ID_22;Ceiling#ID_23;Ceiling#ID_24;Ceiling#ID_25;Ceiling#ID_26;Cube#ID_27;Cube#ID_28;Cube#ID_29;Cube#ID_30;Cube#ID_31;Ceiling#ID_32;Ceiling#ID_33;Ceiling#ID_34;Cube#ID_35;Cube#ID_36;Cube#ID_37;Cube#ID_38;Cube#ID_39;Cube#ID_40;Cube#ID_41;Cube#ID_42;Cube#ID_43;Cube#ID_44;Cube#ID_45;Ceiling#ID_46;Cube#ID_47;Ceiling#ID_48;Cube#ID_49;Cube#ID_50;Cube#ID_51;Cube#ID_52;Cube#ID_53;Cube#ID_54;Cube#ID_55;Cube#ID_56;Cube#ID_57;Cube#ID_58;Cube#ID_59;Cube#ID_60;Cube#ID_61;Ceiling#ID_62;Cube#ID_63;Cube#ID_64;Cube#ID_65;Ceiling#ID_66;Ceiling#ID_67;Ceiling#ID_68;Ceiling#ID_69;Cube#ID_70;Cube#ID_71;Cube#ID_72;Cube#ID_73;Cube#ID_74;Cube#ID_75;Cube#ID_76;Cube#ID_77;Cube#ID_78;Cube#ID_79;Cube#ID_80;Cube#ID_81;Cube#ID_82;Ceiling#ID_83;Ceiling#ID_84;Cube#ID_85;Ceiling#ID_86;Ceiling#ID_87;Cube#ID_88;Ceiling#ID_89;Cube#ID_90;Cube#ID_91;Cube#ID_92;Cube#ID_93;Cube#ID_94;Cube#ID_95;Cube#ID_96;Ceiling#ID_97;Cube#ID_98;Cube#ID_99;Cube#ID_100;Cube#ID_101;Cube#ID_102;Cube#ID_103;Cube#ID_104;Cube#ID_105;Cube#ID_106;Ceiling#ID_107;Cube#ID_108;Cube#ID_109;Cube#ID_110;Cube#ID_111;Cube#ID_112;Cube#ID_113;Cube#ID_114;Cube#ID_115;Cube#ID_116;Cube#ID_117;Cube#ID_118;Cube#ID_119;Cube#ID_120;Cube#ID_121;Cube#ID_122;Cube#ID_123;Cube#ID_124;Cube#ID_125;Cube#ID_126;Cube#ID_127;Cube#ID_128;Cube#ID_129;Cube#ID_130;Cube#ID_131;Cube#ID_132;Cube#ID_133;Cube#ID_134;Cube#ID_135;Cube#ID_136;Cube#ID_137;Cube#ID_138;Cube#ID_139;Cube#ID_140;Cube#ID_141;Cube#ID_142;Cube#ID_143;Cube#ID_144;Cube#ID_145;Cube#ID_146;Cube#ID_147;Cube#ID_148;Cube#ID_149;Cube#ID_150;Cube#ID_151;Cube#ID_152;Cube#ID_153;Cube#ID_154;Cube#ID_155;Cube#ID_156;Cube#ID_157;Cube#ID_158;Ceiling#ID_159;Cube#ID_160;Cube#ID_161;Cube#ID_162;Cube#ID_163;Cube#ID_164;Cube#ID_165;Cube#ID_166;Cube#ID_167;Cube#ID_168;Cube#ID_169;Cube#ID_170;Cube#ID_171;Cube#ID_172;Ceiling#ID_173;Cube#ID_174;Cube#ID_175;Cube#ID_176;Cube#ID_177;Cube#ID_178;Cube#ID_179;Cube#ID_180;Cube#ID_181;Cube#ID_182;Ceiling#ID_183;Cube#ID_184;Cube#ID_185;Cube#ID_186;Cube#ID_187;Cube#ID_188;Ceiling#ID_189;Ceiling#ID_190;Ceiling#ID_191;Ceiling#ID_192;Ceiling#ID_193;Ceiling#ID_194;Ceiling#ID_195;Ceiling#ID_196;Ceiling#ID_197;Ceiling#ID_198;Ceiling#ID_199;Cube#ID_200;Cube#ID_201;Cube#ID_202;Cube#ID_203;Cube#ID_204;box#ID_205;box#ID_206;box#ID_207;box#ID_208;box#ID_209;box#ID_210;box#ID_211;box#ID_212;louti#ID_213;louti#ID_214;louti#ID_215;louti#ID_216;Cube#ID_217;Cube#ID_218;Cube#ID_219;Cube#ID_220;Cube#ID_221;Cube#ID_222;Cube#ID_223;Cylinder#ID_224;Ceiling#ID_225;Ceiling#ID_226;Cylinder#ID_227;Cylinder#ID_228;Cylinder#ID_229;Ceiling#ID_230;Ceiling#ID_231;Cylinder#ID_232;Cylinder#ID_233;Cylinder#ID_234;Cylinder#ID_235;Cylinder#ID_236;Cylinder#ID_237;Cylinder#ID_238;Cylinder#ID_239;Cylinder#ID_240;Cylinder#ID_241;Cylinder#ID_242;Cylinder#ID_243;Cylinder#ID_244;Cylinder#ID_245;Cylinder#ID_246;box#ID_247;box#ID_248;box#ID_249;floor#ID_250;floor#ID_251;louti#ID_252;louti#ID_253;louti#ID_254;floor#ID_255;floor#ID_256;floor#ID_257;wall#ID_258;Ceiling#ID_259;wall#ID_260;wall#ID_261;Cylinder#ID_262;Cylinder#ID_263;louti#ID_264;wall#ID_265	3;3;3;3;3;3;3;3;3;3;3;3;3;3;3;3;3;3;3;3;3;3;3;3;3;3;3;3;3;3;3;3;3;3;3;3;3;3;3;3;3;3;3;3;3;3;3;3;3;3;3;3;3;3;3;3;3;3;3;3;3;3;3;3;3;3;3;3;3;3;3;3;3;3;3;3;3;3;3;3;3;3;3;3;3;3;3;3;3;3;3;3;3;3;3;3;3;3;3;3;3;3;3;3;3;3;3;3;3;3;3;3;3;3;3;3;3;3;3;3;3;3;3;3;3;3;3;3;3;3;3;3;3;3;3;3;3;3;3;3;3;3;3;3;3;3;3;3;3;3;3;3;3;3;3;3;3;3;3;3;3;3;3;3;3;3;3;3;3;3;3;3;3;3;3;3;3;3;3;3;3;3;3;3;3;3;3;3;3;3;3;3;3;3;3;3;3;3;3;2;3;3;3;3;2;2;2;2;2;2;2;2;3;3;3;3;3;3;3;3;3;3;3;1;1;1;2;1;1;1;1;2;2;1;2;1;2;1;2;1;1;1;1;1;1;1;2;2;2;3;3;3;3;3;3;3;3;3;3;3;3;1;2;3;3
5002		
5003	wall01#ID_1;wall01#ID_2;wall01#ID_3;wall01#ID_4;wall01#ID_5;wall01#ID_6;wall01#ID_7;wall01#ID_8;wall01#ID_9;wall01#ID_10;wall01#ID_11;wall01#ID_12;wall01#ID_13;wall01#ID_14;wall01#ID_15;wall02#ID_16;wall02#ID_17;wall02#ID_18;wall02#ID_19;wall02#ID_20;wall02#ID_21;wall02#ID_22;wall02#ID_23;wall02#ID_24;wall02#ID_25;wall02#ID_26;wall02#ID_27;wall02#ID_28;wall02#ID_29;wall02#ID_30;wall02#ID_31;wall02#ID_32;wall02#ID_33;wall02#ID_34;wall02#ID_35;wall02#ID_36;wall02#ID_37;wall02#ID_38;wall02#ID_39;wall02#ID_40;wall02#ID_41;wall02#ID_42;wall02#ID_43;wall02#ID_44;wall02#ID_45;ceiling#ID_46;ceiling#ID_47;ceiling#ID_48;ceiling#ID_49;ceiling#ID_50;ceiling#ID_51;ceiling#ID_52;ceiling#ID_53;ceiling#ID_54;ceiling#ID_55;ceiling#ID_56;ceiling#ID_57;ceiling#ID_58;ceiling#ID_59;ceiling#ID_60;ceiling#ID_61;ceiling#ID_62;ceiling#ID_63;ceiling#ID_64;ceiling#ID_65;ceiling#ID_66;ceiling#ID_67;ceiling#ID_68;ceiling#ID_69;ceiling#ID_70;ceiling#ID_71;ceiling#ID_72;ceiling#ID_73;ceiling#ID_74;ceiling#ID_75;ceiling#ID_76;ceiling#ID_77;ceiling#ID_78;ceiling#ID_79;ceiling#ID_80;ceiling#ID_81;ceiling#ID_82;ceiling#ID_83;ceiling#ID_84;ceiling#ID_85;ceiling#ID_86;ceiling#ID_87;ceiling#ID_88;ceiling#ID_89;ceiling#ID_90;ceiling#ID_91;ceiling#ID_92;ceiling#ID_93;ceiling#ID_94;ceiling#ID_95;ceiling#ID_96;ceiling#ID_97;ceiling#ID_98;ceiling#ID_99;ceiling#ID_100;ceiling#ID_101;ceiling#ID_102;ceiling#ID_103;ceiling#ID_104;ceiling#ID_105;ceiling#ID_106;ceiling#ID_107;ceiling#ID_108;ceiling#ID_109;ceiling#ID_110;ceiling#ID_111;ceiling#ID_112;ceiling#ID_113;ceiling#ID_114;ceiling#ID_115;ceiling#ID_116;ceiling#ID_117;ceiling#ID_118;ceiling#ID_119;ceiling#ID_120;ceiling#ID_121;ceiling#ID_122;ceiling#ID_123;ceiling#ID_124;ceiling#ID_125;ceiling#ID_126;ceiling#ID_127;ceiling#ID_128;ceiling#ID_129;ceiling#ID_130;ceiling#ID_131;ceiling#ID_132;ceiling#ID_133;ceiling#ID_134;ceiling#ID_135;ceiling#ID_136;ceiling#ID_137;ceiling#ID_138;ceiling#ID_139;ceiling#ID_140;ceiling#ID_141;ceiling#ID_142;ceiling#ID_143;ceiling#ID_144;ceiling#ID_145;ceiling#ID_146;ceiling#ID_147;ceiling#ID_148;ceiling#ID_149;ceiling#ID_150;ceiling#ID_151;ceiling#ID_152;ceiling#ID_153;ceiling#ID_154;ceiling#ID_155;ceiling#ID_156;ceiling#ID_157;ceiling#ID_158;ceiling#ID_159;ceiling#ID_160;ceiling#ID_161;ceiling#ID_162;ceiling#ID_163;ceiling#ID_164;ceiling#ID_165;ceiling#ID_166;ceiling#ID_167;ceiling#ID_168;ceiling#ID_169;ceiling#ID_170;ceiling#ID_171;ceiling#ID_172;ceiling#ID_173;ceiling#ID_174;ceiling#ID_175;ceiling#ID_176;ceiling#ID_177;ceiling#ID_178;ceiling#ID_179;ceiling#ID_180;ceiling#ID_181;ceiling#ID_182;ceiling#ID_183;ceiling#ID_184;ceiling#ID_185;ceiling#ID_186;ceiling#ID_187;ceiling#ID_188;ceiling#ID_189;ceiling#ID_190;ceiling#ID_191;ceiling#ID_192;ceiling#ID_193;ceiling#ID_194;ceiling#ID_195;ceiling#ID_196;ceiling#ID_197;ceiling#ID_198;ceiling#ID_199;ceiling#ID_200;ceiling#ID_201;ceiling#ID_202;ceiling#ID_203;ceiling#ID_204;ceiling#ID_205;ceiling#ID_206;ceiling#ID_207;ceiling#ID_208;ceiling#ID_209;ceiling#ID_210;ceiling#ID_211;ceiling#ID_212;ceiling#ID_213;ceiling#ID_214;ceiling#ID_215;ceiling#ID_216;ceiling#ID_217;ceiling#ID_218;ceiling#ID_219;ceiling#ID_220;ceiling#ID_221;ceiling#ID_222;ceiling#ID_223;ceiling#ID_224;ceiling#ID_225;ceiling#ID_226;ceiling#ID_227;ceiling#ID_228;ceiling#ID_229;ceiling#ID_230;ceiling#ID_231;ceiling#ID_232;ceiling#ID_233;ceiling#ID_234;ceiling#ID_235;ceiling#ID_236;ceiling#ID_237;pingfeng#ID_238;pingfeng#ID_239;pingfeng#ID_240;pingfeng#ID_241;pingfeng#ID_242;pingfeng#ID_243;pingfeng#ID_244;pingfeng#ID_245;pingfeng#ID_246;pingfeng#ID_247;pingfeng#ID_248;pingfeng#ID_249;pingfeng#ID_250;shoushuche#ID_251;shoushuche#ID_252;shoushuche#ID_253;shoushuche#ID_254;tiexingzi#ID_255;muxiang#ID_256;muxiang#ID_257;muxiang#ID_258;muxiang#ID_259;muxiang#ID_260;muxiang#ID_261;muxiang#ID_262;muxiang#ID_263;muxiang#ID_264;muxiang#ID_265;muxiang#ID_266;muxiang#ID_267;muxiang#ID_268;muxiang#ID_269;muxiang#ID_270;muxiang#ID_271;muxiang#ID_272;muxiang#ID_273;muxiang#ID_274;muxiang#ID_275;muxiang#ID_276;muxiang#ID_277;muxiang#ID_278;muxiang#ID_279;muxiang#ID_280;muxiang#ID_281;muxiang#ID_282;muxiang#ID_283;muxiang#ID_284;muxiang#ID_285;muxiang#ID_286;muxiang#ID_287;muxiang#ID_288;muxiang#ID_289;muxiang#ID_290;muxiang#ID_291;muxiang#ID_292;muxiang#ID_293;muxiang#ID_294;muxiang#ID_295;muxiang#ID_296;muxiang#ID_297;muxiang#ID_298;muxiang#ID_299;muxiang#ID_300;muxiang#ID_301;muxiang#ID_302;muxiang#ID_303;muxiang#ID_304;muxiang#ID_305;muxiang#ID_306;shujia#ID_307;Cube#ID_308;Cube#ID_309;Cube#ID_310;Cube#ID_311;Cube#ID_312;Cube#ID_313;Cube#ID_314;Cube#ID_315;Cube#ID_316;Cube#ID_317;Cube#ID_318;Cube#ID_319;Cube#ID_320;Cube#ID_321;louti#ID_322;louti#ID_323;louti#ID_324;louti#ID_325;louti#ID_326;louti#ID_327;louti#ID_328;louti#ID_329;floor#ID_330;floor#ID_331;floor#ID_332;floor#ID_333;floor#ID_334;floor#ID_335;floor#ID_336	3;3;3;3;3;3;3;3;3;3;3;3;3;3;3;3;3;3;3;3;3;3;3;3;3;3;3;3;3;3;3;3;3;3;3;3;3;3;3;3;3;3;3;3;3;1;1;1;1;1;1;1;1;1;1;1;1;1;1;1;1;1;1;1;1;1;1;1;1;1;1;1;1;1;1;1;1;1;1;1;1;1;1;1;1;1;1;1;1;1;1;1;1;1;1;1;1;1;1;1;1;1;1;1;1;1;1;1;1;1;1;1;1;1;1;1;1;1;1;1;1;1;1;1;1;1;1;1;1;1;1;1;1;1;1;1;1;1;1;1;1;1;1;1;1;1;1;1;1;1;1;1;1;1;1;1;1;1;1;1;1;1;1;1;1;1;1;1;1;1;1;1;1;1;1;1;1;1;1;1;1;1;1;1;1;1;1;1;1;1;1;1;1;1;1;1;1;1;1;1;1;1;1;1;1;1;1;1;1;1;1;1;1;1;1;1;1;1;1;1;1;1;1;1;1;1;1;1;1;1;1;1;1;1;1;1;1;1;1;1;1;1;1;1;1;1;1;1;1;1;1;1;1;1;1;2;2;2;2;2;2;2;2;2;2;2;2;2;2;2;2;2;2;2;2;2;2;2;2;2;2;2;2;2;2;2;2;2;2;2;2;2;2;2;2;2;2;2;2;2;2;2;2;2;2;2;2;2;2;2;2;2;3;3;3;3;3;3;3;3;3;1;1;1;1;1;1;1;1;3;3;3;3;3;3;3
