ID	Sex	Name	DisplayIndex	Source	IconGetDesc
1	0	8	1		
2	1	11	2		
3	0	12	3		
4	1	9	4		
5	0	7	5		
6	1	6	6		
7	0	2	7		
8	1	5	8		
9	0	1	9		
10	1	4	10		
11	0	10	11		
12	1	3	12		
13	1	13	13	8001	【福利-分享奖励-现金券商城】兑换获得
14	0	14	14	8002	【福利-分享奖励-现金券商城】兑换获得
15	1	15	15	8003	【福利-分享奖励-现金券商城】兑换获得
16	0	16	16	8004	【福利-分享奖励-现金券商城】兑换获得
17	0	17	17	8005	【福利-分享奖励-现金券商城】兑换获得
18	0	18	18	8006	【福利-分享奖励-现金券商城】兑换获得
20	0	ac_fmg	20	-1	完成成就【战斧消灭·3级】(PVP模式中使用战斧完成1200次消灭)
21	0	ac_sxcs	21	-1	完成成就【尼泊尔消灭·3级】(PVP模式中使用尼泊尔完成1200次消灭)
22	0	ac_nangua	22	-1	完成成就【再见万圣节】(完成所有万圣节相关活动)
42	0	s_qinglong	42	1012	英雄级商城购买【青龙M4A1】
43	0	s_baihu	43	1208	英雄级商城购买【白虎MP5】
44	0	s_zhuque	44	1506	英雄级商城购买【朱雀M82A1】
45	0	s_xuanwu	45	1014	英雄级商城购买【玄武QBZ95】
46	0	s_qilin	46	1013	英雄级商城购买【麒麟AK47】
47	0	s_jinniu	47	1311	紫晶军火库星座武器盒开启【RPK-金牛】
48	0	s_shuangzi	48	1613	紫晶军火库星座武器盒开启【沙鹰双子】
49	0	s_juxie	49	1214	紫晶军火库星座武器盒开启【Vector-巨蟹】
50	0	19	19	8007	参与活动【2016夏日大作战】-已绝版
51	0	s_nilin	51	1707	英雄级商城购买永久【逆鳞】
52	0	s_shizi	52	1044	紫晶军火库星座武器盒开启【SCAR-狮子】
53	0	s_chunv	53	1412	紫晶军火库星座武器盒开启【M1014-处女】
54	0	s_tiancheng	54	1053	紫晶军火库星座武器盒开启【AN94-天秤】
55	0	s_caijue	55	1731	英雄级商城购买永久【裁决】
56	0	s_tianxie	56	1218	英雄级商城购买【P90-天蝎】
57	0	s_sheshou	57	1615	英雄级商城购买【射手座】
