CullDisFar	CullDisBuilding	CullDisSkyBox	CullDisPlayer	CullDisBattleEffect	CullDisSceneEffect	OrnamentVisible	SceneEffectMaxNum	LowBoneWeightDis
350	200	350	200	100	200	1	-1	-1
350	200	350	200	80	200	1	20	15
350	150	350	200	60	200	0	5	10
350	100	350	200	30	200	0	0	5
