ID	Type	MapId	Camp	CrystalId	CrystalPos	CrystalIcon	MonsterId	BornPos	Reborn	SoldierBornPos	SoldierReborn
1001	dota	1020	1	99998	33.1;0.03;-0.09;0;0;0	defend_hpbar_time_machine	99999	1	60	99996#2;99996#3;99996#4;99995#5	20
1002	dota	1020	2	99997	-30.19;0.56;-1;0;90;0	defend_hpbar_prism_tower	99992	1	60	99993#2;99993#3;99993#4;99994#5	20
