ID	Accessory	Prop	AddType	PropScopes
1	6001	Damage	1	1#10;11#20;21#30;31#40;41#50
2	6002	FireRate	1	1#10;11#20;21#30;31#40;41#50
3	6003	RecoilPitchMax	1	-1#-10;-11#-20;-21#-30;-31#-40;-41#-50
4	6004	StandSpreadMax	1	-1#-10;-11#-20;-21#-30;-31#-40;-41#-50
5	6005	ClipSize	1	1#10;11#20;21#30;31#40;41#50
6	6006	ReloadTime	1	-1#-10;-11#-20;-21#-30;-31#-40;-41#-50
7	6007	DamageDecayStartDis	1	1#10;11#20;21#30;31#40;41#50
8	6008	Weight	1	-1#-10;-11#-20;-21#-30;-31#-40;-41#-50
9	6101	Damage	1	1#10;11#20;21#30;31#40;41#50
10	6102	FireRate	1	1#10;11#20;21#30;31#40;41#50
11	6103	RecoilPitchMax	1	-1#-10;-11#-20;-21#-30;-31#-40;-41#-50
12	6104	StandSpreadMax	1	-1#-10;-11#-20;-21#-30;-31#-40;-41#-50
13	6105	ClipSize	1	1#10;11#20;21#30;31#40;41#50
14	6106	ReloadTime	1	-1#-10;-11#-20;-21#-30;-31#-40;-41#-50
15	6107	DamageDecayStartDis	1	1#10;11#20;21#30;31#40;41#50
16	6108	Weight	1	-1#-10;-11#-20;-21#-30;-31#-40;-41#-50
17	6201	Damage	1	1#10;11#20;21#30;31#40;41#50
18	6202	FireRate	1	1#10;11#20;21#30;31#40;41#50
19	6203	RecoilPitchMax	1	-1#-10;-11#-20;-21#-30;-31#-40;-41#-50
20	6204	StandSpreadMax	1	-1#-10;-11#-20;-21#-30;-31#-40;-41#-50
21	6205	ClipSize	1	1#10;11#20;21#30;31#40;41#50
22	6206	ReloadTime	1	-1#-10;-11#-20;-21#-30;-31#-40;-41#-50
23	6207	DamageDecayStartDis	1	1#10;11#20;21#30;31#40;41#50
24	6208	Weight	1	-1#-10;-11#-20;-21#-30;-31#-40;-41#-50
25	6301	Damage	1	1#10;11#20;21#30;31#40;41#50
26	6302	FireRate	1	1#10;11#20;21#30;31#40;41#50
27	6303	RecoilPitchMax	1	-1#-10;-11#-20;-21#-30;-31#-40;-41#-50
28	6304	StandSpreadMax	1	-1#-10;-11#-20;-21#-30;-31#-40;-41#-50
29	6305	ClipSize	1	1#10;11#20;21#30;31#40;41#50
30	6306	ReloadTime	1	-1#-10;-11#-20;-21#-30;-31#-40;-41#-50
31	6307	DamageDecayStartDis	1	1#10;11#20;21#30;31#40;41#50
32	6308	Weight	1	-1#-10;-11#-20;-21#-30;-31#-40;-41#-50
