GroupName	PlatformId	Device	Content
Logo	16602		
Logo	16603		
Logo	16601		
Logo			srv_logo
GameShareQRCode	16601		erweima_yingyongbao
GameShareQRCode	16603		erweima_yingyongbaobqyxhjyx
GameShareQRCode	16602		erweima_yingyongbaobqyx
GameShareQRCode	16604		erweima_yingyongbaoqzyx
GameShareQRCode			weixin
CustomerService	16601		客服QQ:800084487
CustomerService	16602		客服QQ:800084487
CustomerService	16603		客服QQ:800084487
CustomerService	16604		客服QQ:800084487
CustomerService		ios	QQ:800041019
CustomerService		web	网页右上角点击联系客服
CustomerService		pc	登陆界面点击联系客服
CustomerService	156		
CustomerService	68		
CustomerService			官方QQ: 800152012
ExitTip	16604		加入QQ群471710958，随时了解游戏最新动态！
ExitTip	16601		加入QQ群521406696，与高手切磋交流，还有加群礼包哦！
ExitTip	16602		加入QQ群521406696，与高手切磋交流，还有加群礼包哦！
ExitTip	16603		加入QQ群521406696，与高手切磋交流，还有加群礼包哦！
ExitTip	270		加入QQ群462079336，随时了解游戏最新动态！
ExitTip			加入QQ群175146211，随时了解游戏最新动态！
ShowExitButton	20001		False
ShowExitButton	20002		False
ShowExitButton	20003		False
ShowExitButton	20004		False
ShowExitButton	1	android	True
ShowExitButton	16601	android	True
ShowExitButton	16602	android	True
ShowExitButton	16603	android	True
ShowExitButton	16604	android	True
ShowExitButton		web	False
ShowExitButton		pc	True
ShowExitButton		ios	False
ShowExitButton		android	False
ShowExitButton			True
ShowChuShouTVButton	1	android	True
ShowChuShouTVButton			False
ShowRepublicInfo	20001		
ShowRepublicInfo	20002		
ShowRepublicInfo	20003		
ShowRepublicInfo	20004		
ShowRepublicInfo		pc	软著登记号：2016SR114807\n著作权人：广州四三九九信息科技有限公司\n文网游备字[2016]M-CSG 1422号
ShowRepublicInfo		web	软著登记号：2016SR114807\n著作权人：广州四三九九信息科技有限公司\n文网游备字[2016]M-CSG 1422号
ShowRepublicInfo		ios	著作权人：广州四三九九信息科技有限公司\n出版服务单位：广州四三九九信息科技有限公司\n批准文号：新出广审[2016]2234号\n出版物号：ISBN 978-7-7979-0906-8
ShowRepublicInfo		android	著作权人：广州四三九九信息科技有限公司\n出版服务单位：广州四三九九信息科技有限公司\n批准文号：新出广审[2016]2234号\n出版物号：ISBN 978-7-7979-0906-8
