Day	StartTime	EndTime
1	1459526400	1459688400
2	1459688400	1459774800
3	1459774800	1459861200
4	1459861200	1459947600
5	1459947600	1460034000
6	1460034000	1460120400
7	1460120400	1460206800
8	1460206800	1460293200
9	1460293200	1460379600
10	1460379600	1460466000
11	1460466000	1460552400
12	1460552400	1460638800
13	1460638800	1460725200
14	1460725200	1460811600
15	1460811600	1460898000
16	1460898000	1460984400
17	1460984400	1461070800
18	1461070800	1461157200
19	1461157200	1461243600
20	1461243600	1461330000
21	1461330000	1461416400
22	1461416400	1461502800
23	1461502800	1461589200
24	1461589200	1461675600
25	1461675600	1461762000
26	1461762000	1461848400
27	1461848400	1461934800
28	1461934800	1462021200
29	1462021200	1462107600
30	1462107600	1462194000
31	1462194000	1462280400
32	1462280400	1462366800
33	1462366800	1462453200
34	1462453200	1462539600
35	1462539600	1462626000
36	1462626000	1462712400
37	1462712400	1462798800
38	1462798800	1462885200
39	1462885200	1462971600
40	1462971600	1463058000
41	1463058000	1463144400
42	1463144400	1463230800
43	1463230800	1463317200
44	1463317200	1463403600
45	1463403600	1463490000
46	1463490000	1463576400
47	1463576400	1463662800
48	1463662800	1463749200
49	1463749200	1463835600
50	1463835600	1463922000
51	1463922000	1464008400
52	1464008400	1464094800
53	1464094800	1464181200
54	1464181200	1464267600
55	1464267600	1464354000
56	1464354000	1464440400
57	1464440400	1464526800
58	1464526800	1464613200
59	1464613200	1464699600
60	1464699600	1464786000
61	1464786000	1464872400
62	1464872400	1464958800
63	1464958800	1465045200
64	1465045200	1465131600
65	1465131600	1465218000
66	1465218000	1465304400
67	1465304400	1465390800
68	1465390800	1465477200
69	1465477200	1465563600
70	1465563600	1465650000
71	1465650000	1465736400
72	1465736400	1465822800
73	1465822800	1465909200
74	1465909200	1465995600
75	1465995600	1466082000
76	1466082000	1466168400
77	1466168400	1466254800
78	1466254800	1466341200
79	1466341200	1466427600
80	1466427600	1466514000
81	1466514000	1466600400
82	1466600400	1466686800
83	1466686800	1466773200
84	1466773200	1466859600
85	1466859600	1466946000
86	1466946000	1467032400
87	1467032400	1467118800
88	1467118800	1467205200
89	1467205200	1467291600
90	1467291600	1467378000
91	1467378000	1467464400
92	1467464400	1467550800
93	1467550800	1467637200
94	1467637200	1467723600
95	1467723600	1467810000
96	1467810000	1467896400
97	1467896400	1467982800
98	1467982800	1468069200
99	1468069200	1468155600
100	1468155600	1468242000
101	1468242000	1468328400
102	1468328400	1468414800
103	1468414800	1468501200
104	1468501200	1468587600
105	1468587600	1468674000
106	1468674000	1468760400
107	1468760400	1468846800
108	1468846800	1468933200
109	1468933200	1469019600
110	1469019600	1469106000
111	1469106000	1469192400
112	1469192400	1469278800
113	1469278800	1469365200
114	1469365200	1469451600
115	1469451600	1469538000
116	1469538000	1469624400
117	1469624400	1469710800
118	1469710800	1469797200
119	1469797200	1469883600
120	1469883600	1469970000
121	1469970000	1470056400
122	1470056400	1470142800
123	1470142800	1470229200
124	1470229200	1470315600
125	1470315600	1470402000
126	1470402000	1470488400
127	1470488400	1470574800
128	1470574800	1470661200
129	1470661200	1470747600
130	1470747600	1470834000
131	1470834000	1470920400
132	1470920400	1471006800
133	1471006800	1471093200
134	1471093200	1471179600
135	1471179600	1471266000
136	1471266000	1471352400
137	1471352400	1471438800
138	1471438800	1471525200
139	1471525200	1471611600
140	1471611600	1471698000
141	1471698000	1471784400
142	1471784400	1471870800
143	1471870800	1471957200
144	1471957200	1472043600
145	1472043600	1472130000
146	1472130000	1472216400
147	1472216400	1472302800
148	1472302800	1472389200
149	1472389200	1472475600
150	1472475600	1472562000
151	1472562000	1472648400
152	1472648400	1472734800
153	1472734800	1472821200
154	1472821200	1472907600
155	1472907600	1472994000
156	1472994000	1473080400
157	1473080400	1473166800
158	1473166800	1473253200
159	1473253200	1473339600
160	1473339600	1473426000
161	1473426000	1473512400
162	1473512400	1473598800
163	1473598800	1473685200
164	1473685200	1473771600
165	1473771600	1473858000
166	1473858000	1473944400
167	1473944400	1474030800
168	1474030800	1474117200
169	1474117200	1474203600
170	1474203600	1474290000
171	1474290000	1474376400
172	1474376400	1474462800
173	1474462800	1474549200
174	1474549200	1474635600
175	1474635600	1474722000
176	1474722000	1474808400
177	1474808400	1474894800
178	1474894800	1474981200
179	1474981200	1475067600
180	1475067600	1475154000
181	1475154000	1475240400
182	1475240400	1475326800
183	1475326800	1475413200
184	1475413200	1475499600
185	1475499600	1475586000
186	1475586000	1475672400
187	1475672400	1475758800
188	1475758800	1475845200
189	1475845200	1475931600
190	1475931600	1476018000
191	1476018000	1476104400
192	1476104400	1476190800
193	1476190800	1476277200
194	1476277200	1476363600
195	1476363600	1476450000
196	1476450000	1476536400
197	1476536400	1476622800
198	1476622800	1476709200
199	1476709200	1476795600
200	1476795600	1476882000
201	1476882000	1476968400
202	1476968400	1477054800
203	1477054800	1477141200
204	1477141200	1477227600
205	1477227600	1477314000
206	1477314000	1477400400
207	1477400400	1477486800
208	1477486800	1477573200
209	1477573200	1477659600
210	1477659600	1477746000
211	1477746000	1477832400
212	1477832400	1477918800
213	1477918800	1478005200
214	1478005200	1478091600
215	1478091600	1478178000
216	1478178000	1478264400
217	1478264400	1478350800
218	1478350800	1478437200
219	1478437200	1478523600
220	1478523600	1478610000
221	1478610000	1478696400
222	1478696400	1478782800
223	1478782800	1478869200
224	1478869200	1478955600
225	1478955600	1479042000
226	1479042000	1479128400
227	1479128400	1479214800
228	1479214800	1479301200
229	1479301200	1479387600
230	1479387600	1479474000
231	1479474000	1479560400
232	1479560400	1479646800
233	1479646800	1479733200
234	1479733200	1479819600
235	1479819600	1479906000
236	1479906000	1479992400
237	1479992400	1480078800
238	1480078800	1480165200
239	1480165200	1480251600
240	1480251600	1480338000
241	1480338000	1480424400
242	1480424400	1480510800
243	1480510800	1480597200
244	1480597200	1480683600
245	1480683600	1480770000
246	1480770000	1480856400
247	1480856400	1480942800
248	1480942800	1481029200
249	1481029200	1481115600
250	1481115600	1481202000
251	1481202000	1481288400
252	1481288400	1481374800
253	1481374800	1481461200
254	1481461200	1481547600
255	1481547600	1481634000
256	1481634000	1481720400
257	1481720400	1481806800
258	1481806800	1481893200
259	1481893200	1481979600
260	1481979600	1482066000
261	1482066000	1482152400
262	1482152400	1482238800
263	1482238800	1482325200
264	1482325200	1482411600
265	1482411600	1482498000
266	1482498000	1482584400
267	1482584400	1482670800
268	1482670800	1482757200
269	1482757200	1482843600
270	1482843600	1482930000
271	1482930000	1483016400
272	1483016400	1483102800
273	1483102800	1483189200
274	1483189200	1483275600
275	1483275600	1483362000
276	1483362000	1483448400
277	1483448400	1483534800
278	1483534800	1483621200
279	1483621200	1483707600
280	1483707600	1483794000
281	1483794000	1483880400
282	1483880400	1483966800
283	1483966800	1484053200
284	1484053200	1484139600
285	1484139600	1484226000
286	1484226000	1484312400
287	1484312400	1484398800
288	1484398800	1484485200
289	1484485200	1484571600
290	1484571600	1484658000
291	1484658000	1484744400
292	1484744400	1484830800
293	1484830800	1484917200
294	1484917200	1485003600
295	1485003600	1485090000
296	1485090000	1485176400
297	1485176400	1485262800
298	1485262800	1485349200
299	1485349200	1485435600
300	1485435600	1485522000
301	1485522000	1485608400
302	1485608400	1485694800
303	1485694800	1485781200
304	1485781200	1485867600
305	1485867600	1485954000
306	1485954000	1486040400
307	1486040400	1486126800
308	1486126800	1486213200
309	1486213200	1486299600
310	1486299600	1486386000
311	1486386000	1486472400
312	1486472400	1486558800
313	1486558800	1486645200
314	1486645200	1486731600
315	1486731600	1486818000
316	1486818000	1486904400
317	1486904400	1486990800
318	1486990800	1487077200
319	1487077200	1487163600
320	1487163600	1487250000
321	1487250000	1487336400
322	1487336400	1487422800
323	1487422800	1487509200
324	1487509200	1487595600
325	1487595600	1487682000
326	1487682000	1487768400
327	1487768400	1487854800
328	1487854800	1487941200
329	1487941200	1488027600
330	1488027600	1488114000
331	1488114000	1488200400
332	1488200400	1488286800
333	1488286800	1488373200
334	1488373200	1488459600
335	1488459600	1488546000
336	1488546000	1488632400
337	1488632400	1488718800
338	1488718800	1488805200
339	1488805200	1488891600
340	1488891600	1488978000
341	1488978000	1489064400
342	1489064400	1489150800
343	1489150800	1489237200
344	1489237200	1489323600
345	1489323600	1489410000
346	1489410000	1489496400
347	1489496400	1489582800
348	1489582800	1489669200
349	1489669200	1489755600
350	1489755600	1489842000
351	1489842000	1489928400
352	1489928400	1490014800
353	1490014800	1490101200
354	1490101200	1490187600
355	1490187600	1490274000
356	1490274000	1490360400
357	1490360400	1490446800
358	1490446800	1490533200
359	1490533200	1490619600
360	1490619600	1490706000
361	1490706000	1490792400
362	1490792400	1490878800
363	1490878800	1490965200
364	1490965200	1491051600
365	1491051600	1491138000
366	1491138000	1491224400
367	1491224400	1491310800
368	1491310800	1491397200
369	1491397200	1491483600
370	1491483600	1491570000
371	1491570000	1491656400
372	1491656400	1491742800
373	1491742800	1491829200
374	1491829200	1491915600
375	1491915600	1492002000
376	1492002000	1492088400
377	1492088400	1492174800
378	1492174800	1492261200
379	1492261200	1492347600
380	1492347600	1492434000
381	1492434000	1492520400
382	1492520400	1492606800
383	1492606800	1492693200
384	1492693200	1492779600
385	1492779600	1492866000
386	1492866000	1492952400
387	1492952400	1493038800
388	1493038800	1493125200
389	1493125200	1493211600
390	1493211600	1493298000
391	1493298000	1493384400
392	1493384400	1493470800
393	1493470800	1493557200
394	1493557200	1493643600
395	1493643600	1493730000
396	1493730000	1493816400
397	1493816400	1493902800
398	1493902800	1493989200
399	1493989200	1494075600
400	1494075600	1494162000
401	1494162000	1494248400
402	1494248400	1494334800
403	1494334800	1494421200
404	1494421200	1494507600
405	1494507600	1494594000
406	1494594000	1494680400
407	1494680400	1494766800
408	1494766800	1494853200
409	1494853200	1494939600
410	1494939600	1495026000
411	1495026000	1495112400
412	1495112400	1495198800
413	1495198800	1495285200
414	1495285200	1495371600
415	1495371600	1495458000
416	1495458000	1495544400
417	1495544400	1495630800
418	1495630800	1495717200
419	1495717200	1495803600
420	1495803600	1495890000
421	1495890000	1495976400
422	1495976400	1496062800
423	1496062800	1496149200
424	1496149200	1496235600
425	1496235600	1496322000
426	1496322000	1496408400
427	1496408400	1496494800
428	1496494800	1496581200
429	1496581200	1496667600
430	1496667600	1496754000
431	1496754000	1496840400
432	1496840400	1496926800
433	1496926800	1497013200
434	1497013200	1497099600
435	1497099600	1497186000
436	1497186000	1497272400
437	1497272400	1497358800
438	1497358800	1497445200
439	1497445200	1497531600
440	1497531600	1497618000
441	1497618000	1497704400
442	1497704400	1497790800
443	1497790800	1497877200
444	1497877200	1497963600
445	1497963600	1498050000
446	1498050000	1498136400
447	1498136400	1498222800
448	1498222800	1498309200
449	1498309200	1498395600
450	1498395600	1498482000
451	1498482000	1498568400
452	1498568400	1498654800
453	1498654800	1498741200
454	1498741200	1498827600
455	1498827600	1498914000
456	1498914000	1499000400
457	1499000400	1499086800
458	1499086800	1499173200
459	1499173200	1499259600
460	1499259600	1499346000
461	1499346000	1499432400
462	1499432400	1499518800
463	1499518800	1499605200
464	1499605200	1499691600
465	1499691600	1499778000
466	1499778000	1499864400
467	1499864400	1499950800
468	1499950800	1500037200
469	1500037200	1500123600
470	1500123600	1500210000
471	1500210000	1500296400
472	1500296400	1500382800
473	1500382800	1500469200
474	1500469200	1500555600
475	1500555600	1500642000
476	1500642000	1500728400
477	1500728400	1500814800
478	1500814800	1500901200
479	1500901200	1500987600
480	1500987600	1501074000
481	1501074000	1501160400
482	1501160400	1501246800
483	1501246800	1501333200
484	1501333200	1501419600
485	1501419600	1501506000
486	1501506000	1501592400
487	1501592400	1501678800
488	1501678800	1501765200
489	1501765200	1501851600
490	1501851600	1501938000
491	1501938000	1502024400
492	1502024400	1502110800
493	1502110800	1502197200
494	1502197200	1502283600
495	1502283600	1502370000
496	1502370000	1502456400
497	1502456400	1502542800
498	1502542800	1502629200
499	1502629200	1502715600
500	1502715600	1502802000
501	1502802000	1502888400
502	1502888400	1502974800
503	1502974800	1503061200
504	1503061200	1503147600
505	1503147600	1503234000
506	1503234000	1503320400
507	1503320400	1503406800
508	1503406800	1503493200
509	1503493200	1503579600
510	1503579600	1503666000
511	1503666000	1503752400
512	1503752400	1503838800
513	1503838800	1503925200
514	1503925200	1504011600
515	1504011600	1504098000
516	1504098000	1504184400
517	1504184400	1504270800
518	1504270800	1504357200
519	1504357200	1504443600
520	1504443600	1504530000
521	1504530000	1504616400
522	1504616400	1504702800
523	1504702800	1504789200
524	1504789200	1504875600
525	1504875600	1504962000
526	1504962000	1505048400
527	1505048400	1505134800
528	1505134800	1505221200
529	1505221200	1505307600
530	1505307600	1505394000
531	1505394000	1505480400
532	1505480400	1505566800
533	1505566800	1505653200
534	1505653200	1505739600
535	1505739600	1505826000
536	1505826000	1505912400
537	1505912400	1505998800
538	1505998800	1506085200
539	1506085200	1506171600
540	1506171600	1506258000
541	1506258000	1506344400
542	1506344400	1506430800
543	1506430800	1506517200
544	1506517200	1506603600
545	1506603600	1506690000
546	1506690000	1506776400
547	1506776400	1506862800
548	1506862800	1506949200
549	1506949200	1507035600
550	1507035600	1507122000
551	1507122000	1507208400
552	1507208400	1507294800
553	1507294800	1507381200
554	1507381200	1507467600
555	1507467600	1507554000
556	1507554000	1507640400
557	1507640400	1507726800
558	1507726800	1507813200
559	1507813200	1507899600
560	1507899600	1507986000
561	1507986000	1508072400
562	1508072400	1508158800
563	1508158800	1508245200
564	1508245200	1508331600
565	1508331600	1508418000
566	1508418000	1508504400
567	1508504400	1508590800
568	1508590800	1508677200
569	1508677200	1508763600
570	1508763600	1508850000
571	1508850000	1508936400
572	1508936400	1509022800
573	1509022800	1509109200
574	1509109200	1509195600
575	1509195600	1509282000
576	1509282000	1509368400
577	1509368400	1509454800
578	1509454800	1509541200
579	1509541200	1509627600
580	1509627600	1509714000
581	1509714000	1509800400
582	1509800400	1509886800
583	1509886800	1509973200
584	1509973200	1510059600
585	1510059600	1510146000
586	1510146000	1510232400
587	1510232400	1510318800
588	1510318800	1510405200
589	1510405200	1510491600
590	1510491600	1510578000
591	1510578000	1510664400
592	1510664400	1510750800
593	1510750800	1510837200
594	1510837200	1510923600
595	1510923600	1511010000
596	1511010000	1511096400
597	1511096400	1511182800
598	1511182800	1511269200
599	1511269200	1511355600
600	1511355600	1511442000
601	1511442000	1511528400
602	1511528400	1511614800
603	1511614800	1511701200
604	1511701200	1511787600
605	1511787600	1511874000
606	1511874000	1511960400
607	1511960400	1512046800
608	1512046800	1512133200
609	1512133200	1512219600
610	1512219600	1512306000
611	1512306000	1512392400
612	1512392400	1512478800
613	1512478800	1512565200
614	1512565200	1512651600
615	1512651600	1512738000
616	1512738000	1512824400
617	1512824400	1512910800
618	1512910800	1512997200
619	1512997200	1513083600
620	1513083600	1513170000
621	1513170000	1513256400
622	1513256400	1513342800
623	1513342800	1513429200
624	1513429200	1513515600
625	1513515600	1513602000
626	1513602000	1513688400
627	1513688400	1513774800
628	1513774800	1513861200
629	1513861200	1513947600
630	1513947600	1514034000
631	1514034000	1514120400
632	1514120400	1514206800
633	1514206800	1514293200
634	1514293200	1514379600
635	1514379600	1514466000
636	1514466000	1514552400
637	1514552400	1514638800
638	1514638800	1514725200
639	1514725200	1514811600
640	1514811600	1514898000
641	1514898000	1514984400
642	1514984400	1515070800
643	1515070800	1515157200
644	1515157200	1515243600
645	1515243600	1515330000
646	1515330000	1515416400
647	1515416400	1515502800
648	1515502800	1515589200
649	1515589200	1515675600
650	1515675600	1515762000
651	1515762000	1515848400
652	1515848400	1515934800
653	1515934800	1516021200
654	1516021200	1516107600
655	1516107600	1516194000
656	1516194000	1516280400
657	1516280400	1516366800
658	1516366800	1516453200
659	1516453200	1516539600
660	1516539600	1516626000
661	1516626000	1516712400
662	1516712400	1516798800
663	1516798800	1516885200
664	1516885200	1516971600
665	1516971600	1517058000
666	1517058000	1517144400
667	1517144400	1517230800
668	1517230800	1517317200
669	1517317200	1517403600
670	1517403600	1517490000
671	1517490000	1517576400
672	1517576400	1517662800
673	1517662800	1517749200
674	1517749200	1517835600
675	1517835600	1517922000
676	1517922000	1518008400
677	1518008400	1518094800
678	1518094800	1518181200
679	1518181200	1518267600
680	1518267600	1518354000
681	1518354000	1518440400
682	1518440400	1518526800
683	1518526800	1518613200
684	1518613200	1518699600
685	1518699600	1518786000
686	1518786000	1518872400
687	1518872400	1518958800
688	1518958800	1519045200
689	1519045200	1519131600
690	1519131600	1519218000
691	1519218000	1519304400
692	1519304400	1519390800
693	1519390800	1519477200
694	1519477200	1519563600
695	1519563600	1519650000
696	1519650000	1519736400
697	1519736400	1519822800
698	1519822800	1519909200
699	1519909200	1519995600
700	1519995600	1520082000
701	1520082000	1520168400
702	1520168400	1520254800
703	1520254800	1520341200
704	1520341200	1520427600
705	1520427600	1520514000
706	1520514000	1520600400
707	1520600400	1520686800
708	1520686800	1520773200
709	1520773200	1520859600
710	1520859600	1520946000
711	1520946000	1521032400
712	1521032400	1521118800
713	1521118800	1521205200
714	1521205200	1521291600
715	1521291600	1521378000
716	1521378000	1521464400
717	1521464400	1521550800
718	1521550800	1521637200
719	1521637200	1521723600
720	1521723600	1521810000
721	1521810000	1521896400
722	1521896400	1521982800
723	1521982800	1522069200
724	1522069200	1522155600
725	1522155600	1522242000
726	1522242000	1522328400
727	1522328400	1522414800
728	1522414800	1522501200
729	1522501200	1522587600
730	1522587600	1522674000
731	1522674000	1522760400
732	1522760400	1522846800
733	1522846800	1522933200
734	1522933200	1523019600
735	1523019600	1523106000
736	1523106000	1523192400
737	1523192400	1523278800
738	1523278800	1523365200
739	1523365200	1523451600
740	1523451600	1523538000
741	1523538000	1523624400
742	1523624400	1523710800
743	1523710800	1523797200
744	1523797200	1523883600
745	1523883600	1523970000
746	1523970000	1524056400
747	1524056400	1524142800
748	1524142800	1524229200
749	1524229200	1524315600
750	1524315600	1524402000
751	1524402000	1524488400
752	1524488400	1524574800
753	1524574800	1524661200
754	1524661200	1524747600
755	1524747600	1524834000
756	1524834000	1524920400
757	1524920400	1525006800
758	1525006800	1525093200
759	1525093200	1525179600
760	1525179600	1525266000
761	1525266000	1525352400
762	1525352400	1525438800
763	1525438800	1525525200
764	1525525200	1525611600
765	1525611600	1525698000
766	1525698000	1525784400
767	1525784400	1525870800
768	1525870800	1525957200
769	1525957200	1526043600
770	1526043600	1526130000
771	1526130000	1526216400
772	1526216400	1526302800
773	1526302800	1526389200
774	1526389200	1526475600
775	1526475600	1526562000
776	1526562000	1526648400
777	1526648400	1526734800
778	1526734800	1526821200
779	1526821200	1526907600
780	1526907600	1526994000
781	1526994000	1527080400
782	1527080400	1527166800
783	1527166800	1527253200
784	1527253200	1527339600
785	1527339600	1527426000
786	1527426000	1527512400
787	1527512400	1527598800
788	1527598800	1527685200
789	1527685200	1527771600
790	1527771600	1527858000
791	1527858000	1527944400
792	1527944400	1528030800
793	1528030800	1528117200
794	1528117200	1528203600
795	1528203600	1528290000
796	1528290000	1528376400
797	1528376400	1528462800
798	1528462800	1528549200
799	1528549200	1528635600
800	1528635600	1528722000
801	1528722000	1528808400
802	1528808400	1528894800
803	1528894800	1528981200
804	1528981200	1529067600
805	1529067600	1529154000
806	1529154000	1529240400
807	1529240400	1529326800
808	1529326800	1529413200
809	1529413200	1529499600
810	1529499600	1529586000
811	1529586000	1529672400
812	1529672400	1529758800
813	1529758800	1529845200
814	1529845200	1529931600
815	1529931600	1530018000
816	1530018000	1530104400
817	1530104400	1530190800
818	1530190800	1530277200
819	1530277200	1530363600
820	1530363600	1530450000
821	1530450000	1530536400
822	1530536400	1530622800
823	1530622800	1530709200
824	1530709200	1530795600
825	1530795600	1530882000
826	1530882000	1530968400
827	1530968400	1531054800
828	1531054800	1531141200
829	1531141200	1531227600
830	1531227600	1531314000
831	1531314000	1531400400
832	1531400400	1531486800
833	1531486800	1531573200
834	1531573200	1531659600
835	1531659600	1531746000
836	1531746000	1531832400
837	1531832400	1531918800
838	1531918800	1532005200
839	1532005200	1532091600
840	1532091600	1532178000
841	1532178000	1532264400
842	1532264400	1532350800
843	1532350800	1532437200
844	1532437200	1532523600
845	1532523600	1532610000
846	1532610000	1532696400
847	1532696400	1532782800
848	1532782800	1532869200
849	1532869200	1532955600
850	1532955600	1533042000
851	1533042000	1533128400
852	1533128400	1533214800
853	1533214800	1533301200
854	1533301200	1533387600
855	1533387600	1533474000
856	1533474000	1533560400
857	1533560400	1533646800
858	1533646800	1533733200
859	1533733200	1533819600
860	1533819600	1533906000
861	1533906000	1533992400
862	1533992400	1534078800
863	1534078800	1534165200
864	1534165200	1534251600
865	1534251600	1534338000
866	1534338000	1534424400
867	1534424400	1534510800
868	1534510800	1534597200
869	1534597200	1534683600
870	1534683600	1534770000
871	1534770000	1534856400
872	1534856400	1534942800
873	1534942800	1535029200
874	1535029200	1535115600
875	1535115600	1535202000
876	1535202000	1535288400
877	1535288400	1535374800
878	1535374800	1535461200
879	1535461200	1535547600
880	1535547600	1535634000
881	1535634000	1535720400
882	1535720400	1535806800
883	1535806800	1535893200
884	1535893200	1535979600
885	1535979600	1536066000
886	1536066000	1536152400
887	1536152400	1536238800
888	1536238800	1536325200
889	1536325200	1536411600
890	1536411600	1536498000
891	1536498000	1536584400
892	1536584400	1536670800
893	1536670800	1536757200
894	1536757200	1536843600
895	1536843600	1536930000
896	1536930000	1537016400
897	1537016400	1537102800
898	1537102800	1537189200
899	1537189200	1537275600
900	1537275600	1537362000
901	1537362000	1537448400
902	1537448400	1537534800
903	1537534800	1537621200
904	1537621200	1537707600
905	1537707600	1537794000
906	1537794000	1537880400
907	1537880400	1537966800
908	1537966800	1538053200
909	1538053200	1538139600
910	1538139600	1538226000
911	1538226000	1538312400
912	1538312400	1538398800
913	1538398800	1538485200
914	1538485200	1538571600
915	1538571600	1538658000
916	1538658000	1538744400
917	1538744400	1538830800
918	1538830800	1538917200
919	1538917200	1539003600
920	1539003600	1539090000
921	1539090000	1539176400
922	1539176400	1539262800
923	1539262800	1539349200
924	1539349200	1539435600
925	1539435600	1539522000
926	1539522000	1539608400
927	1539608400	1539694800
928	1539694800	1539781200
929	1539781200	1539867600
930	1539867600	1539954000
931	1539954000	1540040400
932	1540040400	1540126800
933	1540126800	1540213200
934	1540213200	1540299600
935	1540299600	1540386000
936	1540386000	1540472400
937	1540472400	1540558800
938	1540558800	1540645200
939	1540645200	1540731600
940	1540731600	1540818000
941	1540818000	1540904400
942	1540904400	1540990800
943	1540990800	1541077200
944	1541077200	1541163600
945	1541163600	1541250000
946	1541250000	1541336400
947	1541336400	1541422800
948	1541422800	1541509200
949	1541509200	1541595600
950	1541595600	1541682000
951	1541682000	1541768400
952	1541768400	1541854800
953	1541854800	1541941200
954	1541941200	1542027600
955	1542027600	1542114000
956	1542114000	1542200400
957	1542200400	1542286800
958	1542286800	1542373200
959	1542373200	1542459600
960	1542459600	1542546000
961	1542546000	1542632400
962	1542632400	1542718800
963	1542718800	1542805200
964	1542805200	1542891600
965	1542891600	1542978000
966	1542978000	1543064400
967	1543064400	1543150800
968	1543150800	1543237200
969	1543237200	1543323600
970	1543323600	1543410000
971	1543410000	1543496400
972	1543496400	1543582800
973	1543582800	1543669200
974	1543669200	1543755600
975	1543755600	1543842000
976	1543842000	1543928400
977	1543928400	1544014800
978	1544014800	1544101200
979	1544101200	1544187600
980	1544187600	1544274000
981	1544274000	1544360400
982	1544360400	1544446800
983	1544446800	1544533200
984	1544533200	1544619600
985	1544619600	1544706000
986	1544706000	1544792400
987	1544792400	1544878800
988	1544878800	1544965200
989	1544965200	1545051600
990	1545051600	1545138000
991	1545138000	1545224400
992	1545224400	1545310800
993	1545310800	1545397200
994	1545397200	1545483600
995	1545483600	1545570000
996	1545570000	1545656400
997	1545656400	1545742800
998	1545742800	1545829200
999	1545829200	1545915600
1000	1545915600	1546002000
1001	1546002000	1546088400
1002	1546088400	1546174800
1003	1546174800	1546261200
1004	1546261200	1546347600
1005	1546347600	1546434000
1006	1546434000	1546520400
1007	1546520400	1546606800
1008	1546606800	1546693200
1009	1546693200	1546779600
1010	1546779600	1546866000
1011	1546866000	1546952400
1012	1546952400	1547038800
1013	1547038800	1547125200
1014	1547125200	1547211600
1015	1547211600	1547298000
1016	1547298000	1547384400
1017	1547384400	1547470800
1018	1547470800	1547557200
1019	1547557200	1547643600
1020	1547643600	1547730000
1021	1547730000	1547816400
1022	1547816400	1547902800
1023	1547902800	1547989200
1024	1547989200	1548075600
1025	1548075600	1548162000
1026	1548162000	1548248400
1027	1548248400	1548334800
1028	1548334800	1548421200
1029	1548421200	1548507600
1030	1548507600	1548594000
1031	1548594000	1548680400
1032	1548680400	1548766800
1033	1548766800	1548853200
1034	1548853200	1548939600
1035	1548939600	1549026000
1036	1549026000	1549112400
1037	1549112400	1549198800
1038	1549198800	1549285200
1039	1549285200	1549371600
1040	1549371600	1549458000
1041	1549458000	1549544400
1042	1549544400	1549630800
1043	1549630800	1549717200
1044	1549717200	1549803600
1045	1549803600	1549890000
1046	1549890000	1549976400
1047	1549976400	1550062800
1048	1550062800	1550149200
1049	1550149200	1550235600
1050	1550235600	1550322000
1051	1550322000	1550408400
1052	1550408400	1550494800
1053	1550494800	1550581200
1054	1550581200	1550667600
1055	1550667600	1550754000
1056	1550754000	1550840400
1057	1550840400	1550926800
1058	1550926800	1551013200
1059	1551013200	1551099600
1060	1551099600	1551186000
1061	1551186000	1551272400
1062	1551272400	1551358800
1063	1551358800	1551445200
1064	1551445200	1551531600
1065	1551531600	1551618000
1066	1551618000	1551704400
1067	1551704400	1551790800
1068	1551790800	1551877200
1069	1551877200	1551963600
1070	1551963600	1552050000
1071	1552050000	1552136400
1072	1552136400	1552222800
1073	1552222800	1552309200
1074	1552309200	1552395600
1075	1552395600	1552482000
1076	1552482000	1552568400
1077	1552568400	1552654800
1078	1552654800	1552741200
1079	1552741200	1552827600
1080	1552827600	1552914000
1081	1552914000	1553000400
1082	1553000400	1553086800
1083	1553086800	1553173200
1084	1553173200	1553259600
1085	1553259600	1553346000
1086	1553346000	1553432400
1087	1553432400	1553518800
1088	1553518800	1553605200
1089	1553605200	1553691600
1090	1553691600	1553778000
1091	1553778000	1553864400
1092	1553864400	1553950800
1093	1553950800	1554037200
1094	1554037200	1554123600
1095	1554123600	1554210000
1096	1554210000	1554296400
1097	1554296400	1554382800
1098	1554382800	1554469200
1099	1554469200	1554555600
1100	1554555600	1554642000
1101	1554642000	1554728400
1102	1554728400	1554814800
1103	1554814800	1554901200
1104	1554901200	1554987600
1105	1554987600	1555074000
1106	1555074000	1555160400
1107	1555160400	1555246800
1108	1555246800	1555333200
1109	1555333200	1555419600
1110	1555419600	1555506000
1111	1555506000	1555592400
1112	1555592400	1555678800
1113	1555678800	1555765200
1114	1555765200	1555851600
1115	1555851600	1555938000
1116	1555938000	1556024400
1117	1556024400	1556110800
1118	1556110800	1556197200
1119	1556197200	1556283600
1120	1556283600	1556370000
1121	1556370000	1556456400
1122	1556456400	1556542800
1123	1556542800	1556629200
1124	1556629200	1556715600
1125	1556715600	1556802000
1126	1556802000	1556888400
1127	1556888400	1556974800
1128	1556974800	1557061200
1129	1557061200	1557147600
1130	1557147600	1557234000
1131	1557234000	1557320400
1132	1557320400	1557406800
1133	1557406800	1557493200
1134	1557493200	1557579600
1135	1557579600	1557666000
1136	1557666000	1557752400
1137	1557752400	1557838800
1138	1557838800	1557925200
1139	1557925200	1558011600
1140	1558011600	1558098000
1141	1558098000	1558184400
1142	1558184400	1558270800
1143	1558270800	1558357200
1144	1558357200	1558443600
1145	1558443600	1558530000
1146	1558530000	1558616400
1147	1558616400	1558702800
1148	1558702800	1558789200
1149	1558789200	1558875600
1150	1558875600	1558962000
1151	1558962000	1559048400
1152	1559048400	1559134800
1153	1559134800	1559221200
1154	1559221200	1559307600
1155	1559307600	1559394000
1156	1559394000	1559480400
1157	1559480400	1559566800
1158	1559566800	1559653200
1159	1559653200	1559739600
1160	1559739600	1559826000
1161	1559826000	1559912400
1162	1559912400	1559998800
1163	1559998800	1560085200
1164	1560085200	1560171600
1165	1560171600	1560258000
1166	1560258000	1560344400
1167	1560344400	1560430800
1168	1560430800	1560517200
1169	1560517200	1560603600
1170	1560603600	1560690000
1171	1560690000	1560776400
1172	1560776400	1560862800
1173	1560862800	1560949200
1174	1560949200	1561035600
1175	1561035600	1561122000
1176	1561122000	1561208400
1177	1561208400	1561294800
1178	1561294800	1561381200
1179	1561381200	1561467600
1180	1561467600	1561554000
1181	1561554000	1561640400
1182	1561640400	1561726800
1183	1561726800	1561813200
1184	1561813200	1561899600
1185	1561899600	1561986000
1186	1561986000	1562072400
1187	1562072400	1562158800
1188	1562158800	1562245200
1189	1562245200	1562331600
1190	1562331600	1562418000
1191	1562418000	1562504400
1192	1562504400	1562590800
1193	1562590800	1562677200
1194	1562677200	1562763600
1195	1562763600	1562850000
1196	1562850000	1562936400
1197	1562936400	1563022800
1198	1563022800	1563109200
1199	1563109200	1563195600
1200	1563195600	1563282000
1201	1563282000	1563368400
1202	1563368400	1563454800
1203	1563454800	1563541200
1204	1563541200	1563627600
1205	1563627600	1563714000
1206	1563714000	1563800400
1207	1563800400	1563886800
1208	1563886800	1563973200
1209	1563973200	1564059600
1210	1564059600	1564146000
1211	1564146000	1564232400
1212	1564232400	1564318800
1213	1564318800	1564405200
1214	1564405200	1564491600
1215	1564491600	1564578000
1216	1564578000	1564664400
1217	1564664400	1564750800
1218	1564750800	1564837200
1219	1564837200	1564923600
1220	1564923600	1565010000
1221	1565010000	1565096400
1222	1565096400	1565182800
1223	1565182800	1565269200
1224	1565269200	1565355600
1225	1565355600	1565442000
1226	1565442000	1565528400
1227	1565528400	1565614800
1228	1565614800	1565701200
1229	1565701200	1565787600
1230	1565787600	1565874000
1231	1565874000	1565960400
1232	1565960400	1566046800
1233	1566046800	1566133200
1234	1566133200	1566219600
1235	1566219600	1566306000
1236	1566306000	1566392400
1237	1566392400	1566478800
1238	1566478800	1566565200
1239	1566565200	1566651600
1240	1566651600	1566738000
1241	1566738000	1566824400
1242	1566824400	1566910800
1243	1566910800	1566997200
1244	1566997200	1567083600
1245	1567083600	1567170000
1246	1567170000	1567256400
1247	1567256400	1567342800
1248	1567342800	1567429200
1249	1567429200	1567515600
1250	1567515600	1567602000
1251	1567602000	1567688400
1252	1567688400	1567774800
1253	1567774800	1567861200
1254	1567861200	1567947600
1255	1567947600	1568034000
1256	1568034000	1568120400
1257	1568120400	1568206800
1258	1568206800	1568293200
1259	1568293200	1568379600
1260	1568379600	1568466000
1261	1568466000	1568552400
1262	1568552400	1568638800
1263	1568638800	1568725200
1264	1568725200	1568811600
1265	1568811600	1568898000
1266	1568898000	1568984400
1267	1568984400	1569070800
1268	1569070800	1569157200
1269	1569157200	1569243600
1270	1569243600	1569330000
1271	1569330000	1569416400
1272	1569416400	1569502800
1273	1569502800	1569589200
1274	1569589200	1569675600
1275	1569675600	1569762000
1276	1569762000	1569848400
1277	1569848400	1569934800
1278	1569934800	1570021200
1279	1570021200	1570107600
1280	1570107600	1570194000
1281	1570194000	1570280400
1282	1570280400	1570366800
1283	1570366800	1570453200
1284	1570453200	1570539600
1285	1570539600	1570626000
1286	1570626000	1570712400
1287	1570712400	1570798800
1288	1570798800	1570885200
1289	1570885200	1570971600
1290	1570971600	1571058000
1291	1571058000	1571144400
1292	1571144400	1571230800
1293	1571230800	1571317200
1294	1571317200	1571403600
1295	1571403600	1571490000
1296	1571490000	1571576400
1297	1571576400	1571662800
1298	1571662800	1571749200
1299	1571749200	1571835600
1300	1571835600	1571922000
1301	1571922000	1572008400
1302	1572008400	1572094800
1303	1572094800	1572181200
1304	1572181200	1572267600
1305	1572267600	1572354000
1306	1572354000	1572440400
1307	1572440400	1572526800
1308	1572526800	1572613200
1309	1572613200	1572699600
1310	1572699600	1572786000
1311	1572786000	1572872400
1312	1572872400	1572958800
1313	1572958800	1573045200
1314	1573045200	1573131600
1315	1573131600	1573218000
1316	1573218000	1573304400
1317	1573304400	1573390800
1318	1573390800	1573477200
1319	1573477200	1573563600
1320	1573563600	1573650000
1321	1573650000	1573736400
1322	1573736400	1573822800
1323	1573822800	1573909200
1324	1573909200	1573995600
1325	1573995600	1574082000
1326	1574082000	1574168400
1327	1574168400	1574254800
1328	1574254800	1574341200
1329	1574341200	1574427600
1330	1574427600	1574514000
1331	1574514000	1574600400
1332	1574600400	1574686800
1333	1574686800	1574773200
1334	1574773200	1574859600
1335	1574859600	1574946000
1336	1574946000	1575032400
1337	1575032400	1575118800
1338	1575118800	1575205200
1339	1575205200	1575291600
1340	1575291600	1575378000
1341	1575378000	1575464400
1342	1575464400	1575550800
1343	1575550800	1575637200
1344	1575637200	1575723600
1345	1575723600	1575810000
1346	1575810000	1575896400
1347	1575896400	1575982800
1348	1575982800	1576069200
1349	1576069200	1576155600
1350	1576155600	1576242000
1351	1576242000	1576328400
1352	1576328400	1576414800
1353	1576414800	1576501200
1354	1576501200	1576587600
1355	1576587600	1576674000
1356	1576674000	1576760400
1357	1576760400	1576846800
1358	1576846800	1576933200
1359	1576933200	1577019600
1360	1577019600	1577106000
1361	1577106000	1577192400
1362	1577192400	1577278800
1363	1577278800	1577365200
1364	1577365200	1577451600
1365	1577451600	1577538000
1366	1577538000	1577624400
1367	1577624400	1577710800
1368	1577710800	1577797200
1369	1577797200	1577883600
1370	1577883600	1577970000
1371	1577970000	1578056400
1372	1578056400	1578142800
1373	1578142800	1578229200
1374	1578229200	1578315600
1375	1578315600	1578402000
1376	1578402000	1578488400
1377	1578488400	1578574800
1378	1578574800	1578661200
1379	1578661200	1578747600
1380	1578747600	1578834000
1381	1578834000	1578920400
1382	1578920400	1579006800
1383	1579006800	1579093200
1384	1579093200	1579179600
1385	1579179600	1579266000
1386	1579266000	1579352400
1387	1579352400	1579438800
1388	1579438800	1579525200
1389	1579525200	1579611600
1390	1579611600	1579698000
1391	1579698000	1579784400
1392	1579784400	1579870800
1393	1579870800	1579957200
1394	1579957200	1580043600
1395	1580043600	1580130000
1396	1580130000	1580216400
1397	1580216400	1580302800
1398	1580302800	1580389200
1399	1580389200	1580475600
1400	1580475600	1580562000
1401	1580562000	1580648400
1402	1580648400	1580734800
1403	1580734800	1580821200
1404	1580821200	1580907600
1405	1580907600	1580994000
1406	1580994000	1581080400
1407	1581080400	1581166800
1408	1581166800	1581253200
1409	1581253200	1581339600
1410	1581339600	1581426000
1411	1581426000	1581512400
1412	1581512400	1581598800
1413	1581598800	1581685200
1414	1581685200	1581771600
1415	1581771600	1581858000
1416	1581858000	1581944400
1417	1581944400	1582030800
1418	1582030800	1582117200
1419	1582117200	1582203600
1420	1582203600	1582290000
1421	1582290000	1582376400
1422	1582376400	1582462800
1423	1582462800	1582549200
1424	1582549200	1582635600
1425	1582635600	1582722000
1426	1582722000	1582808400
1427	1582808400	1582894800
1428	1582894800	1582981200
1429	1582981200	1583067600
1430	1583067600	1583154000
1431	1583154000	1583240400
1432	1583240400	1583326800
1433	1583326800	1583413200
1434	1583413200	1583499600
1435	1583499600	1583586000
1436	1583586000	1583672400
1437	1583672400	1583758800
1438	1583758800	1583845200
1439	1583845200	1583931600
1440	1583931600	1584018000
1441	1584018000	1584104400
1442	1584104400	1584190800
1443	1584190800	1584277200
1444	1584277200	1584363600
1445	1584363600	1584450000
1446	1584450000	1584536400
1447	1584536400	1584622800
1448	1584622800	1584709200
1449	1584709200	1584795600
1450	1584795600	1584882000
1451	1584882000	1584968400
1452	1584968400	1585054800
1453	1585054800	1585141200
1454	1585141200	1585227600
1455	1585227600	1585314000
1456	1585314000	1585400400
1457	1585400400	1585486800
1458	1585486800	1585573200
1459	1585573200	1585659600
1460	1585659600	1585746000
1461	1585746000	1585832400
1462	1585832400	1585918800
1463	1585918800	1586005200
1464	1586005200	1586091600
1465	1586091600	1586178000
1466	1586178000	1586264400
1467	1586264400	1586350800
1468	1586350800	1586437200
1469	1586437200	1586523600
1470	1586523600	1586610000
1471	1586610000	1586696400
1472	1586696400	1586782800
1473	1586782800	1586869200
1474	1586869200	1586955600
1475	1586955600	1587042000
1476	1587042000	1587128400
1477	1587128400	1587214800
1478	1587214800	1587301200
1479	1587301200	1587387600
1480	1587387600	1587474000
1481	1587474000	1587560400
1482	1587560400	1587646800
1483	1587646800	1587733200
1484	1587733200	1587819600
1485	1587819600	1587906000
1486	1587906000	1587992400
1487	1587992400	1588078800
1488	1588078800	1588165200
1489	1588165200	1588251600
1490	1588251600	1588338000
1491	1588338000	1588424400
1492	1588424400	1588510800
1493	1588510800	1588597200
1494	1588597200	1588683600
1495	1588683600	1588770000
1496	1588770000	1588856400
1497	1588856400	1588942800
1498	1588942800	1589029200
1499	1589029200	1589115600
1500	1589115600	1589202000
1501	1589202000	1589288400
1502	1589288400	1589374800
1503	1589374800	1589461200
1504	1589461200	1589547600
1505	1589547600	1589634000
1506	1589634000	1589720400
1507	1589720400	1589806800
1508	1589806800	1589893200
1509	1589893200	1589979600
1510	1589979600	1590066000
1511	1590066000	1590152400
1512	1590152400	1590238800
1513	1590238800	1590325200
1514	1590325200	1590411600
1515	1590411600	1590498000
1516	1590498000	1590584400
1517	1590584400	1590670800
1518	1590670800	1590757200
1519	1590757200	1590843600
1520	1590843600	1590930000
1521	1590930000	1591016400
1522	1591016400	1591102800
1523	1591102800	1591189200
1524	1591189200	1591275600
1525	1591275600	1591362000
1526	1591362000	1591448400
1527	1591448400	1591534800
1528	1591534800	1591621200
1529	1591621200	1591707600
1530	1591707600	1591794000
1531	1591794000	1591880400
1532	1591880400	1591966800
1533	1591966800	1592053200
1534	1592053200	1592139600
1535	1592139600	1592226000
1536	1592226000	1592312400
1537	1592312400	1592398800
1538	1592398800	1592485200
1539	1592485200	1592571600
1540	1592571600	1592658000
1541	1592658000	1592744400
1542	1592744400	1592830800
1543	1592830800	1592917200
1544	1592917200	1593003600
1545	1593003600	1593090000
1546	1593090000	1593176400
1547	1593176400	1593262800
1548	1593262800	1593349200
1549	1593349200	1593435600
1550	1593435600	1593522000
1551	1593522000	1593608400
1552	1593608400	1593694800
1553	1593694800	1593781200
1554	1593781200	1593867600
1555	1593867600	1593954000
1556	1593954000	1594040400
1557	1594040400	1594126800
1558	1594126800	1594213200
1559	1594213200	1594299600
1560	1594299600	1594386000
1561	1594386000	1594472400
1562	1594472400	1594558800
1563	1594558800	1594645200
1564	1594645200	1594731600
1565	1594731600	1594818000
1566	1594818000	1594904400
1567	1594904400	1594990800
1568	1594990800	1595077200
1569	1595077200	1595163600
1570	1595163600	1595250000
1571	1595250000	1595336400
1572	1595336400	1595422800
1573	1595422800	1595509200
1574	1595509200	1595595600
1575	1595595600	1595682000
1576	1595682000	1595768400
1577	1595768400	1595854800
1578	1595854800	1595941200
1579	1595941200	1596027600
1580	1596027600	1596114000
1581	1596114000	1596200400
1582	1596200400	1596286800
1583	1596286800	1596373200
1584	1596373200	1596459600
1585	1596459600	1596546000
1586	1596546000	1596632400
1587	1596632400	1596718800
1588	1596718800	1596805200
1589	1596805200	1596891600
1590	1596891600	1596978000
1591	1596978000	1597064400
1592	1597064400	1597150800
1593	1597150800	1597237200
1594	1597237200	1597323600
1595	1597323600	1597410000
1596	1597410000	1597496400
1597	1597496400	1597582800
1598	1597582800	1597669200
1599	1597669200	1597755600
1600	1597755600	1597842000
1601	1597842000	1597928400
1602	1597928400	1598014800
1603	1598014800	1598101200
1604	1598101200	1598187600
1605	1598187600	1598274000
1606	1598274000	1598360400
1607	1598360400	1598446800
1608	1598446800	1598533200
1609	1598533200	1598619600
1610	1598619600	1598706000
1611	1598706000	1598792400
1612	1598792400	1598878800
1613	1598878800	1598965200
1614	1598965200	1599051600
1615	1599051600	1599138000
1616	1599138000	1599224400
1617	1599224400	1599310800
1618	1599310800	1599397200
1619	1599397200	1599483600
1620	1599483600	1599570000
1621	1599570000	1599656400
1622	1599656400	1599742800
1623	1599742800	1599829200
1624	1599829200	1599915600
1625	1599915600	1600002000
1626	1600002000	1600088400
1627	1600088400	1600174800
1628	1600174800	1600261200
1629	1600261200	1600347600
1630	1600347600	1600434000
1631	1600434000	1600520400
1632	1600520400	1600606800
1633	1600606800	1600693200
1634	1600693200	1600779600
1635	1600779600	1600866000
1636	1600866000	1600952400
1637	1600952400	1601038800
1638	1601038800	1601125200
1639	1601125200	1601211600
1640	1601211600	1601298000
1641	1601298000	1601384400
1642	1601384400	1601470800
1643	1601470800	1601557200
1644	1601557200	1601643600
1645	1601643600	1601730000
1646	1601730000	1601816400
1647	1601816400	1601902800
1648	1601902800	1601989200
1649	1601989200	1602075600
1650	1602075600	1602162000
1651	1602162000	1602248400
1652	1602248400	1602334800
1653	1602334800	1602421200
1654	1602421200	1602507600
1655	1602507600	1602594000
1656	1602594000	1602680400
1657	1602680400	1602766800
1658	1602766800	1602853200
1659	1602853200	1602939600
1660	1602939600	1603026000
1661	1603026000	1603112400
1662	1603112400	1603198800
1663	1603198800	1603285200
1664	1603285200	1603371600
1665	1603371600	1603458000
1666	1603458000	1603544400
1667	1603544400	1603630800
1668	1603630800	1603717200
1669	1603717200	1603803600
1670	1603803600	1603890000
1671	1603890000	1603976400
1672	1603976400	1604062800
1673	1604062800	1604149200
1674	1604149200	1604235600
1675	1604235600	1604322000
1676	1604322000	1604408400
1677	1604408400	1604494800
1678	1604494800	1604581200
1679	1604581200	1604667600
1680	1604667600	1604754000
1681	1604754000	1604840400
1682	1604840400	1604926800
1683	1604926800	1605013200
1684	1605013200	1605099600
1685	1605099600	1605186000
1686	1605186000	1605272400
1687	1605272400	1605358800
1688	1605358800	1605445200
1689	1605445200	1605531600
1690	1605531600	1605618000
1691	1605618000	1605704400
1692	1605704400	1605790800
1693	1605790800	1605877200
1694	1605877200	1605963600
1695	1605963600	1606050000
1696	1606050000	1606136400
1697	1606136400	1606222800
1698	1606222800	1606309200
1699	1606309200	1606395600
1700	1606395600	1606482000
1701	1606482000	1606568400
1702	1606568400	1606654800
1703	1606654800	1606741200
1704	1606741200	1606827600
1705	1606827600	1606914000
1706	1606914000	1607000400
1707	1607000400	1607086800
1708	1607086800	1607173200
1709	1607173200	1607259600
1710	1607259600	1607346000
1711	1607346000	1607432400
1712	1607432400	1607518800
1713	1607518800	1607605200
1714	1607605200	1607691600
1715	1607691600	1607778000
1716	1607778000	1607864400
1717	1607864400	1607950800
1718	1607950800	1608037200
1719	1608037200	1608123600
1720	1608123600	1608210000
1721	1608210000	1608296400
1722	1608296400	1608382800
1723	1608382800	1608469200
1724	1608469200	1608555600
1725	1608555600	1608642000
1726	1608642000	1608728400
1727	1608728400	1608814800
1728	1608814800	1608901200
1729	1608901200	1608987600
1730	1608987600	1609074000
1731	1609074000	1609160400
1732	1609160400	1609246800
1733	1609246800	1609333200
1734	1609333200	1609419600
