ID	DispName	Type	SubType	RareType	Icon	DamageType	MPModel	OPModel	Speed	SpeedDecay	MaxSpeed	Gravity	Resilient	ExplodeType	FlyTime	GroundTime	IgnoreArmorRate	Decelerate	DecelerateTime	TailEffect	TailEffectSize	TailEffectShowTime	ExplodeEffect	Explodesound	DamageMinR	DamageMaxR	SafeDistance	ThrowAngle	Desc	CanDel	AddRule	ShakeID	GoThroughTeammate	HeadShotRange
2001	手雷	EQUIP	GRENADE	1	grenade	3			22	0.2		10	1		4	1	0	0	0	shoulei_tuowei			zibao_baozha1	10;explode4_cs	0	8		5		False	2	1		
2002	步枪穿甲弹	EQUIP	BULLET	1	Bullet1	1			900	0.2		0	0		4	0	100	0	0										步枪专用子弹，可以大幅度穿透护甲	False	2			
2003	手枪穿甲弹	EQUIP	BULLET	1	Bullet2	2			900	0.2		0	0		4	0	100	0	0										手枪专用子弹，可以大幅度穿透护甲	False	2			
2004	冲锋枪穿甲弹	EQUIP	BULLET	1	Bullet3	2			900	0.2		0	0		4	0	100	0	0										冲锋枪专用子弹，可以大幅度穿透护甲	False	2			
2005	狙击枪穿甲弹	EQUIP	BULLET	1	Bullet4	1			900	0.2		0	0		4	0	100	0	0										狙击枪专用子弹，可以大幅度穿透护甲	False	2			
2006	霰弹枪穿甲弹	EQUIP	BULLET	1	Bullet5	2			900	0.2		0	0		4	0	100	0	0										霰弹枪专用子弹，可以大幅度穿透护甲	False	2			
2007	机枪穿甲弹	EQUIP	BULLET	1	Bullet6	1			900	0.2		0	0		4	0	100	0	0										机枪专用子弹，可以大幅度穿透护甲	False	2			
2008	高爆手雷	EQUIP	GRENADE	2	Higrenade	3			22	0.2		10	1		4	1	0	0	0	shoulei_tuowei			zibao_baozha2	10;explode3_cs	0	8		5		False	2	1		
2009	玉兔手雷	EQUIP	GRENADE	2	grenade_rabbit	3			22	0.2		10	1		4	1	0	0	0	shoulei_tuowei			shoulei_yuetu	10;explode6_holiday	0	8		5		False	2	1		
2010	M24-红星	EQUIP	GRENADE	2	grenade_rabbit	3			22	0.2		10	1		4	1	0	0	0	shoulei_tuowei			shoulei_66zhounian	10;explode3_cs	0	8		5		False	2	1		
2011	M24手雷	EQUIP	GRENADE	1	grenade	3			22	0.2		10	1		4	1	0	0	0	shoulei_tuowei			zibao_baozha1	10;explode4_cs	0	8		5		False	2	1		
2012	枪榴弹	EQUIP	GRENADE	1	grenade	3			75	0.2		20	0		4	2	0	0	0	liudan_tuowei		0.2	zibao_baozha1	10;explode4_cs	0	8	5	5		False	2	1		
2013	南瓜手雷	EQUIP	GRENADE	1	grenade	3			22	0.2		10	1		4	1	0	0	0	shoulei_tuowei			shoulei_nangua	10;explode6_holiday	0	8		5		False	2	1		
2014	束缚弹	EQUIP	GRENADE	1	grenade	3			200	0.2		0	0		4	1	0	40	10	shoulei_tuowei			jiangshinan_baozha	10;explode4_cs	0	2		0		False	2	1		
2015	闪光弹	EQUIP	GRENADE	1	Higrenade	3			22	0.2		10	1		4	1	0	0	0	shoulei_tuowei			baozha_shanguangdan	10;explode4_cs	0	40		5		False	2	1		
2016	生化手雷	EQUIP	GRENADE	1	grenade	3			22	0.2		10	1		4	1	0	0	0	shoulei_tuowei			shoulei_shenghua	10;explode4_cs	0	8		5		False	2	1		
2017	圣诞手雷	EQUIP	GRENADE	1	grenade	3			22	0.2		10	1		4	1	0	0	0	shoulei_tuowei			shoulei_shengdan	10;explode6_holiday	0	8		5		False	2	1		
2018	石头	EQUIP	GRENADE	1	grenade	3			50	0.2		0	0	1	4	1	0	0	0				baozha_toushi	10;explode6_holiday	0	8		5		False	2	1		
2019	猴赛雷	EQUIP	GRENADE	2	monkey	3			22	0.2		10	1		4	1	0	0	0	shoulei_tuowei			shoulei_monkey	10;explode6_holiday	0	8		5		False	2	1		
2020	女王元气弹	EQUIP	GRENADE	1	grenade	3			100	0.2		0	0		4	1	0	0	0	liudan_tuowei		0.2	queen_shouji	10;explode4_cs	0	8		0		False	2	1		
2021	陨石	EQUIP	GRENADE	1	grenade	3			50	0.2		0	0	1	4	1	0	0	0				baozha_toushi	10;explode6_holiday	0	8		5		False	2	1		
2022	毒球	EQUIP	GRENADE	1	grenade	3			25	0.2		0	0	1	4	1	0	0	0	shoulei_tuowei			jiamian03	10;explode4_cs	0	2		0		False	2	3		
2023	粽子手雷	EQUIP	GRENADE	2	zongzi01	3			22	0.2		10	1		4	1	0	0	0	shoulei_tuowei			shoulei_zongzi	10;explode6_holiday	0	8		5		False	2	1		
2030	士兵76-螺旋飞弹	EQUIP	GRENADE	1	grenade	3			45	0		0	0		5	0	100	0	0	tuowei_missile		0	baozha_missile	10;explode4_cs	0	2		0		False	2	1		
2031	堡垒-坦克模式	EQUIP	GRENADE	1	grenade	3			39	0		0	0		5	0	100	0	0	tuowei_rpg		0	baozha_tank	10;explode4_cs	0	4		0		False	2	1		
2032	法老之鹰-火箭发射器	EQUIP	GRENADE	1	grenade	3			33	0		0	0		5	0	100	0	0	tuowei_rpg		0	baozha_rpg	10;explode4_cs	0	3		0		False	2	1		
2033	法老之鹰-震荡冲击	EQUIP	GRENADE	1	grenade	3			36	0		0	0		5	0	100	0	0	tuowei_shockwave		0	baozha_shockwave	10;explode4_cs	0	8		0		False	2	1		
2034	安娜-麻醉镖	EQUIP	GRENADE	1	grenade	3			36	0		0	0		5	0	100	0	0	liudan_tuowei		0	jiamian03	10;explode4_cs	0	4		0		False	2	1		
2035	麦克雷-闪光弹	EQUIP	GRENADE	1	grenade	3			36	0		4	0		0.3	0	100	0	0	tuowei_flashbomb		0	baozha_flashbomb	10;explode4_cs	0	2		0		False	2	1		
2036	查莉娅-粒子炮.R	EQUIP	GRENADE	1	grenade	3			24	0		5	0		5	0	100	0	0	tuowei_particle_cannon		0	baozha_particle_cannon	10;explode4_cs	0	2		5		False	2	1		
2037	半藏-龙	EQUIP	GRENADE	1	grenade	3			9	0		0	0		5	0	100	0	0	liudan_tuowei		0	baozha_toushi	10;explode4_cs	0	4		0		False	2	1		
2038	黑百合-蜘蛛诡雷	EQUIP	GRENADE	1	grenade	3			24	0.2		15	1		2.5	0.5	100	0	0	liudan_tuowei		0	jiamian03	10;explode4_cs	0	3		0		False	2	1		
2039	狂鼠-榴弹发射器	EQUIP	GRENADE	1	grenade	3			33	0.4		10	1	3	5	0.5	100	0	0	liudan_tuowei		0	zibao_baozha1	10;explode4_cs	0	2		0		False	2	1		
2040	狂鼠-震荡地雷	EQUIP	GRENADE	1	grenade	3			15	0.2		15	1	3	5	0.5	100	0	0	shoulei_tuowei		0	zibao_baozha1	10;explode4_cs	0	3		0		False	2	1		
2041	狂鼠-捕兽夹	EQUIP	GRENADE	1	grenade	3			15	0		15	0	3	5	0.5	100	100	5	liudan_tuowei		0	shoulei_zongzi	10;explode4_cs	0	2		0		False	2	1		
2042	箭矢	EQUIP	ARROW	1	grenade	3			35	0	100	5	0	3	5	0	100	0	0	archer_jian_tuowei		0			0	1		0		False	2		True	0.7
2043	箭矢PVE	EQUIP	GRENADE	1	grenade	3			40	0		0	0		1.3	0	100	0	0	tuowei_missile		0	baozha_tank	10;explode4_cs	0	4		0		False	2	1		
2044	安娜-纳米激素	EQUIP	GRENADE	1	grenade	3			36	0		0	0		5	0	100	0	0	liudan_tuowei		0	jiamian03	10;explode4_cs	0	4		0		False	2	1		
