Id	Radius	OwnerBuff	TeammateBuff	EnemyBuff	Effect
1	10	800041	800040		
2	8	803101	803104		
3	12	803102	803105		
4	16	803103	803106		
5	5				heal
6	8	805101			
7	30	805102	805102		
8	8				heal
9	8	803004	803004		
