Id	EventId	EventType	StartTime	EndTime	Welfare	Name	Params	Title	ViewStartTime	ViewEndTime	State
1	0		1446170400	1446393599		gun_promote	活动时间：12月11日00:00-12月13日24:00;gun_cisha	M82A1-刺杀永久	1449763200	1450022399	2
2	0		1446188400	1446393599		gun_promote	活动时间：12月14日00:00-12月23日24:00;gun_cisha;30	M82A1-刺杀上架	1450022400	1450886399	2
3	0		1446170400	1446393599		gun_promote	活动时间：12月11日00:00-12月13日24:00;gun_haoyu	RPK-豪雨永久	1449763200	1450022399	2
4	0		1446188400	1446393599		gun_promote	活动时间：12月14日00:00-12月23日24:00;gun_haoyu;30	RPK-豪雨上架	1450022400	1450886399	2
5	0		1446170400	1446393599		colourgun	活动时间：12月11日00:00-12月13日24:00	中国城折扣礼包	1449763200	1450022399	2
6	3	2	1449835200	1449835200	30	integral_time2	活动时间：12月11日00:00-12月13日24:00;12月11日20:00在线	整点送壕礼	1449763200	1450022399	3
7	3	2	1449903600	1449903600	31	integral_time2	活动时间：12月11日00:00-12月13日24:00;12月12日15:00在线	整点送壕礼	1449763200	1450022399	3
8	3	2	1449990000	1449990000	32	integral_time2	活动时间：12月11日00:00-12月13日24:00;12月13日15:00在线	整点送壕礼	1449763200	1450022399	3
9	0		1443337200	1443337200		item_icon_double	活动时间：12月18日00:00-12月20日24:00	周末任务达人	1450368000	1450627199	2
10	1	1	1443330000	1443348000		item_drop_double		道具双倍掉落	1442628000	1443369600	2
11	1	2	1443337200	1443337200	1	integral_time		整点送玉兔	1442628000	1443369600	2
12	2		1443628800	1444233599		redstargun		绝版红星套装	1443628800	1444233599	3
13	2	3	1443679200	1443686400	3;4;5;6;7;8;9;10;11;12;13;14;15;16;17;18;19;20;21;22	redstar		红星照我去战斗	1443628800	1444234200	3
14	2	3	1443697200	1443704400	3;4;5;6;7;8;9;10;11;12;13;14;15;16;17;18;19;20;21;22	redstar		红星照我去战斗	1443628800	1444234200	3
15	2	4	1443628800	1444233599	2	login_day		送永久红星手雷	1443628800	1444234200	2
16	2	1	1443679200	1443686400		item_icon_double		双倍经验+金币	1443628800	1444234200	2
17	2	1	1443765600	1443772800		item_icon_double		双倍经验+金币	1443628800	1444234200	2
18	2	1	1443852000	1443859200		item_icon_double		双倍经验+金币	1443628800	1444234200	2
19	0		1446170400	1446393599		halloween		战队联赛开赛	1449540000	1451145599	3
20	2		1443628800	1444233599		colourgun		新增精英枪	1443628800	1444233599	1
21	4		1442628000	1758250800	33	daily_double		每日双倍	1442628000	1758250800	2
22	0		1442628000	1459403999		first_recharge		今日首充	1442628000	1459403999	2
23	0		1442628000	1459403999		accumulative_recharge		累计充值	1442628000	1459403999	2
24	0		1442628000	1758250800		bulitin		更新公告	1442628000	1758250800	1
