ID	DMMItemID	DMMItemPos	DMMItemRot	DMMItemScale	posMin	posMax	size	maxY	GameRules
1007	10218;10218;10407;10204;10218;10218;10404;10404;10218;10218;10407;10404;10220	12.602#0.801#6.33;12.602#0.801#6.83;-10.453#0.789#2.58;11.65#0.426#-15.318;-22.725#0.803#-1.727;-23.418#0.812#7.857;-19.11#5.21#0.46;24.077#0.903#1.702;-24.838#0.826#-1.805;-24.838#1.326#-1.805;-43.476#0.04#-15.125;13.315#5.21#2.348;12.918#0.83#12.499	0#92.36832#0;0#92.36832#0;0#-1.150024#0;0#0#0;0#80.56004#0;0#80.56#0;0#-10.45001#0;0#13.25#0;0#80.56004#0;0#54.72421#0;0#7.499985#0;0#84.94962#0;0#8.464081#0	1#1#1;1#1#1;1#1#1;1#1#1;1#1#1;1#1#1;1#1#1;1#1#1;1#1#1;1#1#1;1#1#1;1#1#1;1#1#1	-66.19249#-35.84913	65.99249#38.64914	1322#745	17.63142	hide;hide;hide;hide;hide;hide;hide;hide;hide;hide;hide;hide;hide
1006	10407;10204;10218;10218;10404;10218;10218;10407;10404;10404;10201;10201;10201	-5.563#0.04#-23.37;11.18#0.024#-20.37;-19.13#1.06#-16.84;-18.93#1.027#-17.654;-25.002#3.06#-29.221;-37.78#1.023#-11.918;-37.78#1.523#-11.918;-35.197#1.017#0.464;20.704#-1.025#-16.692;-26.993#3.06#-29.234;-25.6#1.04#23.713;-25.6#1.233#23.713;-25.6#1.476#23.713	0#90#0;0#0#0;0#0#0;0#80.56#0;0#-0.3835449#0;0#80.56004#0;0#54.72421#0;0#0#0;84.62013#28.36517#6.971359;0#-0.3835449#0;0#0#0;0#0#0;0#0#0	1#1#1;1#1#1;1#1#1;1#1#1;1#1#1;1#1#1;1#1#1;1#1#1;1#1#1;1#1#1;1#1#1;1#1#1;1#1#1	-58.31078#-54.06787	51.72556#71.0071	1101#1251	22.73387	hide;hide;hide;hide;hide;hide;hide;hide;hide;hide;hide;hide;hide
1010	10201;10201;10201;10201;10201;10201	-31.67#0.24#29.927;-31.67#0.46#29.927;-31.67#0.68#29.927;-31.67#0.03#29.927;-31.67#0.91#29.927;-31.67#1.16#29.927	0#0#0;0#0#0;0#0#0;0#0#0;0#0#0;0#0#0	1#1#1;1#1#1;1#1#1;1#1#1;1#1#1;1#1#1	-52.65065#-60.5	50.60015#59.5	1033#1201	25.7082	hide;hide;hide;hide;hide;hide
1008					-65.36905#-37.40936	67.97508#36.81289	1334#743	22.37386	
1001					-20.09378#-43.35384	20.01378#43.15384	402#866	18.41912	
1002					-27.99894#-30.54509	37.48255#30.44283	655#610	9.463661	
1003					-22.82944#-25.73198	22.82944#25.73198	457#515	5.331656	
1004					-17.40993#-48.34776	20.71348#47.85152	382#962	14.79389	
1005					-51.59109#-52.51056	49.9435#51.75233	1016#1043	19.42274	
1009					-27.12472#-56.43473	31.74472#52.43473	589#1089	10.59839	
2001					-41.6592#-46.00213	41.75753#47.84746	835#939	14.19675	
2002					-47.66125#-56.60334	28.64236#49.00335	764#1057	24.66262	
2003					-68.72485#-37.40936	70.72485#36.81289	1395#743	31.4243	
5001					-49.95#-52.685	49.69#51.75233	997#1045	18.36	
5003					-58.31078#-54.06787	58.65#71.0071	1170#1251	21.75583	
5004					-23.42244#-48.8546	23.32244#43.68	468#926	5.865932	
1011					-59.71324#-57.48711	55.91323#57.88711	1157#1154	27.04517	
1012					-57.81596#-47.86546	57.58005#48.59205	1154#965	15.77038	
9016					-25.26196#-17.5	25.31485#17.90001	506#355	0	
2004					-52.65065#-60.5	50.60015#59.5	1033#1201	25.7082	
1014					-54.12182#-36.93873	54.12182#38.93873	1083#759	22.25725	
9017					-25.3#-25.26	28.14784#27.66115	535#530	0	
9015					-38.0219#-32.51598	34.88#29.08916	730#617	0	
1013					-27.34459#-19.10299	27.66286#18.91519	551#381	10.33225	
3001	10503;10503;10503;10503;10503;10503;10517;10601;10508;10605;10512;10515;10604;10514;10510;10515;10510;10511;10511;10511;10511;10517;10510;10510;10510;10509;10511;10602;10504;10501;10510;10502;10605;10605;10600;10515;10504;10511;10600;10512;10508;10500;10511;10600;10511;10606;10512;10601;10601;10601;10602;10607;10505;10512;10607;10601;10601;10507	21.506#0.806#5.157;-6.269#0.854#15.225;-24.80181#5.306985#-24.27405;28.26094#0.742375#22.28798;9.962#0.67#24.713;-4.611#6.57#-25.073;2.06#0#5.03;-6.56#0#15.91;-10.11#0#4.09;-11.46#0#4.17;21.161#0#5.868;31.33#0#15.83;31.475#2.584#15.815;1.61#0#8.07;26.79#0#22.08;-2.713#0#-3.36;-4.67#0#24.03;-9.97#0#14.21;-9.88#0#17.32;-3.78#0#17.19;-3.77#0#14.5;-4.05#0#15.81;0.23#0#29.78;-3.53#0#36.14;-10.38#0#36.3;-18.34#0#0.14;-4.24#0#-5.809;-2.682#0#-5.936;28.98#0#6.59;8.12#0.69#26.36;8.43#0#14.01;7.82#0#28.64;13.772#0#33.551;11.416#0#33.551;16.45#0#21.92;12.46#0#36.36;-3.436007#1.297#-25.19302;1.25#5.31#-17.49;6.5#5.31#-14.67;15.96#5.31#8.18;14.53#5.31#7.09;11.35#6.29#-5.43;22.59#0#27.19;4.27#5.31#-5.51;4.85#5.31#-9.31;1.87#5.31#-9.31;1.88#0#29.8;8.54#0#33.29;-9.49#5.31#-25.57;-22.44#5.31#-34.12;-2.49#5.31#-30.9;-5.363#5.31#-36.414;-5.01#6.288#-36.382;6.81#0#-29.57;17.528#0#-19.9;2.274#0#-17.883;-17.84#0#-17.987;18.73#1.94#-4.68	0#90#0;0#90#0;0#90#0;0#0#0;0#-180#0;0#0#0;0#0#0;0#90#0;0#0#0;0#0#0;0#2.5#0;0#-180#0;0#0#0;0#0#0;0#0#0;0#-180#0;0#-180#0;0#-180#0;0#-180#0;0#0#0;0#0#0;0#0#0;0#0#0;0#90#0;0#90#0;0#0#0;0#-180#0;0#90#0;0#0#0;0#0#0;0#-180#0;0#0#0;0#90#0;0#90#0;0#0#0;0#90#0;0#90#0;0#0#0;0#0#0;0#0#0;0#0#0;0#0#0;0#90#0;0#0#0;0#-180#0;0#0#0;0#0#0;0#0#0;0#0#0;0#0#0;0#90#0;0#0#0;0#90#0;0#90#0;0#90#0;0#90#0;0#90#0;0#-90#0	1#1#1;1#1#1;1#1#1;1#1#1;1#1#1;1#1#1;1#1#1;1#1#1;1#1#1;1#1#1;1#1#1;1#1#1;1#1#1;1#1#1;1#1#1;1#1#1;1#1#1;1#1#1;1#1#1;1#1#1;1#1#1;1#1#1;1#1#1;1#1#1;1#1#1;1#1#1;1#1#1;1#1#1;1#1#1;1#1#1;1#1#1;1#1#1;1#1#1;1#1#1;1#1#1;1#1#1;1#1#1;1#1#1;1#1#1;1#1#1;1#1#1;1#1#1;1#1#1;1#1#1;1#1#1;1#1#1;1#1#1;1#1#1;1#1#1;1#1#1;1#1#1;1#1#1;1#1#1;1#1#1;1#1#1;1#1#1;1#1#1;1#1#1	-35.61147#-41.56327	38.61147#45.29825	743#869	14.75154	hide;hide;hide;hide;hide;hide;hide;hide;hide;hide;hide;hide;hide;hide;hide;hide;hide;hide;hide;hide;hide;hide;hide;hide;hide;hide;hide;hide;hide;hide;hide;hide;hide;hide;hide;hide;hide;hide;hide;hide;hide;hide;hide;hide;hide;hide;hide;hide;hide;hide;hide;hide;hide;hide;hide;hide;hide;hide
9201					-24.31922#-24.10617	24.08303#24.65172	485#488	0	
1000					-29.4999#-29.25814	4.597742#4.758997	341#341	6.819903	
4001					-37.0044#-36.72482	36.72764#36.82027	738#736	25.9	
5005					-35.62014#-46.40306	43.04654#44.21409	787#907	19.31581	
2005					-49.79283#-44.09782	43.96185#36.98623	938#811	20.65638	
2006					-34.98807#-36.41856	37.49263#37.40438	725#739	19.90258	
1015					-58.55253#-51.29556	55.91634#50.89556	1145#1022	27.78598	
1016					-18.93262#-69.8008	19.62258#69.60079	386#1395	50.76965	
9102					-30.00368#-30.20368	30.00368#30.05	601#603	0	
9020					-69.95589#-68.91193	72.55589#66.91193	1426#1359	0	
9111					5.1#49.79	58.2#99.9	532#502	0	
1017					-69.02943#-63.525	64.22942#64.125	1333#1277	25.3317	
2007					-53.94855#-51.22455	46.79656#42.519	1008#938	25.06533	
9023					-58.81093#-26.30214	27.69562#29.60238	866#560	0	
1019					-39.51096#-17.75803	36.30034#18.36078	759#362	30.31408	
2008					-44.27258#-38.9243	44.27258#38.9243	886#779	25.14721	
5006					-35.62014#-46.40306	43.04654#44.21409	787#907	19.31581	
1020					-52.83617#-40.1627	52.94534#39.34488	1058#796	28.96375	
1021					-43.85395#-32.76178	42.91851#33.06178	868#659	8.555496	
5007					-42.18929#-54.84631	43.31929#54.6763	856#1096	13.49355	
9333					11.89796#-104.4278	219.818#183.0722	2080#2876	-21.49848	
5008					-77.88927#-115.8772	124.1575#131.9709	2021#2479	30.4259	
1018					-24.48219#-28.5914	24.48183#28.59141	490#572	7.805203	
1022					-55.55061#-66.80222	60.4514#67.03622	1161#1339	10.01292	
3002	10000;10000;10000;10008;10008;10200;10200;10200;10200;10201;10201;10207;10207;10207;10223;10223;10403;10412;10425;10425;10425;10425;10425;10429;10700;10701;10702;10703;10704;10705;10706;10707;10708;10709;10710;10711;10712;10713;10714;10715;10716;10717;10718;10719;10700;10700;10700;10701;10701;10701;10701;10701;10701;10701;10702;10702;10703;10703;10703;10703;10703;10703;10703;10704;10704;10704;10704;10704;10704;10704;10704;10706;10706;10706;10706;10707;10707;10708;10709;10710;10711;10712;10712;10712;10712;10712;10713;10713;10713;10713;10714;10714;10714;10715;10715;10715;10715;10715;10716;10716;10716;10717;10717;10718;10718;10718;10718;10718;10719;10719;10719;10719	-37.893#8.05#-6.466;-37.89#8.05#-12.533;-35.71#3.073#-23.211;0.5#3.5#15.67;-34.86#3.5#15.53;37.83#-1.02#8.75;37.83#-1.02#2.64;22.31#-1.02#-22.96;22.31#-1.02#-16.85;-12.04#0#41.38;-28.44#0#33.12;-22.52#0#36.38;3.26#0#25.18;24.99#-1.03#-4.57;2.653#0.065#-0.558;2.65#0.06#-19.4;35.24#-0.99#14.29;7.73#-0.05#39.79;32.76#-0.99#38.38;32.76#-0.99#19.16;37.92#-0.99#-4.04;37.92#-0.99#-21.32;37.92#-0.99#-36.3;0#0#-6.32;2.67#4.73#4.18;-1.88#2.18#-6.497;-10.83#0.53#-22.41;12.89#0#10.4;8.349#0.013#-16.76;-12.893#0.032#16.325;3.471#-0.022#5.063;10.72#-0.05#-11.18;-4.945#0.575#-19.089;-14.116#3.982#-38.181;0.761#0.01#1.663;22.39#-1#-20.2;29.09#-1.042#-29.724;29.82#-1.016#-26.64;34.11#-0.85#-29.07;-38.6#5.04#17.26;-19.228#0.049#-23.426;-11.8#3.475#-37.11;20.432#0.029#8.117;-4.368#-0.037#-33.392;2.67#4.73#-23.08;-21.67#2.26#-6.375;-21.67#2.445#-12.3;-14.395#2.18#-11.387;-10.135#1.797#-11.647;-19.22#0#-13.71;-19.22#2.473#-12.493;-29.39#1.82#-12.49;-41.67#7.28#-19.05;-41.67#7.95#-28.77;-22.97#0.01#8.69;-2.83#-0.048#29.6;-12.727#0#36.83;-24.47#0#35.03;0.56#4.93#24.36;-38.41#4.93#24.36;-20.48#0.01#-7.008;-6.377#0.01#-12.902;13.092#0.01#-20.082;7.18#0.01#-31.7;23.669#-1.014#-10.794;30.844#-1.01#-25.884;20.177#-0.034#17.162;-41.126#5.061#13.29;-23.562#0.02#-11.303;-18.45#0.27#-31.38;-40.721#5.911#-30.228;3.471#-0.022#3.02;3.47#-0.02#-21.488;3.47#-0.02#-24.66;-18.408#-0.02#23.815;4.12#0.04#-8.64;-19.217#0.04#-11.08;-14.81#0.041#-14.41;-41.064#5.623#-23.467;22.51#-0.453#-16.081;19.49#-0.02#-4.4;-21.004#-0.064#-11.807;-15.667#-0.06#4.011;-18.012#-0.06#4.694;-24.86#-0.06#-32.83;-40.163#4.97#-38.293;27.02#-1.17#21.47;19.786#-0.013#32.771;20.38#-0.01#35.1;-7.36#-0.01#39.59;34.49#-0.869#22.475;33.92#-0.62#-30.11;-13.58#0.51#12.7;-40.509#5.04#-25.292;8.32#0.02#-35.62;20.7#0.01#-3.64;20.229#0.029#29.716;-11.56#0.03#39.07;-5.24#0.05#2.31;-27.1#0.05#-0.55;-21.45#-0.022#28.83;-10.59#1.12#-22.5;-20.962#0.372#-11.366;-18.434#0.03#-11.749;0.75#0.03#13.72;-9.81#0.03#41.96;-12.1#0.03#26.19;-34.129#0.03#-33.181;-0.131#4.994#-43.519;-33.42988#5.19#-43.46758;-33.863#5.19#24.478;-31.1#0.17#14.65	0#0#0;0#-180#0;0#90#0;0#0#0;0#0#0;0#-90#0;0#-90#0;0#90#0;0#90#0;0#0#0;0#0#0;0#0#0;0#0#0;0#0#0;0#0#0;0#0#0;0#-90#0;0#90#0;0#0#0;0#0#0;0#0#0;0#0#0;0#0#0;0#0#0;0#90#0;0#-180#0;0#0#0;0#90#0;0#0#16.95505;-1.473389#-95.13593#-15.96436;0#90#0;0#0#0;90#0#0;0#0#0;0#0#0;0#0#0;0#-97.62665#0;0#-67.89737#0;0#-32.69928#0;0#0#0;0#-27.59521#0;0#0#0;-1.894531#-84.99008#20.66226;0#0#0;0#90#0;0#0#0;0#0#0;0#88.37677#0;0#88.37679#0;90#-32.61981#0;0#0#0;0#0#0;0#-91.41266#0;0#-91.41269#0;0#0#0;0#0#0;0#0#0;0#-77.43628#0;0#0#0;0#0#0;0#0#0;0#0#0;0#90#0;0#0#16.955;0#-127.679#0;0#45.72705#0;0#-82.00262#0;0#-82.00256#-31.05472;-5.741577#-11.87268#14.64168;0#77.38988#88.82306;0#90#90;0#90#0;0#90#0;0#90#0;0#0#0;0#0#0;0#0#0;90#0#0;0#0#0;0#0#0;0#0#0;0#-172.4188#0;0#-97.48291#0;0#97.48294#0;0#-176.5616#0;0#-115.5518#0;0#-67.89737#0;0#-67.89737#0;0#-55.28085#0;0#-12.26294#0;-0.03369141#4.979202#-15.75342;0#-32.69928#94.93314;-1.525879E-05#-81.30502#94.93317;0#-47.62515#0;0#-47.62515#0;0#-47.62515#0;0#-137.8281#0;0#-137.8281#0;0#-99.9906#0;0#-165.0451#0;0#-165.0451#0;0#0#0;0#0#0;-1.894531#-84.99011#20.66228;-1.894531#133.6764#20.66226;-1.89447#85.17358#20.6622;-4.620544#87.64676#-20.92932;-4.620544#87.64677#-20.92932;0#0#0;90#-44.52975#0;90#-165.9196#0;90#-165.9196#0	1#1#1;1#1#1;1#1#1;1#1#1;1#1#1;1#1#1;1#1#1;1#1#1;1#1#1;1#1#1;1#1#1;1#1#1;1#1#1;1#1#1;1#1#1;1#1#1;1#1#1;1#1#1;1#1#1;1#1#1;1#1#1;1#1#1;1#1#1;1#1#1;1#1#1;1#1#1;1#1#1;1#1#1;1#1#1;1#1#1;1#1#1;1#1#1;1#1#1;1#1#1;1#1#1;1#1#1;1#1#1;1#1#1;1#1#1;1#1#1;1#1#1;1#1#1;1#1#1;1#1#1;1#1#1;1#1#1;1#1#1;1#1#1;1#1#1;1#1#1;1#1#1;1#1#1;1#1#1;1#1#1;1#1#1;1#1#1;1#1#1;1#1#1;1#1#1;1#1#1;1#1#1;1#1#1;1#1#1;1#1#1;1#1#1;1#1#1;1#1#1;1#1#1;1#1#1;1#1#1;1#1#1;1#1#1;1#1#1;1#1#1;1#1#1;1#1#1;1#1#1;1#1#1;1#1#1;1#1#1;1#1#1;1#1#1;1#1#1;1#1#1;1#1#1;1#1#1;1#1#1;1#1#1;1#1#1;1#1#1;1#1#1;1#1#1;1#1#1;1#1#1;1#1#1;1#1#1;1#1#1;1#1#1;1#1#1;1#1#1;1#1#1;1#1#1;1#1#1;1#1#1;1#1#1;1#1#1;1#1#1;1#1#1;1#1#1;1#1#1;1#1#1;1#1#1	-51.69263#-53.27392	42.41288#52.0447	942#1054	15.00333	hide;hide;hide;hide;hide;hide;hide;hide;hide;hide;hide;hide;hide;hide;hide;hide;hide;hide;hide;hide;hide;hide;hide;hide;hide;hide;hide;hide;hide;hide;hide;hide;hide;hide;hide;hide;hide;hide;hide;hide;hide;hide;hide;hide;hide;hide;hide;hide;hide;hide;hide;hide;hide;hide;hide;hide;hide;hide;hide;hide;hide;hide;hide;hide;hide;hide;hide;hide;hide;hide;hide;hide;hide;hide;hide;hide;hide;hide;hide;hide;hide;hide;hide;hide;hide;hide;hide;hide;hide;hide;hide;hide;hide;hide;hide;hide;hide;hide;hide;hide;hide;hide;hide;hide;hide;hide;hide;hide;hide;hide;hide;hide
2009					-73.65337#-82.23965	72.25337#66.43965	1460#1487	7.020356	
9998					-177.4609#-270.3498	137.4609#-37.75023	3150#2326	104.083	
9777					-87.43704#-39.05688	87.57706#30.85687	1751#700	19.36885	
1024					-86.98236#-10.27132	-31.86875#44.81442	552#551	6.745873	
9888	10201;10201;10201;10201;10201;10201	-40.34312#7.912923#37.68487;-40.34312#8.132923#37.68487;-40.34312#8.352923#37.68487;-40.34312#7.702923#37.68487;-40.34312#8.582923#37.68487;-40.34312#8.832923#37.68487	0#0#0;0#0#0;0#0#0;0#0#0;0#0#0;0#0#0	1#1#1;1#1#1;1#1#1;1#1#1;1#1#1;1#1#1	-61.32378#-52.74213	41.92702#67.25787	1033#1201	33.38112	hide;hide;hide;hide;hide;hide
5009					-94.90325#-29.05053	33.50291#186.1173	1285#2152	23.1393	
1023					-71.10946#-30.70742	24.84916#39.54889	960#703	11.81693	
