ID	ItemId	Times	IsRarity	Weight	WeightFree	TenWeight	Time	ItemName	StartTime	EndTime
155	cj1117	1	1	0;0;0;0;0;0;0;0;0;0;0;0;0;0;0;0;0;422;846;1273;1701;2132;2565;3000;3437;3876;4318;4762;5208;5656;6107;6560;7015;7473;8395;8860;9327;9797;10269;10743;11220;11700;12182;12667	0;0	0;0;0;12667;92667	1	QBZ95-悟空(永久)	1454515200	1456070399
1	cj108	1	1	660;660;660;660;660	0;0	495;495;495;495;495		至尊大奖		
2	cj1101	1	1	247;247;247;247;247	0;0	247;247;247;247;247	1	M4A1-情人(永久)		
3	cj1102	1	1	247;247;247;247;247	0;0	247;247;247;247;247	1	AK47-军魂(永久)		
4	cj1103	1	1	247;247;247;247;247	0;0	247;247;247;247;247	1	AUG-彩虹(永久)		
5	cj1104	1	1	495;495;495;495;495	0;0	495;495;495;495;495	1	G36-蝴蝶(永久)		
6	cj1105	1	1	495;495;495;495;495	0;0	495;495;495;495;495	1	UMP45-星图(永久)		
7	cj1106	1	1	247;247;247;247;247	0;0	247;247;247;247;247	1	AWP-龙纹(永久)		
8	cj1107	1	1	247;247;247;247;247	0;0	247;247;247;247;247	1	Vector(永久)		
9	cj1109	1	1	247;247;247;247;247	0;0	247;247;247;247;247	1	M4A1-水元素(永久)		
10	cj1110	1	1	247;247;247;247;247	0;0	247;247;247;247;247	1	AK47-白银(永久)		
11	cj1111	1	1	495;495;495;495;495	0;0	495;495;495;495;495	1	AUG-橙光(永久)		
12	cj1112	1	1	247;247;247;247;247	0;0	247;247;247;247;247	1	QBZ95-炽焰(永久)		
13	cj1113	1	1	247;247;247;247;247	0;0	247;247;247;247;247	1	Vector-蓝鲸(永久)		
14	cj1114	1	1	495;495;495;495;495	0;0	495;495;495;495;495	1	SPAS-电玩(永久)		
15	cj1115	1	0	247;247;247;247;247	0;0	247;247;247;247;247	1	AWP-闪电(永久)		
16	cj1116	1	0	247;247;247;247;247	0;0	247;247;247;247;247	1	圣诞帽x600	1450886400	1451836799
17	cj2109	1	0	389;389	0;0	389;389	1	QBZ95(永久)		
18	cj2110	1	0	389;389	0;0	389;389	1	G36(永久)		
19	cj2111	1	0	389;389	0;0	389;389	1	SCAR(永久)		
20	cj2112	1	0	389;389	0;0	389;389	1	PP2000(永久)		
21	cj2113	1	0	389;389	0;0	389;389	1	UMP45(永久)		
22	cj2114	1	0	389;389	0;0	389;389	1	加特林(永久)		
23	cj2115	1	0	389;389	0;0	389;389	1	KSG(永久)		
24	cj2116	1	0	389;389	0;0	389;389	1	M82A1(永久)		
25	cj2117	1	0	389;389	0;0	389;389	1	沙漠之鹰(永久)		
26	cj2118	1	0	389;389	0;0	389;389	1	QBZ92(永久)		
27	cj2119	0	0	389;389	0;0	389;389		尼泊尔军刀(30天)		
28	cj2120	0	0	389;389	0;0	389;389		M4A1-情人(30天)		
29	cj2121	0	1	389;389	0;0	389;389		AK47-军魂(30天)		
30	cj2122	0	1	389;389	0;0	389;389		AUG-彩虹(30天)		
31	cj2123	0	0	389;389	0;0	389;389		G36-蝴蝶(30天)		
32	cj2124	0	0	389;389	0;0	389;389		UMP45-星图(30天)		
33	cj2125	0	1	389;389	0;0	389;389		AWP-龙纹(30天)		
34	cj2126	0	0	389;389	0;0	389;389		Vector(30天)		
35	cj2127	0	0	389;389	0;0	389;389		M4A1-水元素(30天)		
36	cj2128	0	0	389;389	0;0	389;389		AK47-白银(30天)		
37	cj2129	0	0	389;389	0;0	389;389		AUG-橙光(30天)		
38	cj2130	0	0	389;389	0;0	389;389		QBZ95-炽焰(30天)		
39	cj2131	0	0	389;389	0;0	389;389		Vector-蓝鲸(30天)		
40	cj2132	0	0	389;389	0;0	389;389		SPAS-电玩(30天)		
41	cj2133	0	0	389;389	0;0	389;389		AWP-闪电(30天)		
42	cj2134	0	0	389;389	0;0	389;389		圣诞帽x300	1450886400	1451836799
43	cj3127	1	0	389;389	0;0	389;389	1	AUG(永久)		
44	cj3128	1	0	389;389	0;0	389;389	1	FAMAS(永久)		
45	cj3129	1	0	389;389	0;0	389;389	1	P90(永久)		
46	cj3130	1	0	389;389	0;0	389;389	1	TMP(永久)		
47	cj3131	1	0	389;389	0;0	389;389	1	Striker(永久)		
48	cj3132	1	0	389;389	0;0	389;389	1	SVD(永久)		
49	cj3133	1	0	389;389	0;0	389;389	1	M9(永久)		
50	cj3134	0	0	778;778	0;0	778;778		QBZ95(30天)		
51	cj3135	0	0	778;778	0;0	778;778		G36(30天)		
52	cj3136	0	0	778;778	0;0	778;778		SCAR(30天)		
53	cj3137	0	0	778;778	0;0	778;778		PP2000(30天)		
54	cj3138	0	0	778;778	0;0	778;778		UMP45(30天)		
55	cj3139	0	0	778;778	0;0	778;778		加特林(30天)		
56	cj3140	0	0	778;778	0;0	778;778		KSG(30天)		
57	cj3141	0	0	778;778	0;0	778;778		M82A1(30天)		
58	cj3142	0	0	778;778	0;0	778;778		沙漠之鹰(30天)		
59	cj3143	0	0	778;778	0;0	778;778		QBZ92(30天)		
60	cj3144	0	1	778;778	0;0	778;778		M4A1-情人(7天)		
61	cj3145	0	0	778;778	0;0	778;778		AK47-军魂(7天)		
62	cj3146	0	0	778;778	0;0	778;778		AUG-彩虹(7天)		
63	cj3147	0	0	778;778	0;0	778;778		G36-蝴蝶(7天)		
64	cj3148	0	0	778;778	0;0	778;778		UMP45-星图(7天)		
65	cj3149	0	1	778;778	0;0	778;778		AWP-龙纹(7天)		
66	cj3150	0	0	778;778	0;0	778;778		Vector(7天)		
67	cj3151	0	1	778;778	0;0	778;778		M4A1-水元素(7天)		
68	cj3152	0	0	778;778	0;0	778;778		AK47-白银(7天)		
69	cj3153	0	0	778;778	0;0	778;778		AUG-橙光(7天)		
70	cj3154	0	0	778;778	0;0	778;778		QBZ95-炽焰(7天)		
71	cj3155	0	0	778;778	0;0	778;778		Vector-蓝鲸(7天)		
72	cj3156	0	0	778;778	0;0	778;778		SPAS-电玩(7天)		
73	cj3157	0	0	778;778	0;0	778;778		AWP-闪电(7天)		
74	cj3158	0	0	778;778	0;0	778;778		圣诞帽x150	1450886400	1451836799
75	cj4151	0	0	1139;1139	0;0	1139;1139;1139;1139;1139		M4A1-情人(3天)		
76	cj4152	0	0	1139;1139	0;0	1139;1139;1139;1139;1139		AK47-军魂(3天)		
77	cj4153	0	1	1139;1139	0;0	1139;1139;1139;1139;1139		AUG-彩虹(3天)		
78	cj4154	0	0	1139;1139	0;0	1139;1139;1139;1139;1139		G36-蝴蝶(3天)		
79	cj4155	0	0	1139;1139	0;0	1139;1139;1139;1139;1139		UMP45-星图(3天)		
80	cj4156	0	0	1139;1139	0;0	1139;1139;1139;1139;1139		AWP-龙纹(3天)		
81	cj4157	0	0	1139;1139	1139;1139	1139;1139;1139;1139;1139		Vector(3天)		
82	cj4158	0	0	1139;1139	1139;1139	1139;1139;1139;1139;1139		QBZ95(7天)		
83	cj4159	0	0	1139;1139	1139;1139	1139;1139;1139;1139;1139		G36(7天)		
84	cj4160	0	0	1139;1139	1139;1139	1139;1139;1139;1139;1139		SCAR(7天)		
85	cj4161	0	0	1139;1139	1139;1139	1139;1139;1139;1139;1139		PP2000(7天)		
86	cj4162	0	0	1139;1139	1139;1139	1139;1139;1139;1139;1139		UMP45(7天)		
87	cj4163	0	0	1139;1139	1139;1139	1139;1139;1139;1139;1139		加特林(7天)		
88	cj4164	0	0	1139;1139	1139;1139	1139;1139;1139;1139;1139		KSG(7天)		
89	cj4165	0	0	1139;1139	1139;1139	1139;1139;1139;1139;1139		M82A1(7天)		
90	cj4166	0	0	1139;1139	1139;1139	1139;1139;1139;1139;1139		沙漠之鹰(7天)		
91	cj4167	0	0	1139;1139	1139;1139	1139;1139;1139;1139;1139		QBZ92(7天)		
92	cj4168	0	0	1139;1139	1139;1139	1139;1139;1139;1139;1139		AUG(30天)		
93	cj4169	0	0	1139;1139	1139;1139	1139;1139;1139;1139;1139		FAMAS(30天)		
94	cj4170	0	0	1139;1139	1139;1139	1139;1139;1139;1139;1139		P90(30天)		
95	cj4171	0	0	1139;1139	1139;1139	1139;1139;1139;1139;1139		TMP(30天)		
96	cj4172	0	0	1139;1139	1139;1139	1139;1139;1139;1139;1139		Striker(30天)		
97	cj4173	0	0	1139;1139	1139;1139	1139;1139;1139;1139;1139		SVD(30天)		
98	cj4174	0	0	1139;1139	1139;1139	1139;1139;1139;1139;1139		M9(30天)		
99	cj4175	0	0	1139;1139	0;0	1139;1139;1139;1139;1139		M4A1-水元素(3天)		
100	cj4176	0	0	1139;1139	0;0	1139;1139;1139;1139;1139		AK47-白银(3天)		
101	cj4177	0	0	1139;1139	0;0	1139;1139;1139;1139;1139		AUG-橙光(3天)		
102	cj4178	0	0	1139;1139	0;0	1139;1139;1139;1139;1139		QBZ95-炽焰(3天)		
103	cj4179	0	0	1139;1139	0;0	1139;1139;1139;1139;1139		Vector-蓝鲸(3天)		
104	cj4180	0	0	1139;1139	0;0	1139;1139;1139;1139;1139		SPAS-电玩(3天)		
105	cj4181	0	0	1139;1139	0;0	1139;1139;1139;1139;1139		AWP-闪电(3天)		
106	cj4182	0	0	1139;1139	0;0	1139;1139;1139;1139;1139		圣诞帽x75	1450886400	1451836799
107	cj5175	0	0	1221;1221	1221;1221	1221;1221;1221;1221;1221		复活币x30		
108	cj5176	0	0	1221;1221	1221;1221	1221;1221;1221;1221;1221		奖章x3000		
109	cj5177	0	0	1221;1221	1221;1221	1221;1221;1221;1221;1221		金币x5000		
110	cj5178	0	0	1221;1221	0;0	1221;1221;1221;1221;1221		M4A1-情人(1天)		
111	cj5179	0	0	1221;1221	0;0	1221;1221;1221;1221;1221		AK47-军魂(1天)		
112	cj5180	0	0	1221;1221	0;0	1221;1221;1221;1221;1221		AUG-彩虹(1天)		
113	cj5181	0	0	1221;1221	0;0	1221;1221;1221;1221;1221		G36-蝴蝶(1天)		
114	cj5182	0	0	1221;1221	0;0	1221;1221;1221;1221;1221		UMP45-星图(1天)		
115	cj5183	0	0	1221;1221	0;0	1221;1221;1221;1221;1221		AWP-龙纹(1天)		
116	cj5184	0	0	1221;1221	1221;1221	1221;1221;1221;1221;1221		Vector(1天)		
117	cj5185	0	0	1221;1221	1221;1221	1221;1221;1221;1221;1221		QBZ95(3天)		
118	cj5186	0	0	1221;1221	1221;1221	1221;1221;1221;1221;1221		G36(3天)		
119	cj5187	0	0	1221;1221	1221;1221	1221;1221;1221;1221;1221		SCAR(3天)		
120	cj5188	0	0	1221;1221	1221;1221	1221;1221;1221;1221;1221		PP2000(3天)		
121	cj5189	0	0	1221;1221	1221;1221	1221;1221;1221;1221;1221		UMP45(3天)		
122	cj5190	0	0	1221;1221	1221;1221	1221;1221;1221;1221;1221		加特林(3天)		
123	cj5191	0	0	1221;1221	1221;1221	1221;1221;1221;1221;1221		KSG(3天)		
124	cj5192	0	0	1221;1221	1221;1221	1221;1221;1221;1221;1221		M82A1(3天)		
125	cj5193	0	0	1221;1221	1221;1221	1221;1221;1221;1221;1221		沙漠之鹰(3天)		
126	cj5194	0	0	1221;1221	1221;1221	1221;1221;1221;1221;1221		QBZ92(3天)		
127	cj5195	0	0	1221;1221	1221;1221	1221;1221;1221;1221;1221		AUG(7天)		
128	cj5196	0	0	1221;1221	1221;1221	1221;1221;1221;1221;1221		FAMAS(7天)		
129	cj5197	0	0	1221;1221	1221;1221	1221;1221;1221;1221;1221		P90(7天)		
130	cj5198	0	0	1221;1221	1221;1221	1221;1221;1221;1221;1221		TMP(7天)		
131	cj5199	0	0	1221;1221	1221;1221	1221;1221;1221;1221;1221		Striker(7天)		
132	cj5200	0	0	1221;1221	1221;1221	1221;1221;1221;1221;1221		SVD(7天)		
133	cj5201	0	0	1221;1221	1221;1221	1221;1221;1221;1221;1221		M9(7天)		
134	cj5202	0	0	1221;1221	0;0	1221;1221;1221;1221;1221		M4A1-水元素(1天)		
135	cj5203	0	0	1221;1221	0;0	1221;1221;1221;1221;1221		AK47-白银(1天)		
136	cj5204	0	0	1221;1221	0;0	1221;1221;1221;1221;1221		AUG-橙光(1天)		
137	cj5205	0	0	1221;1221	0;0	1221;1221;1221;1221;1221		QBZ95-炽焰(1天)		
138	cj5206	0	0	1221;1221	0;0	1221;1221;1221;1221;1221		Vector-蓝鲸(1天)		
139	cj5207	0	0	1221;1221	0;0	1221;1221;1221;1221;1221		SPAS-电玩(1天)		
140	cj5208	0	0	1221;1221	0;0	1221;1221;1221;1221;1221		AWP-闪电(1天)		
141	cj5209	0	0	1221;1221	0;0	1221;1221;1221;1221;1221		圣诞帽x40	1450886400	1451836799
142	cj5210	0	0	1221;1221	1221;1221	1221;1221;1221;1221;1221		圣诞帽x20	1450886400	1451836799
143	cj7001	0	0	212;212	212;212	212;212;212;212;212		M4A1-情人(1天)		
144	cj7002	0	0	212;212	212;212	212;212;212;212;212		AK47-军魂(1天)		
145	cj7003	0	0	212;212	212;212	212;212;212;212;212		AUG-彩虹(1天)		
146	cj7004	0	0	212;212	212;212	212;212;212;212;212		G36-蝴蝶(1天)		
147	cj7005	0	0	212;212	212;212	212;212;212;212;212		M4A1-水元素(1天)		
148	cj7006	0	0	212;212	212;212	212;212;212;212;212		AK47-白银(1天)		
149	cj7007	0	0	212;212	212;212	212;212;212;212;212		AUG-橙光(1天)		
150	cj7008	0	0	212;212	212;212	212;212;212;212;212		QBZ95-炽焰(1天)		
151	cj7009	0	0	212;212	212;212	212;212;212;212;212		QBZ95-红星(1天)		
152	cj7010	0	0	212;212	212;212	212;212;212;212;212		QBZ03-红星(1天)		
153	cj7011	0	0	212;212	212;212	212;212;212;212;212		UMP45-星图(1天)		
154	cj7012	0	0	212;212	212;212	212;212;212;212;212		Vector-蓝鲸(1天)		
