ID	DispName	Type	SubType	Part	RareType	Icon	CanDel	AddRule	DispPart	Desc	BoyPos	BoyRot	GirlPos	GirlRot	BoyModel	GirlModel	SlotPath	PveMaxHP	PveDamageRate
30102	鹿角	EQUIP	DECORATION	1	3	hat_deer	False	1	30102						head02	head02	Dec_head		
30201	福克斯面具	EQUIP	DECORATION	2	3	mask_fox	False	1	30201	弑君者福克斯佩戴的面具，象征着自由和反叛					mask	mask	Dec_face		
30301	恶魔背包	EQUIP	DECORATION	3	3	bag_devil	False	1	30301	大容量恶魔背包，配有男女两种款式					back01_nan	back01_nv	Dec_shoulder		
30302	雪人背包	EQUIP	DECORATION	3	3	bag_snowman	False	1	30302						back02	back02	Dec_shoulder		
30401	恶魔尾巴	EQUIP	DECORATION	4	3	tail_devil	False	1	30401	妖娆的恶魔尾巴，让你全身上下都散发甜美的小恶魔气息					tail	tail	Dec_waist		
30501	毁灭指环	EQUIP	DECORATION	5	3	ring_iron1	False	1	30501	PVE血量上限+15，生存打击LV2——“佩戴在死神左手的指环，各类生化怪物都摄于其强大的力量”								15	0.2
30502	湮灭指环	EQUIP	DECORATION	5	3	ring_iron2	False	1	30502	PVE血量上限+15，生存打击LV2——“佩戴在死神右手的指环，各类生化怪物都摄于其强大的力量”								15	0.2
30503	铸金之戒	EQUIP	DECORATION	5	4	ring_gold	False	1	30503	PVE血量上限+30，生存打击LV4——“圣光之力铸就的传奇戒指，是某个宗教长期供奉的神物”								30	0.4
30504	王者之戒	EQUIP	DECORATION	5	5	ring_diamond	False	1	30504	PVE血量上限+50，生存打击LV6——“这枚指环被当做无上的荣耀，授予在末日战争中做出最卓越贡献的伟大勇士”								50	0.6
