Type	Price	DailyReward	CoinRatio	ExpRatio	MedalRatio	Missions	Rewards	AntiVoteKick	AntiVoteKickChances	AntiVoteKickPerGame
1	10	ev1025	0.1	0.1	0	301;302;303;304;305	mr008;mr008;mr008;mr008;mr008			
2	20	ev1026	0.1	0.1	0	301;302;303;304;305;312	mr009;mr009;mr009;mr009;mr009;mr011			
3	30	ev1027	0.1	0.1	0	301;302;303;304;305;312	mr010;mr010;mr010;mr010;mr010;mr012	1	3	1
