Name	Max	Realtime	RefreshType	RefreshTime	ClearType	ClearTime	Special	DispName	DataName	ShortInfo	LongInfo
qualifying_kill	1200	1	day	0;0;0	day	0;0;0	2	排位消灭榜	排位消灭	排位消灭榜每日24:00重置，发放奖励	【排位消灭榜】以竞技排位的消灭数进行排行，每日24:00重置，清零榜单数据，将对应奖励发放至玩家邮箱\n\n——排行奖励——\n第1-3名：QBZ95-红星（1天），400勋章\n第4-10名：QBZ95-炽焰（1天），400勋章\n第11-20名：QBZ95（1天），350勋章\n第21-30名：350勋章\n第31-60名：300勋章\n第61-100名：250勋章\n第101-200名：200勋章\n第201-1200名：100勋章
qualifying_score	1200	1	day	0;0;0	month	1;0;0;0	2	竞技排位积分榜	竞技积分	竞技排位积分榜每月底24:00重置	【竞技排位积分榜】以竞技排位的排位积分进行排行，每月最后一天的24:00重置，清零榜单数据
qualifying_score_joke	1200	1	day	0;0;0	month	1;0;0;0	2	娱乐排位积分榜	娱乐积分	娱乐排位积分榜每月底24:00重置	【竞技排位积分榜】以竞技排位的排位积分进行排行，每月最后一天的24:00重置，清零榜单数据
mvp	1200	1	day	0;0;0	week	1;0;0;0	2	全场最佳榜	全场最佳	全场最佳榜每周日24:00重置，发放奖励	【全场最佳榜】以玩家获得的全场最佳数进行排行，每周日24:00重置，清零榜单数据，将对应奖励发放至玩家邮箱\n\n——排行奖励——\n第1-3名：水晶AK47（3天），2000勋章\n第4-10名：黄金AK47（3天），2000勋章\n第11-30名：AN94（3天），1500勋章\n第31-50名：1500勋章\n第51-100名：1000勋章\n第101-200名：500勋章\n第201-1200名：300勋章
ace	1200	1	day	0;0;0	week	1;0;0;0	2	射手榜	黄金/白银	射手榜每周日24:00重置，发放奖励	【射手榜】以玩家获得的黄金/白银射手数进行排行，每周日24:00重置，清零榜单数据，将对应奖励发放至玩家邮箱\n\n——排行奖励——\n第1-3名：水晶M4A1（3天），2000勋章\n第4-10名：黄金M4A1（3天），2000勋章\n第11-30名：QBZ03（3天），1500勋章\n第31-50名：1500勋章\n第51-100名：1000勋章\n第101-200名：500勋章\n第201-1200名：300勋章
headshoot	1200	1	day	0;0;0	week	1;0;0;0	2	精准命中榜	精准命中	精准命中榜每周日24:00重置，发放奖励	【精准命中榜】以玩家获得的精准命中数进行排行，每周日24:00重置，清零榜单数据，将对应奖励发放至玩家邮箱\n\n——排行奖励——\n第1-3名：水晶沙鹰（3天），2000勋章\n第4-10名：黄金沙鹰（3天），2000勋章\n第11-30名：沙漠之鹰（3天），1500勋章\n第31-50名：1500勋章\n第51-100名：1000勋章\n第101-200名：500勋章\n第201-1200名：300勋章
knife_kill	1200	1	day	0;0;0	week	1;0;0;0	2	近战消灭榜	消灭数	近战消灭榜每周日24:00重置，发放奖励	【近战消灭榜】以玩家使用近战武器的消灭数进行排行，每周日24:00重置，清零榜单数据，将对应奖励发放至玩家邮箱\n\n——排行奖励——\n第1-3名：圣诞马来剑（3天），2000勋章\n第4-10名：金砖（3天），2000勋章\n第11-30名：板砖（3天），1500勋章\n第31-50名：1500勋章\n第51-100名：1000勋章\n第101-200名：500勋章\n第201-1200名：300勋章
snipe_kill	1200	1	day	0;0;1	week	1;0;0;0	2	狙击消灭榜	消灭数	狙击消灭榜每周日24:00重置，发放奖励	【狙击消灭榜】以玩家使用狙击枪的消灭数进行排行，每周日24:00重置，清零榜单数据，将对应奖励发放至玩家邮箱\n\n——排行奖励——\n第1-3名：水晶AWP（3天），2000勋章\n第4-10名：黄金AWP（3天），2000勋章\n第11-30名：QBU88（3天），1500勋章\n第31-50名：1500勋章\n第51-100名：1000勋章\n第101-200名：500勋章\n第201-1200名：300勋章
survival_stage	1200	1	day	0;0;0	week	1;0;0;0	2	末日挑战榜	挑战层数	末日挑战榜每周日24:00重置	【末日挑战榜】以玩家在末日挑战的通关层数进行排行，每周日24:00重置，清零榜单数据\n\n挑战层层僵尸，与好友携手作战！
newer_mvp	1200	1	day	0;0;0	week	1;0;0;0	1	全场最佳榜	全场最佳	全场最佳榜每周日24:00重置	【全场最佳榜】以玩家获得的全场最佳数进行排行，每周日24:00重置，清零榜单数据
newer_ace	1200	1	day	0;0;0	week	1;0;0;0	1	射手榜	黄金/白银	射手榜每周日24:00重置	【射手榜】以玩家获得的黄金/白银射手数进行排行，每周日24:00重置，清零榜单数据
newer_headshoot	1200	1	day	0;0;0	week	1;0;0;0	1	精准命中榜	精准命中	精准命中榜每周日24:00重置	【精准命中榜】以玩家获得的精准命中数进行排行，每周日24:00重置，清零榜单数据
newer_knife_kill	1200	1	day	0;0;0	week	1;0;0;0	1	近战消灭榜	消灭数	近战消灭榜每周日24:00重置	【近战消灭榜】以玩家使用近战武器的消灭数进行排行，每周日24:00重置，清零榜单数据
newer_snipe_kill	1200	1	day	0;0;1	week	1;0;0;0	1	狙击消灭榜	消灭数	狙击消灭榜每周日24:00重置	【狙击消灭榜】以玩家使用狙击枪的消灭数进行排行，每周日24:00重置，清零榜单数据
newer_survival_stage	1200	1	day	0;0;0	week	1;0;0;0	1	末日挑战榜	挑战层数	末日挑战榜每周日24:00重置	【末日挑战榜】以玩家在末日挑战的通关层数进行排行，每周日24:00重置，清零榜单数据\n\n挑战层层僵尸，与好友携手作战！
corps	500	1	day	0;0;0	week	1;0;0;0	3	战队周榜	本周贡献	战队周榜每周日24:00重置，发放奖励	【战队周榜】以各战队每周获得贡献值进行排行，每周日24:00重置，清零榜单数据，将对应奖励发放至战队所有成员的邮箱\n\n——排行奖励——\n第1名：黄金战斧（3天），2000勋章\n第2-3名：黄金匕首（3天），2000勋章\n第4-10名：高爆手雷（3天），2000勋章\n第11-30名：1500勋章\n第31-50名：1000勋章\n第51-100名：500勋章\n第101-500名：300勋章
master_score	1200	1					3	名师榜	名师积分		【名师榜】以玩家的名师积分进行排行
achievement	1200	1					3	成就榜	成就点数		【成就榜】以玩家的成就点数进行排行
perpetual_weapons	1200	1					2	枪械榜	永久武器数	重复拥有的永久武器不计入榜单统计数据	【枪械榜】以玩家拥有的永久武器数量进行排行
level	1200	1					2	军衔榜	军衔等级		【军衔榜】以玩家的军衔等级进行排行
newer_perpetual_weapons	1200	1					0	枪械榜	永久武器		
newer_level	1200	1					0	军衔榜	军衔等级		
newer_qualifying_score	1200	1	day	0;0;0	month	1;0;0;0	0	排位积分榜	排位积分	排位积分榜每月底24:00重置，发放奖励	每月最后一天24:00将排位积分榜每月奖励发至邮箱，并清零本月榜单数据\n\n奖励：\n 第1名：水晶AWP \n 第2名：黄金沙漠之鹰 \n 第3名：Vector \n 第4~1200名：大量奖章
newer_qualifying_kill	1200	1	day	0;0;0	day	0;0;0	0	排位消灭榜	排位消灭	排位消灭榜每日24:00重置，发放奖励	每日24:00将排位消灭榜每日奖励发至邮箱，并清零本日榜单数据\n\n奖励：\n 第1名：水晶AK47 \n 第2名：黄金MP5 \n 第3名：qbz95 \n 第4~1200名：大量奖章
corpsmatch	1200	1	day	0;0;0	month	1;0;0;0	4	联赛积分榜	联赛积分		
corpsmatch_win_rounds	1200	1	day	0;0;1	month	1;0;0;1	4	个人胜场榜	胜利场次		
qualifying_score_yellow_metal	2000	1	day	0;0;0	month	1;0;0;0	4	青铜积分榜	青铜积分	青铜排位积分榜每月底24:00重置，发放奖励	【竞技排位段位榜】以竞技排位的各排位段位进行积分排行，每月最后一天的24:00重置，清零榜单数据将对应奖励发放至玩家邮箱\n\n——各榜单前2000名排行奖励——\n最强王者：AK47-传奇（10天），8500勋章\n璀璨钻石：AN94-大师（10天），7000勋章\n华贵铂金：FAMAS-精英（10天），5000勋章\n荣耀黄金：FAMAS-精英（3天），3500勋章\n不屈白银：2000勋章\n英勇青铜：1000勋章
qualifying_score_white_silver	2000	1	day	0;0;0	month	1;0;0;0	4	白银积分榜	白银积分	白银排位积分榜每月底24:00重置，发放奖励	【竞技排位段位榜】以竞技排位的各排位段位进行积分排行，每月最后一天的24:00重置，清零榜单数据将对应奖励发放至玩家邮箱\n\n——各榜单前2000名排行奖励——\n最强王者：AK47-传奇（10天），8500勋章\n璀璨钻石：AN94-大师（10天），7000勋章\n华贵铂金：FAMAS-精英（10天），5000勋章\n荣耀黄金：FAMAS-精英（3天），3500勋章\n不屈白银：2000勋章\n英勇青铜：1000勋章
qualifying_score_gold	2000	1	day	0;0;0	month	1;0;0;0	4	黄金积分榜	黄金积分	黄金排位积分榜每月底24:00重置，发放奖励	【竞技排位段位榜】以竞技排位的各排位段位进行积分排行，每月最后一天的24:00重置，清零榜单数据将对应奖励发放至玩家邮箱\n\n——各榜单前2000名排行奖励——\n最强王者：AK47-传奇（10天），8500勋章\n璀璨钻石：AN94-大师（10天），7000勋章\n华贵铂金：FAMAS-精英（10天），5000勋章\n荣耀黄金：FAMAS-精英（3天），3500勋章\n不屈白银：2000勋章\n英勇青铜：1000勋章
qualifying_score_platinum	2000	1	day	0;0;0	month	1;0;0;0	4	铂金积分榜	铂金积分	铂金排位积分榜每月底24:00重置，发放奖励	【竞技排位段位榜】以竞技排位的各排位段位进行积分排行，每月最后一天的24:00重置，清零榜单数据将对应奖励发放至玩家邮箱\n\n——各榜单前2000名排行奖励——\n最强王者：AK47-传奇（10天），8500勋章\n璀璨钻石：AN94-大师（10天），7000勋章\n华贵铂金：FAMAS-精英（10天），5000勋章\n荣耀黄金：FAMAS-精英（3天），3500勋章\n不屈白银：2000勋章\n英勇青铜：1000勋章
qualifying_score_diamond	2000	1	day	0;0;0	month	1;0;0;0	4	钻石积分榜	钻石积分	钻石排位积分榜每月底24:00重置，发放奖励	【竞技排位段位榜】以竞技排位的各排位段位进行积分排行，每月最后一天的24:00重置，清零榜单数据将对应奖励发放至玩家邮箱\n\n——各榜单前2000名排行奖励——\n最强王者：AK47-传奇（10天），8500勋章\n璀璨钻石：AN94-大师（10天），7000勋章\n华贵铂金：FAMAS-精英（10天），5000勋章\n荣耀黄金：FAMAS-精英（3天），3500勋章\n不屈白银：2000勋章\n英勇青铜：1000勋章
qualifying_score_god	2000	1	day	0;0;0	month	1;0;0;0	4	王者积分榜	王者积分	王者排位积分榜每月底24:00重置，发放奖励	【竞技排位段位榜】以竞技排位的各排位段位进行积分排行，每月最后一天的24:00重置，清零榜单数据将对应奖励发放至玩家邮箱\n\n——各榜单前2000名排行奖励——\n最强王者：AK47-传奇（10天），8500勋章\n璀璨钻石：AN94-大师（10天），7000勋章\n华贵铂金：FAMAS-精英（10天），5000勋章\n荣耀黄金：FAMAS-精英（3天），3500勋章\n不屈白银：2000勋章\n英勇青铜：1000勋章
joke_score_yellow_metal	2000	1	day	0;0;0	month	1;0;0;0	4	青铜积分榜	青铜积分	青铜排位积分榜每月底24:00重置，发放奖励	【竞技排位段位榜】以竞技排位的各排位段位进行积分排行，每月最后一天的24:00重置，清零榜单数据将对应奖励发放至玩家邮箱\n\n——各榜单前2000名排行奖励——\n最强王者：玩具水枪（10天），8500勋章\n璀璨钻石：充气锤子（10天），7000勋章\n华贵铂金：波波糖（10天），5000勋章\n荣耀黄金：波波糖（3天），3500勋章\n不屈白银：2000勋章\n英勇青铜：1000勋章
joke_score_white_silver	2000	1	day	0;0;0	month	1;0;0;0	4	白银积分榜	白银积分	白银排位积分榜每月底24:00重置，发放奖励	【竞技排位段位榜】以竞技排位的各排位段位进行积分排行，每月最后一天的24:00重置，清零榜单数据将对应奖励发放至玩家邮箱\n\n——各榜单前2000名排行奖励——\n最强王者：玩具水枪（10天），8500勋章\n璀璨钻石：充气锤子（10天），7000勋章\n华贵铂金：波波糖（10天），5000勋章\n荣耀黄金：波波糖（3天），3500勋章\n不屈白银：2000勋章\n英勇青铜：1000勋章
joke_score_gold	2000	1	day	0;0;0	month	1;0;0;0	4	黄金积分榜	黄金积分	黄金排位积分榜每月底24:00重置，发放奖励	【竞技排位段位榜】以竞技排位的各排位段位进行积分排行，每月最后一天的24:00重置，清零榜单数据将对应奖励发放至玩家邮箱\n\n——各榜单前2000名排行奖励——\n最强王者：玩具水枪（10天），8500勋章\n璀璨钻石：充气锤子（10天），7000勋章\n华贵铂金：波波糖（10天），5000勋章\n荣耀黄金：波波糖（3天），3500勋章\n不屈白银：2000勋章\n英勇青铜：1000勋章
joke_score_platinum	2000	1	day	0;0;0	month	1;0;0;0	4	铂金积分榜	铂金积分	铂金排位积分榜每月底24:00重置，发放奖励	【竞技排位段位榜】以竞技排位的各排位段位进行积分排行，每月最后一天的24:00重置，清零榜单数据将对应奖励发放至玩家邮箱\n\n——各榜单前2000名排行奖励——\n最强王者：玩具水枪（10天），8500勋章\n璀璨钻石：充气锤子（10天），7000勋章\n华贵铂金：波波糖（10天），5000勋章\n荣耀黄金：波波糖（3天），3500勋章\n不屈白银：2000勋章\n英勇青铜：1000勋章
joke_score_diamond	2000	1	day	0;0;0	month	1;0;0;0	4	钻石积分榜	钻石积分	钻石排位积分榜每月底24:00重置，发放奖励	【竞技排位段位榜】以竞技排位的各排位段位进行积分排行，每月最后一天的24:00重置，清零榜单数据将对应奖励发放至玩家邮箱\n\n——各榜单前2000名排行奖励——\n最强王者：玩具水枪（10天），8500勋章\n璀璨钻石：充气锤子（10天），7000勋章\n华贵铂金：波波糖（10天），5000勋章\n荣耀黄金：波波糖（3天），3500勋章\n不屈白银：2000勋章\n英勇青铜：1000勋章
joke_score_god	2000	1	day	0;0;0	month	1;0;0;0	4	王者积分榜	王者积分	王者排位积分榜每月底24:00重置，发放奖励	【竞技排位段位榜】以竞技排位的各排位段位进行积分排行，每月最后一天的24:00重置，清零榜单数据将对应奖励发放至玩家邮箱\n\n——各榜单前2000名排行奖励——\n最强王者：玩具水枪（10天），8500勋章\n璀璨钻石：充气锤子（10天），7000勋章\n华贵铂金：波波糖（10天），5000勋章\n荣耀黄金：波波糖（3天），3500勋章\n不屈白银：2000勋章\n英勇青铜：1000勋章
joke_score(team_hero)	500	1	day	0;0;0	month	1;0;0;0	8	英雄对决	娱乐积分	英雄对决榜每月底24:00重置	【英雄对决榜】以英雄对决模式的排位积分进行排行，每月最后一天的24:00重置，清零榜单数据
joke_score(zombie_ultimate)	500	1	day	0;0;0	month	1;0;0;0	8	终极生化	娱乐积分	终极生化榜每月底24:00重置	【终极生化榜】以终极生化模式的排位积分进行排行，每月最后一天的24:00重置，清零榜单数据
joke_score(solo)	500	1	day	0;0;0	month	1;0;0;0	8	个人竞技	娱乐积分	个人竞技榜每月底24:00重置	【个人竞技榜】以个人竞技模式的排位积分进行排行，每月最后一天的24:00重置，清零榜单数据
joke_score(king_camp)	500	1	day	0;0;0	month	1;0;0;0	8	团队枪王	娱乐积分	团队枪王榜每月底24:00重置	【团队枪王榜】以团队枪王模式的排位积分进行排行，每月最后一天的24:00重置，清零榜单数据
joke_score(king_solo)	500	1	day	0;0;0	month	1;0;0;0	8	枪王之王	娱乐积分	枪王之王榜每月底24:00重置	【枪王之王榜】以枪王之王模式的排位积分进行排行，每月最后一天的24:00重置，清零榜单数据
joke_score(snipe)	500	1	day	0;0;0	month	1;0;0;0	8	狙击战	娱乐积分	狙击战榜每月底24:00重置	【狙击战榜】以狙击战模式的排位积分进行排行，每月最后一天的24:00重置，清零榜单数据
joke_score(dagger)	500	1	day	0;0;0	month	1;0;0;0	8	刀战	娱乐积分	刀战榜每月底24:00重置	【刀战榜】以刀战模式的排位积分进行排行，每月最后一天的24:00重置，清零榜单数据
joke_score(grenade)	500	1	day	0;0;0	month	1;0;0;0	8	手雷战	娱乐积分	手雷战榜每月底24:00重置	【手雷战榜】以手雷战模式的排位积分进行排行，每月最后一天的24:00重置，清零榜单数据
joke_score(handgun)	500	1	day	0;0;0	month	1;0;0;0	8	手枪战	娱乐积分	手枪战榜每月底24:00重置	【手枪战榜】以手枪战模式的排位积分进行排行，每月最后一天的24:00重置，清零榜单数据
joke_score(zombie_hero)	500	1	day	0;0;0	month	1;0;0;0	8	生化英雄	娱乐积分	生化英雄榜每月底24:00重置	【生化英雄榜】以生化英雄模式的排位积分进行排行，每月最后一天的24:00重置，清零榜单数据
joke_score(dagger_revive)	500	1	day	0;0;0	month	1;0;0;0	8	刀锋模式	娱乐积分	刀锋模式榜每月底24:00重置	【刀锋模式榜】以刀锋模式的排位积分进行排行，每月最后一天的24:00重置，清零榜单数据
joke_score(ghost)	500	1	day	0;0;0	month	1;0;0;0	8	幽灵模式	娱乐积分	幽灵模式榜每月底24:00重置	【幽灵模式榜】以幽灵模式的排位积分进行排行，每月最后一天的24:00重置，清零榜单数据
joke_score(hide)	500	1	day	0;0;0	month	1;0;0;0	8	躲猫猫	娱乐积分	躲猫猫榜每月底24:00重置	【躲猫猫榜】以躲猫猫模式的排位积分进行排行，每月最后一天的24:00重置，清零榜单数据
joke_score(explode_revive)	500	1	day	0;0;0	month	1;0;0;0	8	生死爆破	娱乐积分	生死爆破榜每月底24:00重置	【生死爆破榜】以生死爆破模式的排位积分进行排行，每月最后一天的24:00重置，清零榜单数据
joke_score(team_pvp)	500	1	day	0;0;0	month	1;0;0;0	8	失重模式	娱乐积分	失重模式榜每月底24:00重置	【失重模式榜】以失重模式的排位积分进行排行，每月最后一天的24:00重置，清零榜单数据
joke_score(prop_pvp)	500	1	day	0;0;0	month	1;0;0;0	8	道具模式	娱乐积分	道具模式榜每月底24:00重置	【道具模式榜】以道具模式的排位积分进行排行，每月最后一天的24:00重置，清零榜单数据
joke_score(big_head)	500	1	day	0;0;0	month	1;0;0;0	8	大头英雄	娱乐积分	大头英雄榜每月底24:00重置	【大头英雄榜】以大头英雄模式的排位积分进行排行，每月最后一天的24:00重置，清零榜单数据
joke_score(dota)	500	1	day	0;0;0	month	1;0;0;0	8	遗迹保卫	娱乐积分	遗迹保卫榜每月底24:00重置	【遗迹保卫榜】以遗迹保卫模式的排位积分进行排行，每月最后一天的24:00重置，清零榜单数据
defend_damage	500	1	day	0;0;0	day	1;0;0;0	4			战队副本伤害榜每月底24:00重置	
