ID	Type	SubType	DispName	DispShortName	Icon	ConvertType	RareType	Param	EffectType	VirtualItemList	UseType	UseParam	GuideData	Desc	CanDel	AddRule	UseEffect	AutoUse	AutoUseGift	DamageRange
5000	ITEMS	RENAMECARD	改名卡		rename		1				rename_role	role		使用后可以更改姓名	False	2			0	
5001	MONEY	MEDAL	奖章		honour		1							游戏通用货币		2			0	
5002	MONEY	COIN	金币		gold		1							游戏通用货币		2			0	
5003	MONEY	DIAMOND	钻石		diamond		1						10#前往【充值】;6#完成所有【日常任务】;7#领取【在线奖励】;8#完成【战队任务】;9#参与【战队副本】	游戏通用货币，通过充值获得		2			0	
5004	EXP	EXP	经验		exp		1							人物经验					0	
5005	ITEMS	BUFFCARD	双倍掉落卡		double		1				add_buff	880001#86400		使用后的24小时内，战斗中掉落的所有物品获得双倍加成	False	2			0	
5006	CORPS	FIGHTING	战队贡献		corps		1							对战队做出的贡献值，通过PVP战斗和每日任务获得	False	2			0	
5007	ITEMS	ITEM	复活币		reborncoin		1							生存模式专用硬币，用于复活被消灭的玩家	False	2			0	
5008	ITEMS	ITEM	至尊大奖		bigreward		5							生存模式专用硬币，用于复活被消灭的玩家	False	2			0	
5009	ITEMS	ITEM	圣兽武器盒		animalbox		5				animal_weapons	1012#30#0;1013#30#0;1014#30#0;1208#30#0;1506#30#0;1311#30#0;1613#30#0		【仓库】中开启必得永久英雄级武器（青龙、麒麟、玄武、白虎、朱雀、金牛、双子）之一		2			1	
5010	ITEMS	ITEM	精英武器盒		colourbox		3				animal_weapons	1019#30#0;1020#30#0;1021#30#0;1022#30#0;1210#30#0;1405#30#0;1509#30#0		【仓库】中开启必得永久精英级武器（水元素、白银、橙光、炽焰、蓝鲸、电玩、闪电）之一		2			1	
5011	ITEMS	ITEM	黄金武器盒		colourbox		3				animal_weapons	1002#30#0;1004#30#0;1207#30#0;1304#30#0;1504#30#0;1703#10#0		【仓库】中开启必得永久黄金武器（M4A1、AK47、MP5、加特林、AWP、匕首）之一		2			1	
5012	ITEMS	EVENT	红星		redstar		1							国庆期间战斗中限时产出的道具，可用于兑换国庆绝版枪。		2			0	
100000	ITEMS	ITEM	4399大礼包		ak47		1							4399发的大礼包					0	
5013	MONEY	CASH	现金券		CASH		1							分享系统专用货币，可以在现金券商店中购买物品		2			0	
5014	MONEY	CORPS_COIN	战队币		corps_coin		1							战队专用货币，可以在战队商店中购买物品		2			0	
5015	ITEMS	ITEM	大喇叭		laba		1							神秘道具，听说使用后可以在聊天频道发送大喇叭	False	2			0	
5016	ITEMS	ITEM	枪魂		gun_soul		4							传说中可以依附在枪械上的勇士魂魄，用于枪械超级属性的觉醒	False	2			0	
5017	ITEMS	ITEM	中国城礼包		giftbag						use_giftbag	ev1001		【仓库】打开得QBZ95-炽焰（30天）+闪光弹（30天）+激光剑（30天）		2			1	
5020	MONEY	EVENTCOIN_001	圣诞帽		christmas									圣诞活动兑换物		2			0	
5021	ITEMS	ITEM	圣诞女神宝盒		giftbag						use_giftbag	ev1004		【仓库】打开得黛西（30天）+琦琦（30天）+圣诞帽x10		2			1	
5022	ITEMS	ITEM	刺杀武器盒		colourbox		3				use_giftbag	ev1005		有机会得M82A1-刺杀(1天)、AK47刺杀(1天)、RPK豪雨(1天)、M249炎魂(1天)之一		2			1	
5023	ITEMS	ITEM	近战武器盒		colourbox						use_giftbag	ev1006		有机会得1天的近战武器（战斧、黄金匕首、黄金战斧、尼泊尔军刀、逆鳞、黄金尼泊尔、军刺）之一		2			1	
5024	ITEMS	ITEM	春节武器红包		haongbao						use_giftbag	ev1007		有机会获得土豪金砖（3天），古惑仔板砖（3天），福气鞭炮（3天）中的一个		2			1	
5025	ITEMS	ITEM	猴年初一红包		haongbao						use_giftbag	ev1008		打开获得土豪金砖（1天），福气鞭炮（1天）		2			1	
5026	ITEMS	ITEM	情人节礼包		giftbag						use_giftbag	ev1009		M4A1-情人（30天），月岛绘里香（7天）,露易丝（7天）		2			1	
5027	ITEMS	ITEM	高冷女神宝盒		giftbag						use_giftbag	ev1010		【仓库】打开得叶安妮（7天）+露易丝（7天）		2			1	
5028	ITEMS	ITEM	甜美女神宝盒		giftbag						use_giftbag	ev1011		【仓库】打开得月岛绘梨香（7天）+艾丽娜（7天）		2			1	
5029	ITEMS	ITEM	魅力女神宝盒		giftbag						use_giftbag	ev1012		【仓库】打开得琪琪（7天）+黛西（7天）		2			1	
5030	ITEMS	ITEM	初级黄金礼盒		colourbox		3				use_giftbag	ev1013		【仓库】中开启有机会得1天黄金武器（AK47、AWP、沙鹰、匕首、尼泊尔）之一		2			1	
5031	ITEMS	ITEM	中级黄金礼盒		colourbox		3				use_giftbag	ev1014		【仓库】中开启有机会得3天黄金武器（AK47、AWP、沙鹰、匕首、尼泊尔）之一		2			1	
5032	ITEMS	ITEM	高级黄金礼盒		colourbox		3				use_giftbag	ev1015		【仓库】中开启有机会得7天黄金武器（AK47、AWP、沙鹰、匕首、尼泊尔）之一		2			1	
5033	ITEMS	ITEM	超级黄金礼盒		colourbox		3				use_giftbag	ev1016		【仓库】中开启有机会得15天黄金武器（AK47、AWP、沙鹰、匕首、尼泊尔）之一		2			1	
5034	ITEMS	ITEM	顶级黄金礼盒		colourbox		3				use_giftbag	ev1017		【仓库】中开启有机会得40天黄金武器（AK47、AWP、沙鹰、匕首、尼泊尔）之一		2			1	
5035	ITEMS	ITEM	白晶武器箱		whitebox		2				animal_weapons	1015#30#0;1016#30#0;1017#30#0;1018#30#0;1019#30#0;1020#30#0;1021#30#0;1022#30#0;1209#30#0;1210#30#0;1307#30#0;1405#30#0;1507#30#0;1509#30#0;1514#30#0;1612#30#0		【仓库】中开启必得永久精英级武器（情人、军魂、猎豹、蓝鲸、星图、电玩、闪电、水元素、白金、橙光、炎魂、龙纹、彩虹、炽焰、闪电、樱落）之一		2			1	
5036	ITEMS	ITEM	蓝晶武器箱		bluebox		3				animal_weapons	1015#30#0;1016#30#0;1017#30#0;1018#30#0;1019#30#0;1020#30#0;1021#30#0;1022#30#0;1209#30#0;1210#30#0;1307#30#0;1405#30#0;1507#30#0;1509#30#0;1514#30#0;1612#30#0		【仓库】中开启必得永久精英级武器（情人、军魂、猎豹、蓝鲸、星图、电玩、闪电、水元素、白金、橙光、炎魂、龙纹、彩虹、炽焰、闪电、樱落）之一		2			1	
5037	ITEMS	ITEM	星座武器箱		purplebox		5	1			animal_weapons	1311#30#0;1214#30#0;1613#30#0;1044#30#0;1412#30#0;1053#30#0;1218#30#0		【仓库】中开启必得永久英雄级星座武器（RPK金牛、沙鹰双子、Vector巨蟹、SCAR狮子、M1014处女、AN94天秤、P90天蝎）之一		2			1	
5038	ITEMS	FAMILYCARD	家族邀请卡		invitation		1							消耗品，用于向其他玩家发出家族成员邀请		2			0	
5040	MONEY	WHITE_STONE	白晶		white_stone		1							军火库专属货币，可以在白晶军火库中购买物品		2			0	
5041	MONEY	BLUE_STONE	蓝晶		blue_stone		3							军火库专属货币，可以在蓝晶军火库中购买物品		2			0	
5042	MONEY	PURPLE_STONE	紫晶		purple_stone		4							军火库专属货币，可以在紫晶军火库中购买物品		2			0	
5043	ITEMS	ITEM	周末宝箱		colourbox		3				use_giftbag	ev1018		【仓库】中开启有机会得黄金AK47(3天),黄金AWP(3天),黄金MP5(3天),水晶M4A1(3天)之一		2			1	
5044	ITEMS	ITEM	愚人扭蛋(小)		smallegg		1		UI_niudan_lan;UI_niudan_lan_di	1812;3202;3002;1610;1712	use_giftbag	ev1019		【仓库】中开启有机会得整蛊闪光弹(7天)		2			1	
5045	ITEMS	ITEM	愚人扭蛋(中)		middleegg		2		UI_niudan_zi;UI_niudan_zi_di	1812;5007;1611;1715	use_giftbag	ev1020		【仓库】中开启有机会得整蛊闪光弹(15天)或绝版近战-板砖		2			1	
5046	ITEMS	ITEM	愚人扭蛋(大)		bigegg		3		UI_niudan_huang;UI_niudan_huang_di	1812;5007;1606;1716	use_giftbag	ev1021		【仓库】中开启有机会得整蛊闪光弹(30天)或绝版近战-金砖		2			1	
5047	ITEMS	ITEM	训练扩展卡②		card2		1				train_quick_time	7		购买后开启训练槽②，训练时间上限增为8小时，训练加速次数+1		1			0	
5048	ITEMS	ITEM	训练扩展卡④		card4		1				train_quick_time	7		购买后开启训练槽④，训练效率上限增为200%小时，训练加速次数+1		1			0	
5049	ITEMS	ITEM	劳模扭蛋(小)		smallegg		1		UI_niudan_lan;UI_niudan_lan_di	1023;1806;1023;3202;1604;1702	use_giftbag	ev1022		【仓库】中开启有机会得3天绝版南瓜手雷、QBZ95-红星		2			1	
5050	ITEMS	ITEM	劳模扭蛋(中)		middleegg		2		UI_niudan_zi;UI_niudan_zi_di	1023;1806;1023;5007;1608;1706	use_giftbag	ev1023		【仓库】中开启有机会得7天绝版QSZ92-红星、南瓜手雷、QBZ95-红星		2			1	
5051	ITEMS	ITEM	劳模扭蛋(大)		bigegg		3		UI_niudan_huang;UI_niudan_huang_di	1023;1806;1023;5007;1608;1513	use_giftbag	ev1024		【仓库】中开启有机会得15天绝版AWP-圣诞、QSZ92-红星、南瓜手雷、QBZ95-红星		2			1	
5052	MONEY	EVENTCOIN_002	点券		voucher		2							游戏通用货币，可以在商城购买物品		2				
5053	ITEMS	ITEM	童心扭蛋(小)		smallegg		1		UI_niudan_lan;UI_niudan_lan_di	1727;3202;1610;1712;1603	use_giftbag	ev1025		【仓库】中开启有机会得波波糖(7天)		2			1	
5054	ITEMS	ITEM	童心扭蛋(中)		middleegg		2		UI_niudan_zi;UI_niudan_zi_di	1727;5007;1039;1809;1603	use_giftbag	ev1026		【仓库】中开启有机会得波波糖(15天)或绝版手雷-圣诞手雷		2			1	
5055	ITEMS	ITEM	童心扭蛋(大)		bigegg		3		UI_niudan_huang;UI_niudan_huang_di	1727;5007;1032;1612;1611	use_giftbag	ev1027		【仓库】开启有机会得波波糖(30天)或绝版手枪-Infinity樱落		2			1	
5056	ITEMS	ITEM	7月一钻礼盒		colourbox		4				use_giftbag	ev1028		【仓库】开启将得AK47-水晶(3天)、琪琪(3天)、黛西(3天)		2			1	
5057	ITEMS	ITEM	7月特惠礼盒		colourbox		3				use_giftbag	ev1029		【仓库】开启将得M4A1-水元素(永久)、尼泊尔军刀(3天)、沙漠之鹰(3天)		2			1	
5058	ITEMS	ITEM	7月精英礼盒		colourbox		3				use_giftbag	ev1030		【仓库】开启将得M82A1-刺杀(永久)、拳套(3天)、M608(3天)、高爆手雷(3天)		2			1	
5059	ITEMS	ITEM	7月圣兽礼盒		colourbox		5				use_giftbag	ev1031		【仓库】开启将得青龙M4A1(永久)、激光剑(3天)、Infinity(3天)、高爆手雷(3天)		2			1	
5060	ITEMS	ITEM	首测圣兽礼盒		animalbox		5				animal_weapons	1012#30#0;1013#30#0;1014#30#0;1208#30#0;1506#30#0		6.28~7.13限时打折。【仓库】开启得(永久)青龙,麒麟,玄武,白虎,朱雀之一		2			1	
5061	ITEMS	ITEM	魅力女神礼包		giftbag		3				use_giftbag	ev1032		【仓库】打开得叶安妮（永久）+露易丝（永久）		2			1	
5062	ITEMS	ITEM	夏日扭蛋(小)		smallegg		1		UI_niudan_lan;UI_niudan_lan_di	1306;3202;3002;1610;1712	use_giftbag	ev1033		【仓库】中开启有机会得M249-圣诞(3天)		2			1	
5063	ITEMS	ITEM	夏日扭蛋(中)		middleegg		2		UI_niudan_zi;UI_niudan_zi_di	1306;5040;1611;1715	use_giftbag	ev1034		【仓库】中开启有机会得M249-圣诞(7天)或绝版近战-板砖		2			1	
5064	ITEMS	ITEM	夏日扭蛋(大)		bigegg		3		UI_niudan_huang;UI_niudan_huang_di	1306;5040;1606;1716	use_giftbag	ev1035		【仓库】中开启有机会得M249-圣诞(15天)或绝版近战-金砖		2			1	
5065	ITEMS	ITEM	8月一钻礼盒		colourbox		4				use_giftbag	ev1036		【仓库】开启将得M4A1-水晶(3天)、月岛绘梨香(3天)、艾丽娜(3天)		2			1	
5066	ITEMS	ITEM	精英武器礼包		colourbox		3				use_giftbag	ev1037		【仓库】中开启有机会得任意一把精英枪(1天)		2			1	
5067	ITEMS	ITEM	奥运团战7天包		colourbox		3				use_giftbag	ev1038		【仓库】中开启将得QBZ03-奥运(7天)、奥运手雷(7天)、USP-奥运(7天)		2			1	
5068	ITEMS	ITEM	奥运狙击7天包		colourbox		3				use_giftbag	ev1039		【仓库】中开启将得雷明顿700-奥运(7天)、奥运火炬(7天)		2			1	
5069	ITEMS	ITEM	挑战补给包		colourbox		3				use_giftbag	ev1040		【仓库】中开启将得M249-炎魂(3天)、复活币x5		2			1	
5070	ITEMS	ITEM	豪华补给包		colourbox		4				use_giftbag	ev1041		【仓库】中开启将得M249-炎魂(3天)、生化手雷(3天)、复活币x10		2			1	
5071	ITEMS	ITEM	开学季团战3天包		colourbox		3				use_giftbag	ev1042		【仓库】中开启将得AUG-橙光(3天)+黄金尼泊尔(3天)+钛金高爆(3天)		2			1	
5072	ITEMS	ITEM	开学季突击3天包		colourbox		3				use_giftbag	ev1043		【仓库】中开启将得SPAS-电玩(3天)+黄金战斧(3天)+钛金高爆(3天)		2			1	
5073	ITEMS	ITEM	普通装甲7天包		puzhuang		3				use_giftbag	ev1044		【仓库】开启获得：装甲防弹衣(7天)+高分子头盔(7天)+轻灵靴子(7天)+钛金高爆(7天)		2			1	
5074	ITEMS	ITEM	豪华装甲7天包		haozhuang		3				use_giftbag	ev1045		【仓库】开启获得：纳米防弹衣(7天)+合金头盔(7天)+疾风靴子(7天)+钛金高爆(7天)		2			1	
5075	ITEMS	ITEM	生化角色7天包		shenghuaren		3				use_giftbag	ev1046		【仓库】开启获得：魅影(7天)+假面博士(7天)+生化防护服(7天)		2			1	
5076	ITEMS	ITEM	无畏挑战7天包		tiaozhan		4				use_giftbag	ev1047		【仓库】开启获得：M249-炎魂(7天)+机枪弹夹(7天)+生化手雷(7天)+复活币×10		2			1	
5077	ITEMS	ITEM	AK纯爷们7天包		chunyemen		3				use_giftbag	ev1048		【仓库】开启获得：AK47-军魂(7天)+装甲防弹衣(7天)+高分子头盔(7天)+轻灵靴子(7天)+钛金高爆(7天)		2			1	
5078	ITEMS	ITEM	AWP狙神7天包		jushen		3				use_giftbag	ev1049		【仓库】开启获得：AWP-闪电(7天)+装甲防弹衣(7天)+钛金高爆(7天)+狙击枪弹夹(7天)		2			1	
5079	ITEMS	ITEM	M4团战7天包		tuanzhan		3				use_giftbag	ev1050		【仓库】开启获得：M4A1-水元素(7天)+装甲防弹衣(7天)+钛金高爆(7天)+步枪弹夹(7天)		2			1	
5080	ITEMS	ITEM	女神双子7天包		nvshen		3				use_giftbag	ev1051		【仓库】开启获得：琪琪(7天)+黛西(7天)+马来剑(7天)+钛金高爆(7天)		2			1	
5081	ITEMS	ITEM	中秋扭蛋(小)		smallegg		1		UI_niudan_lan;UI_niudan_lan_di	1803;3202;1610;1712;1603	use_giftbag	ev1052		【仓库】中开启有机会得玉兔手雷(7天)		2			1	
5082	ITEMS	ITEM	中秋扭蛋(中)		middleegg		2		UI_niudan_zi;UI_niudan_zi_di	1803;5007;1039;1715;1603	use_giftbag	ev1053		【仓库】中开启有机会得玉兔手雷(15天)或绝版近战-板砖		2			1	
5083	ITEMS	ITEM	中秋扭蛋(大)		bigegg		3		UI_niudan_huang;UI_niudan_huang_di	1803;5007;1032;1609;1611	use_giftbag	ev1054		【仓库】开启有机会得玉兔手雷(30天)或绝版手枪-圣诞沙鹰		2			1	
5084	ITEMS	ITEM	9月一钻礼盒		colourbox		4				use_giftbag	ev1055		【仓库】开启将得AK47-刺杀(3天)、叶安妮(3天)、露易丝(3天)		2			1	
5085	ITEMS	BUFFCARD	双倍收益卡		double		1				add_buff	880002#3600;880005#3600		使用后的1小时内，战斗中获得的金币、经验、勋章享受双倍加成	False	2		True	0	
5086	MONEY	ACTIVE_COIN	活动券		active_coin		2							活动期间可获得的货币，可购买活动商城道具		2				
5087	ITEMS	ITEM	军备箱（小）		colourbox		1				use_giftbag	ev1056		【仓库】中开启有机会得神秘资源或限时武器		2			1	
5088	ITEMS	ITEM	军备箱（大）		animalbox		2				use_giftbag	ev1057		【仓库】中开启有机会得神秘资源或限时武器		2			1	
5089	ITEMS	ITEM	10月一钻礼盒		colourbox		4				use_giftbag	ev1058		【仓库】开启将得M4A1-影刺(3天)、琪琪(3天)、黛西(3天)		2			1	
5090	ITEMS	ITEM	红星团战7天包		colourbox		4				use_giftbag	ev1059		【仓库】开启将得QBZ03-红星（7天）、红星战斧（7天）、M24-红星（7天）		2			1	
5091	ITEMS	ITEM	红星狙击7天包		colourbox		4				use_giftbag	ev1060		【仓库】开启将得QBU88-红星（7天）、红星战斧（7天）、QSZ92-红星（7天）		2			1	
5092	ITEMS	ITEM	红星爆破7天包		colourbox		4				use_giftbag	ev1061		【仓库】开启将得QBZ95-红星（7天）、红星战斧（7天）、M24-红星（7天）		2			1	
5093	ITEMS	ITEM	M4团战7天包		gift2		3				use_giftbag	ev1062		【仓库】开启获得：M4A1-水元素(7天）+装甲防弹衣（7天）+高爆手雷（7天）+步枪弹夹（7天）		2			1	
5094	ITEMS	ITEM	迅雷狙神7天包		gift5		4				use_giftbag	ev1063		【仓库】开启获得：M82A1-迅雷（7天）+纳米防弹衣（7天）+钛金高爆（7天）+狙击枪弹夹（7天）		2			1	
5095	ITEMS	ITEM	AK业火7天包		gift1		4				use_giftbag	ev1064		【仓库】开启获得：AK47业火（7天）+纳米防弹衣（7天）+合金头盔(7天）+疾风靴子（7天）+钛金高爆（7天）		2			1	
5096	ITEMS	ITEM	普通装甲7天包		gift4		3				use_giftbag	ev1065		【仓库】开启获得：装甲防弹衣（7天）+高分子头盔（7天）+轻灵靴子（7天）+高爆手雷（7天）		2			1	
5097	ITEMS	ITEM	女神双子7天包		gift3		3				use_giftbag	ev1066		【仓库】开启获得：小昭（7天）+阿尔盖尔（7天）+黄金尼泊尔（7天）+高爆手雷（7天）		2			1	
5098	ITEMS	RENAMECARD	战队改名卡		rename_corps		3				rename_corps			使用后可以更改战队信息（名称/标识/旗面/颜色），只有战队队长才有权使用	False	2			0	
5099	ITEMS	ITEM	优秀武器礼包		colourbox		2				use_giftbag	ev1067		【仓库】中开启有机会得1天优秀武器（Vector、AK47-x、MP5-x、M4A1-r、AK47-r、AK47-t）之一		2			1	
5100	ITEMS	ITEM	邪恶糖果		xieetangguo		3		UI_tangguo;UI_niudan_huang_di	1806;21305;1715;1609;5007;66610;3003;66611	use_giftbag	ev1068		【仓库】开启有机会得永久南瓜手雷或【零件】RPK-豪雨等其他珍稀武器与道具		2			1	
5101	ITEMS	ITEM	OW嘉年华大礼包		colourbox		5				use_giftbag	ev1069		测试用大礼包		2			1	
5102	ITEMS	ITEM	神秘挂件礼包		colourbox		3				use_giftbag	ev1070		【仓库】开启后必得神秘挂件（3天）与其他道具		2			1	
5103	ITEMS	ITEM	11月一钻礼盒		colourbox		4				use_giftbag	ev1071		【仓库】开启将得SCAR-影刺(3天)、月岛绘梨香(3天)、艾丽娜(3天)		2			1	
5104	ITEMS	ITEM	装饰礼包		colourbox		3				use_giftbag	ev1072		【仓库】开启将得3天的恶魔背包、恶魔尾巴、福克斯面具以及星刻		2			1	
5105	ITEMS	ITEM	铸金之戒礼包		colourbox		3				use_giftbag	ev1073		【仓库】开启将得3天的铸金之戒、机枪弹夹以及20个复活币		2			1	
5106	ITEMS	ITEM	私奔到月球		colourbox		3				use_giftbag	ev1074		【仓库】开启获得星刻与黛西两名永久角色		2			1	
5107	ITEMS	ITEM	桀骜不驯		colourbox		3				use_giftbag	ev1075		【仓库】开启获得露易丝与杰两名永久角色		2			1	
5108	ITEMS	ITEM	生存怒火		colourbox		4				use_giftbag	ev1076		【仓库】开启获得一把永久RPK-豪雨、复活币*50和王者之戒（60天）		2			1	
5109	ITEMS	ITEM	琪琪+黛西		rolecomb1		2				use_giftbag	ev1077		购买即可获得【守护者】琪琪(永久)+【爱国者】黛西(永久)		2		1	1	
5110	ITEMS	ITEM	月岛绘梨香+艾丽娜		rolecomb2		2				use_giftbag	ev1078		购买即可获得【守护者】月岛绘梨香(永久)+【爱国者】艾丽娜(永久)		2		1	1	
5111	ITEMS	ITEM	叶安妮+露易丝		rolecomb3		2				use_giftbag	ev1079		购买即可获得【守护者】叶安妮(永久)+【爱国者】露易丝(永久)		2		1	1	
5112	ITEMS	ITEM	星刻+凯尔		rolecomb4		2				use_giftbag	ev1080		购买即可获得【守护者】星刻(永久)+【爱国者】凯尔(永久)		2		1	1	
5113	ITEMS	ITEM	杰+泰勒		rolecomb5		2				use_giftbag	ev1081		购买即可获得【守护者】杰(永久)+【爱国者】泰勒(永久)		2		1	1	
5114	ITEMS	ITEM	苍狼+德里克		rolecomb6		2				use_giftbag	ev1082		购买即可获得【守护者】苍狼(永久)+【爱国者】德里克(永久)		2		1	1	
5115	ITEMS	ITEM	精英武器箱		colourbox		3				use_giftbag	ev1083		【仓库】中开启有机会得任意精英武器（1天）		2			1	
5116	ITEMS	ITEM	逆鳞30天礼盒		colourbox		4				use_giftbag	ev1084		【仓库】中开启将得逆鳞（30天）、纳米防弹衣（30天）、合金头盔（30天）、疾风靴子（30天）		2			1	
5117	ITEMS	ITEM	金箍棒7天礼盒		colourbox		4				use_giftbag	ev1085		【仓库】中开启将得金箍棒（7天）、龙鳞防弹衣（7天）、复活币*20		2			1	
5118	ITEMS	ITEM	M82A1-影刺礼盒		colourbox		3				use_giftbag	ev1086		【仓库】中开启将得M82A1-影刺（永久）、恶魔背包（30天）、精英级碎片*50		2			1	
5119	ITEMS	ITEM	M4A1-水元素礼盒		colourbox		3				use_giftbag	ev1087		【仓库】中开启将得M4A1-水元素（永久）、精英级碎片*30、恶魔尾巴（30天）		2			1	
5120	ITEMS	ITEM	Infinity-樱落礼盒		colourbox		3				use_giftbag	ev1088		【仓库】中开启将得Infinity-樱落（永久）、黄金尼泊尔（30天）		2			1	
5121	ITEMS	ITEM	FAMS-悟空30天礼盒		colourbox		4				use_giftbag	ev1089		【仓库】中开启将得FAMS悟空（30天）、龙鳞防弹衣（30天）、钛金高爆（30天）		2			1	
5122	ITEMS	ITEM	QBZ95-悟空7天礼盒		colourbox		4				use_giftbag	ev1090		【仓库】中开启将得QBZ95-悟空（7天）、复活币*20、钛金高爆（7天）		2			1	
5123	ITEMS	ITEM	加特林-悟空7天礼盒		colourbox		4				use_giftbag	ev1091		【仓库】中开启将得加特林-悟空（7天）、生化防护服（7天）、机枪弹夹（7天）		2			1	
5124	ITEMS	ITEM	英雄武器箱		colourbox		5				use_giftbag	ev1092		【仓库】中开启将得任意一把英雄武器（1天）		2			1	
5125	ITEMS	ITEM	神秘大礼		colourbox		3				use_giftbag	ev1093		【仓库】中开启有几率获得高品质武器（1天）或武器配件以及枪魂等道具		2			1	
5126	ITEMS	ITEM	神奇宝箱		colourbox		3				use_giftbag	ev1094		【仓库】中开启有几率获得特等奖高品质武器（30天）		2			1	
5127	ITEMS	ITEM	神秘礼包		colourbox		3				use_giftbag	ev1095		【仓库】中开启有几率获得高品质武器（1天）或武器配件以及枪魂等道具		2			1	
5128	ITEMS	ITEM	影刺武器盒		colourbox		3				use_giftbag	ev1096		【仓库】中开启将得任意一把影刺武器（1天		2			1	
5129	ITEMS	ITEM	12月一钻礼盒		colourbox		4				use_giftbag	ev1097		【仓库】开启将得P90-影刺(3天)、叶安妮(3天)、露易丝(3天)		2			1	
5130	ITEMS	ITEM	闯荡街头		colourbox		3			1736;1721;1733	use_giftbag	ev1098		【仓库】开启将获得折凳、西瓜刀、棒球棍、猪肉刀4种武器中任意一把的1或3天版		2			1	
5131	ITEMS	ITEM	重剑无锋		colourbox		4			1724;1715;1716;1723	use_giftbag	ev1099		【仓库】开启将获得巨鲨扳手、板砖、金砖、扳手4种武器中任意一把的1或3天版		2			1	
5132	ITEMS	ITEM	神器		colourbox		5			1717;1707;1731	use_giftbag	ev1100		【仓库】开启将获得逆鳞、裁决、金箍棒3种武器中任意一把的1或3天版		2			1	
5133	ITEMS	ITEM	60钻悟空体验包		colourbox		4				use_giftbag	ev1101		【仓库】开启将得FAMAS-悟空（1天）和金箍棒（1天）		2			1	
5134	ITEMS	ITEM	30点券医疗包		colourbox		3				use_giftbag	ev1102		【仓库】开启将得复活币*20，铸金之戒（3天）		2			1	
5135	ITEMS	ITEM	圣诞贺卡		heka_shengdan		3				use_giftbag	ev1103		【仓库】开启将有几率获得AWP-圣诞（永久）或圣诞马来剑（时限版）		2			1	
5136	ITEMS	ITEM	圣诞作战3天包		colourbox		3				use_giftbag	ev1104		【仓库】开启将得M249-圣诞(3天)、 圣诞马来剑（3天）、圣诞手雷（3天）		2			1	
5137	ITEMS	ITEM	圣诞狙击3天包		colourbox		3				use_giftbag	ev1105		【仓库】开启将得AWP-圣诞(3天)、圣诞马来剑（3天）、圣诞沙鹰（3天）		2			1	
5138	ITEMS	ITEM	1月一钻礼盒		colourbox		4				use_giftbag	ev1106		【仓库】开启将得M82A1-影刺(3天)、琪琪(3天)、黛西(3天)		2			1	
5139	ITEMS	ITEM	金蛋		bigegg		3		UI_niudan_huang;UI_niudan_huang_di	1004;1716;5007;3003;30302	use_giftbag	ev1107		【仓库】开启有机会得黄金M4A1（永久）等其他珍稀武器与道具		2			1	
5140	ITEMS	ITEM	公测团战3天包		colourbox		3				use_giftbag	ev1108		【仓库】开启将得AWP-猎豹（3天）、黄金尼泊尔（3天）、高爆手雷（3天）		2			1	
5141	ITEMS	ITEM	公测突击3天包		colourbox		3				use_giftbag	ev1109		【仓库】开启将得Vector-蓝鲸（3天）、黄金战斧(3天）、高爆手雷（3天）		2			1	
5142	ITEMS	ITEM	新手红星包		colourbox		3				use_giftbag	ev1110		【仓库】15级以前可购，开启将得QBU88-红星（30天），红星战斧（30天），QSZ92-红星（30天），QBZ95-红星（30天）		2			1	
7801	MATERIAL	STRENGTHEN	武器进阶碎片	武器进阶碎片	material1up	1	1						1#参与高级频道【大厅对战】	白色品质的进阶碎片，用于进阶普通武器	False	2			0	
7802	MATERIAL	STRENGTHEN	优秀级碎片	优秀级碎片	material2up	2	2						1#参与高级频道【大厅对战】	绿色品质的进阶碎片，用于进阶优秀武器	False	2			0	
7803	MATERIAL	STRENGTHEN	黄金级碎片	黄金级碎片	material3up	3	3						3#参与【排位竞技】	蓝色品质的进阶碎片，用于进阶黄金武器	False	2			0	
7804	MATERIAL	STRENGTHEN	精英级碎片	精英级碎片	material4up	4	3						2#通关【生存模式】	蓝色品质的进阶碎片，用于进阶精英武器	False	2			0	
7805	MATERIAL	STRENGTHEN	传说级碎片	传说级碎片	material5up	5	4						3#参与【排位竞技】	紫色品质的进阶碎片，用于进阶传说武器	False	2			0	
7806	MATERIAL	STRENGTHEN	英雄级碎片	英雄级碎片	material6up	6	5						2#通关日常任务【生存模式】	橙色品质的进阶碎片，用于进阶英雄武器	False	2			0	
7701	WASTE	STRENGTHEN	普通步枪碎片	普通步枪	rifle1up	1	1						1#参与高级频道【大厅对战】	白色品质的步枪碎片，用于进阶普通级步枪	False	2			0	
7702	WASTE	STRENGTHEN	普通冲锋枪碎片	普通冲锋枪	submachine1up	1	1						1#参与高级频道【大厅对战】	白色品质的冲锋枪碎片，用于进阶普通级冲锋枪	False	2			0	
7703	WASTE	STRENGTHEN	普通机枪碎片	普通机枪	machinegun1up	1	1						1#参与高级频道【大厅对战】	白色品质的机枪碎片，用于进阶普通级机枪	False	2			0	
7704	WASTE	STRENGTHEN	普通霰弹枪碎片	普通霰弹枪	shotgun1up	1	1						1#参与高级频道【大厅对战】	白色品质的霰弹枪碎片，用于进阶普通级霰弹枪	False	2			0	
7705	WASTE	STRENGTHEN	普通狙击枪碎片	普通狙击枪	sniper1up	1	1						1#参与高级频道【大厅对战】	白色品质的狙击枪碎片，用于进阶普通级狙击枪	False	2			0	
7706	WASTE	STRENGTHEN	普通手枪碎片	普通手枪	pistol1up	1	1						1#参与高级频道【大厅对战】	白色品质的手枪碎片，用于进阶普通级手枪	False	2			0	
7707	WASTE	STRENGTHEN	普通通兑碎片	普通通兑	exchange1up	1	1						1#参与高级频道【大厅对战】	白色品质的通兑碎片，用于进阶普通级武器	False	2			0	
7711	WASTE	STRENGTHEN	优秀步枪碎片	优秀步枪	rifle2up	2	2						1#参与高级频道【大厅对战】	绿色品质的步枪碎片，用于进阶优秀级步枪	False	2			0	
7712	WASTE	STRENGTHEN	优秀冲锋枪碎片	优秀冲锋枪	submachine2up	2	2						1#参与高级频道【大厅对战】	绿色品质的冲锋枪碎片，用于进阶优秀级冲锋枪	False	2			0	
7713	WASTE	STRENGTHEN	优秀机枪碎片	优秀机枪	machinegun2up	2	2						1#参与高级频道【大厅对战】	绿色品质的机枪碎片，用于进阶优秀级机枪	False	2			0	
7714	WASTE	STRENGTHEN	优秀霰弹枪碎片	优秀霰弹枪	shotgun2up	2	2						1#参与高级频道【大厅对战】	绿色品质的霰弹枪碎片，用于进阶优秀级霰弹枪	False	2			0	
7715	WASTE	STRENGTHEN	优秀狙击枪碎片	优秀狙击枪	sniper2up	2	2						1#参与高级频道【大厅对战】	绿色品质的狙击枪碎片，用于进阶优秀级狙击枪	False	2			0	
7716	WASTE	STRENGTHEN	优秀手枪碎片	优秀手枪	pistol2up	2	2						1#参与高级频道【大厅对战】	绿色品质的手枪碎片，用于进阶优秀级手枪	False	2			0	
7717	WASTE	STRENGTHEN	优秀通兑碎片	优秀通兑	exchange2up	2	2						1#参与高级频道【大厅对战】	绿色品质的通兑碎片，用于进阶优秀级武器	False	2			0	
7721	WASTE	STRENGTHEN	黄金步枪碎片	黄金步枪	rifle3up	3	3						3#参与【排位竞技】	蓝色品质的步枪碎片，用于进阶黄金步枪	False	2			0	
7722	WASTE	STRENGTHEN	黄金冲锋枪碎片	黄金冲锋枪	submachine3up	3	3						3#参与【排位竞技】	蓝色品质的冲锋枪碎片，用于进阶黄金冲锋枪	False	2			0	
7723	WASTE	STRENGTHEN	黄金机枪碎片	黄金机枪	machinegun3up	3	3						3#参与【排位竞技】	蓝色品质的机枪碎片，用于进阶黄金机枪	False	2			0	
7724	WASTE	STRENGTHEN	黄金霰弹枪碎片	黄金霰弹枪	shotgun3up	3	3						3#参与【排位竞技】	蓝色品质的霰弹枪碎片，用于进阶黄金霰弹枪	False	2			0	
7725	WASTE	STRENGTHEN	黄金狙击枪碎片	黄金狙击枪	sniper3up	3	3						3#参与【排位竞技】	蓝色品质的狙击枪碎片，用于进阶黄金狙击枪	False	2			0	
7726	WASTE	STRENGTHEN	黄金手枪碎片	黄金手枪	pistol3up	3	3						3#参与【排位竞技】	蓝色品质的手枪碎片，用于进阶黄金手枪	False	2			0	
7727	WASTE	STRENGTHEN	黄金通兑碎片	黄金通兑	exchange3up	3	3						3#参与【排位竞技】	蓝色品质的通兑碎片，用于进阶黄金武器	False	2			0	
7731	WASTE	STRENGTHEN	精英步枪碎片	精英步枪	rifle4up	4	3						2#通关高级生存频道【生存模式】	蓝色品质的步枪碎片，用于进阶精英步枪	False	2			0	
7732	WASTE	STRENGTHEN	精英冲锋枪碎片	精英冲锋枪	submachine4up	4	3						2#通关高级生存频道【生存模式】	蓝色品质的冲锋枪碎片，用于进阶精英冲锋枪	False	2			0	
7733	WASTE	STRENGTHEN	精英机枪碎片	精英机枪	machinegun4up	4	3						2#通关高级生存频道【生存模式】	蓝色品质的机枪碎片，用于进阶精英机枪	False	2			0	
7734	WASTE	STRENGTHEN	精英霰弹枪碎片	精英霰弹枪	shotgun4up	4	3						2#通关高级生存频道【生存模式】	蓝色品质的霰弹枪碎片，用于进阶精英霰弹枪	False	2			0	
7735	WASTE	STRENGTHEN	精英狙击枪碎片	精英狙击枪	sniper4up	4	3						2#通关高级生存频道【生存模式】	蓝色品质的狙击枪碎片，用于进阶精英狙击枪	False	2			0	
7736	WASTE	STRENGTHEN	精英手枪碎片	精英手枪	pistol4up	4	3						2#通关高级生存频道【生存模式】	蓝色品质的手枪碎片，用于进阶精英手枪	False	2			0	
7737	WASTE	STRENGTHEN	精英通兑碎片	精英通兑	exchange4up	4	3						2#通关高级生存频道【生存模式】	蓝色品质的通兑碎片，用于进阶精英武器	False	2			0	
7741	WASTE	STRENGTHEN	传说步枪碎片	传说步枪	rifle5up	5	4						3#参与【排位竞技】	紫色品质的步枪碎片，用于进阶传说级步枪	False	2			0	
7742	WASTE	STRENGTHEN	传说冲锋枪碎片	传说冲锋枪	submachine5up	5	4						3#参与【排位竞技】	紫色品质的冲锋枪碎片，用于进阶传说级冲锋枪	False	2			0	
7743	WASTE	STRENGTHEN	传说机枪碎片	传说机枪	machinegun5up	5	4						3#参与【排位竞技】	紫色品质的机枪碎片，用于进阶传说级机枪	False	2			0	
7744	WASTE	STRENGTHEN	传说霰弹枪碎片	传说霰弹枪	shotgun5up	5	4						3#参与【排位竞技】	紫色品质的霰弹枪碎片，用于进阶传说级霰弹枪	False	2			0	
7745	WASTE	STRENGTHEN	传说狙击枪碎片	传说狙击枪	sniper5up	5	4						3#参与【排位竞技】	紫色品质的狙击枪碎片，用于进阶传说级狙击枪	False	2			0	
7746	WASTE	STRENGTHEN	传说手枪碎片	传说手枪	pistol5up	5	4						3#参与【排位竞技】	紫色品质的手枪碎片，用于进阶传说级手枪	False	2			0	
7747	WASTE	STRENGTHEN	传说通兑碎片	传说通兑	exchange5up	5	4						3#参与【排位竞技】	紫色品质的通兑碎片，用于进阶传说级武器	False	2			0	
7799	WASTE	STRENGTHEN	圣兽碎片	圣兽碎片	shengup	6	5						2#日常活动任务-通关【生存模式】	橙色品质的圣兽碎片，用于进阶圣兽级武器	False	2			0	
7001	WASTE	STRENGTHEN	AK47碎片	AK47	ak47up	1	1						1#参与【大厅对战】;4#材料兑换	AK47的碎片，用于进阶AK47	False	2			0	
7002	WASTE	STRENGTHEN	黄金AK47碎片	黄金AK47	ak47goldup	4	3						3#参与【排位竞技】;1#参与【大厅对战】;4#材料兑换	黄金AK47的碎片，用于进阶黄金AK47	False	2			0	
7003	WASTE	STRENGTHEN	M4A1碎片	M4A1	m4a1up	1	1						1#参与【大厅对战】;4#材料兑换	M4A1的碎片，用于进阶M4A1	False	2			0	
7004	WASTE	STRENGTHEN	黄金M4A1碎片	黄金M4A1	m4a1goldup	4	3						3#参与【排位竞技】;1#参与【大厅对战】;4#材料兑换	黄金M4A1的碎片，用于进阶黄金M4A1	False	2			0	
7005	WASTE	STRENGTHEN	AUG碎片	AUG	augup	1	1						1#参与【大厅对战】;4#材料兑换	AUG的碎片，用于进阶AUG	False	2			0	
7006	WASTE	STRENGTHEN	QBZ95碎片	QBZ95	qbz95up	2	2						1#参与【大厅对战】;4#材料兑换	QBZ95的碎片，用于进阶QBZ95	False	2			0	
7007	WASTE	STRENGTHEN	G36碎片	G36	g36up	2	2						1#参与【大厅对战】;4#材料兑换	G36的碎片，用于进阶G36	False	2			0	
7008	WASTE	STRENGTHEN	FAMAS碎片	FAMAS	famasup	1	1						1#参与【大厅对战】;4#材料兑换	FAMAS的碎片，用于进阶FAMAS	False	2			0	
7009	WASTE	STRENGTHEN	SCAR碎片	SCAR	scarup	2	2						1#参与【大厅对战】;4#材料兑换	SCAR的碎片，用于进阶SCAR	False	2			0	
7010	WASTE	STRENGTHEN	水晶M4A1碎片	水晶M4A1	m4a1crystalup	6	4						3#参与【排位竞技】;4#材料兑换	水晶M4A1的碎片，用于进阶水晶M4A1	False	2			0	
7011	WASTE	STRENGTHEN	水晶AK47碎片	水晶AK47	ak47crystalup	6	4						3#参与【排位竞技】;4#材料兑换	水晶AK47的碎片，用于进阶水晶AK47	False	2			0	
7012	WASTE	STRENGTHEN	青龙M4A1碎片	青龙M4A1	m4a1qinglongup	7	5						2#通关【生存模式】;4#材料兑换	青龙M4A1的碎片，用于进阶青龙M4A1	False	2			0	
7013	WASTE	STRENGTHEN	麒麟AK47碎片	麒麟AK47	ak47qilinup	7	5						2#通关【生存模式】;4#材料兑换	麒麟AK47的碎片，用于进阶麒麟AK47	False	2			0	
7014	WASTE	STRENGTHEN	玄武QBZ95碎片	玄武QBZ95	qbz95xuanwuup	7	5						2#通关【生存模式】;4#材料兑换	玄武QBZ95的碎片，用于进阶玄武QBZ95	False	2			0	
7015	WASTE	STRENGTHEN	M4A1情人碎片	M4A1情人	m4a1loverup	5	3						2#通关【生存模式】;4#材料兑换	M4A1-情人的碎片，用于进阶M4A1-情人	False	2			0	
7016	WASTE	STRENGTHEN	AK47军魂碎片	AK47军魂	ak47soulup	5	3						2#通关【生存模式】;4#材料兑换	AK47-军魂的碎片，用于进阶AK47-军魂	False	2			0	
7017	WASTE	STRENGTHEN	AUG彩虹碎片	AUG彩虹	augrainbowup	5	3						2#通关【生存模式】;4#材料兑换	AUG-彩虹的碎片，用于进阶AUG-彩虹	False	2			0	
7018	WASTE	STRENGTHEN	G36蝴蝶碎片	G36蝴蝶	g36butterflyup	5	3						2#通关【生存模式】;4#材料兑换	G36-蝴蝶的碎片，用于进阶G36-蝴蝶	False	2			0	
7019	WASTE	STRENGTHEN	M4A1水元素碎片	M4A1水元素	m4a1elementup	5	3						2#通关【生存模式】;4#材料兑换	M4A1-水元素的碎片，用于进阶M4A1-水元素	False	2			0	
7020	WASTE	STRENGTHEN	AK47白银碎片	AK47白银	ak47silverup	5	3						2#通关【生存模式】;4#材料兑换	AK47-白银的碎片，用于进阶AK47-白银	False	2			0	
7021	WASTE	STRENGTHEN	AUG橙光碎片	AUG橙光	augorangeup	5	3						2#通关【生存模式】;4#材料兑换	AUG-橙光的碎片，用于进阶AUG-橙光	False	2			0	
7022	WASTE	STRENGTHEN	QBZ95炽焰碎片	QBZ95炽焰	qbz95fireup	5	3						2#通关【生存模式】;4#材料兑换	QBZ95-炽焰的碎片，用于进阶QBZ95-炽焰	False	2			0	
7023	WASTE	STRENGTHEN	QBZ95红星碎片	QBZ95红星	qbz95redstarup	5	3						4#材料兑换	QBZ95-红星的碎片，用于进阶QBZ95-红星	False	2			0	
7024	WASTE	STRENGTHEN	QBZ03红星碎片	QBZ03红星	qbz03redstarup	5	3						4#材料兑换	QBZ03-红星的碎片，用于进阶QBZ03-红星	False	2			0	
7025	WASTE	STRENGTHEN	AN94碎片	AN94	an94up	2	2						1#参与【大厅对战】;4#材料兑换	AN94的碎片，用于进阶AN94	False	2			0	
7026	WASTE	STRENGTHEN	QBZ03碎片	QBZ03	qbz03up	2	2						1#参与【大厅对战】;4#材料兑换	QBZ03的碎片，用于进阶QBZ03	False	2			0	
7027	WASTE	STRENGTHEN	AK47业火碎片	AK47业火	ak47huoup	5	3						2#通关【生存模式】;4#材料兑换	AK47-业火的碎片，用于进阶AK47-业火	False	2			0	
7029	WASTE	STRENGTHEN	SCAR刺杀碎片	SCAR刺杀	scarassassinup	5	3						2#通关【生存模式】;4#材料兑换	SCAR-刺杀的碎片，用于进阶SCAR-刺杀	False	2			0	
7031	WASTE	STRENGTHEN	AK47刺杀碎片	AK47刺杀	ak47cishaup	5	3						2#通关【生存模式】;4#材料兑换	AK47-刺杀的碎片，用于进阶AK47-刺杀	False	2			0	
7032	WASTE	STRENGTHEN	M4A1-r碎片	M4A1-r	m4a1rup	2	2						2#通关【生存模式】;4#材料兑换	M4A1-r的碎片，用于进阶M4A1-r	False	2			0	
7035	WASTE	STRENGTHEN	FAMAS悟空碎片	FAMAS悟空	famasmonkeyup	5	3						4#材料兑换	FAMAS-悟空的碎片，用于进阶FAMAS-悟空	False	2			0	
7036	WASTE	STRENGTHEN	QBZ95悟空碎片	QBZ95悟空	qbz95monkeyup	5	3						4#材料兑换	QBZ95-悟空的碎片，用于进阶QBZ95-悟空	False	2			0	
7994	WASTE	STRENGTHEN	水晶通兑碎片	水晶通兑碎片	m4a1crystalup	6	4							可用于进阶所有水晶级武器	False	2			0	
7995	WASTE	STRENGTHEN	黄金通兑碎片	黄金通兑碎片	m4a1goldup	4	3							可用于进阶所有黄金级武器	False	2			0	
7996	WASTE	STRENGTHEN	精英通兑碎片	精英通兑碎片	m4a1loverup	5	3							可用于进阶所有精英级武器	False	2			0	
7997	WASTE	STRENGTHEN	稀有通兑碎片	稀有通兑碎片	qbz95up	2	2							可用于进阶所有稀有级武器	False	2			0	
7998	WASTE	STRENGTHEN	普通通兑碎片	普通通兑碎片	m4a1up	1	1							可用于进阶所有普通级武器	False	2			0	
7999	WASTE	STRENGTHEN	圣兽通兑碎片	圣兽通兑碎片	shengup	7	5							可用于进阶所有圣兽级武器	False	2			0	
7201	WASTE	STRENGTHEN	MP5碎片	MP5	mp5up	1	1						1#参与【大厅对战】;4#材料兑换	MP5的碎片，用于进阶MP5	False	2			0	
7202	WASTE	STRENGTHEN	P90碎片	P90	p90up	1	1						1#参与【大厅对战】;4#材料兑换	P90的碎片，用于进阶P90	False	2			0	
7203	WASTE	STRENGTHEN	TMP碎片	TMP	tmpup	1	1						1#参与【大厅对战】;4#材料兑换	TMP的碎片，用于进阶TMP	False	2			0	
7204	WASTE	STRENGTHEN	Vector碎片	Vector	vectorup	4	3						1#参与【大厅对战】;4#材料兑换	Vector的碎片，用于进阶Vector	False	2			0	
7205	WASTE	STRENGTHEN	PP2000碎片	PP2000	pp2000up	2	2						1#参与【大厅对战】;4#材料兑换	PP2000的碎片，用于进阶PP2000	False	2			0	
7206	WASTE	STRENGTHEN	UMP45碎片	UMP45	ump45up	2	2						1#参与【大厅对战】;4#材料兑换	UMP45的碎片，用于进阶UMP45	False	2			0	
7207	WASTE	STRENGTHEN	黄金MP5碎片	黄金MP5	mp5goldup	4	3						3#参与【排位竞技】;1#参与【大厅对战】;4#材料兑换	黄金MP5的碎片，用于进阶黄金MP5	False	2			0	
7208	WASTE	STRENGTHEN	白虎MP5碎片	白虎MP5	mp5baihuup	7	5						2#通关【生存模式】;4#材料兑换	白虎MP5的碎片，用于进阶白虎MP5	False	2			0	
7209	WASTE	STRENGTHEN	UMP45星图碎片	UMP45星图	ump45starup	5	3						2#通关【生存模式】;4#材料兑换	UMP45-星图的碎片，用于进阶UMP45-星图	False	2			0	
7210	WASTE	STRENGTHEN	Vector蓝鲸碎片	Vector蓝鲸	vectorwhaleup	5	3						2#通关【生存模式】;4#材料兑换	Vector-蓝鲸的碎片，用于进阶Vector-蓝鲸	False	2			0	
7212	WASTE	STRENGTHEN	P90刺杀碎片	P90刺杀	p90assassinup	5	3						2#通关【生存模式】;4#材料兑换	P90-刺杀的碎片，用于进阶P90-刺杀	False	2			0	
7301	WASTE	STRENGTHEN	M249碎片	M249	m249up	1	1						1#参与【大厅对战】;4#材料兑换	M249的碎片，用于进阶M249	False	2			0	
7302	WASTE	STRENGTHEN	RPK碎片	RPK	rpkup	1	1						1#参与【大厅对战】;4#材料兑换	RPK的碎片，用于进阶RPK	False	2			0	
7303	WASTE	STRENGTHEN	加特林碎片	加特林	jiatelinup	2	2						1#参与【大厅对战】;4#材料兑换	加特林的碎片，用于进阶加特林	False	2			0	
7304	WASTE	STRENGTHEN	黄金加特林碎片	黄金加特林	jiatelingoldup	4	3						3#参与【排位竞技】;1#参与【大厅对战】;4#材料兑换	黄金加特林的碎片，用于进阶黄金加特林	False	2			0	
7305	WASTE	STRENGTHEN	RPK豪雨碎片	RPK豪雨	rpkrainup	5	3						2#通关【生存模式】;4#材料兑换	RPK-豪雨的碎片，用于进阶RPK-豪雨	False	2			0	
7306	WASTE	STRENGTHEN	M249圣诞碎片	M249圣诞	m249shengdanup	5	3						4#材料兑换	M249-圣诞的碎片，用于进阶M249-圣诞	False	2			0	
7307	WASTE	STRENGTHEN	M249炎魂碎片	M249炎魂	m249yanhunup	5	3						2#通关【生存模式】;4#材料兑换	M249-炎魂的碎片，用于进阶M249-炎魂	False	2			0	
7309	WASTE	STRENGTHEN	加特林悟空碎片	加特林悟空	jiatelinmonkeyup	5	3						4#材料兑换	加特林-悟空的碎片，用于进阶加特林-悟空	False	2			0	
7401	WASTE	STRENGTHEN	SPAS-12碎片	SPAS-12	spas12up	1	1						1#参与【大厅对战】;4#材料兑换	SPAS-12的碎片，用于进阶SPAS-12	False	2			0	
7402	WASTE	STRENGTHEN	m1014碎片	m1014	m1014up	1	1						1#参与【大厅对战】;4#材料兑换	m1014的碎片，用于进阶m1014	False	2			0	
7403	WASTE	STRENGTHEN	KSG碎片	KSG	ksgup	2	2						1#参与【大厅对战】;4#材料兑换	KSG的碎片，用于进阶KSG	False	2			0	
7404	WASTE	STRENGTHEN	Striker碎片	Striker	strikerup	1	1						1#参与【大厅对战】;4#材料兑换	Striker的碎片，用于进阶Striker	False	2			0	
7405	WASTE	STRENGTHEN	SPAS电玩碎片	SPAS电玩	spasarcadeup	5	3						2#通关【生存模式】;4#材料兑换	SPAS-电玩的碎片，用于进阶SPAS-电玩	False	2			0	
7406	WASTE	STRENGTHEN	KSG狂沙碎片	KSG狂沙	KSGshaup	5	3						2#通关【生存模式】;4#材料兑换	KSG-狂沙的碎片，用于进阶KSG-狂沙	False	2			0	
7501	WASTE	STRENGTHEN	AWP碎片	AWP	awpup	1	1						1#参与【大厅对战】;4#材料兑换	AWP的碎片，用于进阶AWP	False	2			0	
7502	WASTE	STRENGTHEN	SVD碎片	SVD	svdup	1	1						1#参与【大厅对战】;4#材料兑换	SVD的碎片，用于进阶SVD	False	2			0	
7503	WASTE	STRENGTHEN	M82A1碎片	M82A1	m82a1up	2	2						1#参与【大厅对战】;4#材料兑换	M82A1的碎片，用于进阶M82A1	False	2			0	
7504	WASTE	STRENGTHEN	黄金AWP碎片	黄金AWP	awpgoldup	4	3						3#参与【排位竞技】;1#参与【大厅对战】;4#材料兑换	黄金AWP的碎片，用于进阶黄金AWP	False	2			0	
7505	WASTE	STRENGTHEN	水晶AWP碎片	水晶AWP	awpcrystalup	6	4						3#参与【排位竞技】;4#材料兑换	水晶AWP的碎片，用于进阶水晶AWP	False	2			0	
7506	WASTE	STRENGTHEN	朱雀M82A1碎片	朱雀M82A1	m82a1zhuqueup	7	5						2#通关【生存模式】;4#材料兑换	朱雀M82A1的碎片，用于进阶朱雀M82A1	False	2			0	
7507	WASTE	STRENGTHEN	AWP龙纹碎片	AWP龙纹	awpdragonup	5	3						2#通关【生存模式】;4#材料兑换	AWP-龙纹的碎片，用于进阶AWP-龙纹	False	2			0	
7508	WASTE	STRENGTHEN	AWP终极碎片	AWP终极	awpultimateup	5	3						2#通关【生存模式】;4#材料兑换	AWP-终极的碎片，用于进阶AWP-终极	False	2			0	
7509	WASTE	STRENGTHEN	AWP闪电碎片	AWP闪电	awplightningup	5	3						2#通关【生存模式】;4#材料兑换	AWP-闪电的碎片，用于进阶AWP-闪电	False	2			0	
7510	WASTE	STRENGTHEN	QBU88红星碎片	QBU88红星	qbu88redstarup	5	3						4#材料兑换	QBU88-红星的碎片，用于进阶QBU88-红星	False	2			0	
7511	WASTE	STRENGTHEN	QBU88碎片	QBU88	qbu88up	2	2						1#参与【大厅对战】;4#材料兑换	QBU88的碎片，用于进阶QBU88	False	2			0	
7512	WASTE	STRENGTHEN	M82A1刺杀碎片	M82A1刺杀	m82a1assassinup	5	3						2#通关【生存模式】;4#材料兑换	M82A1-刺杀的碎片，用于进阶M82A1-刺杀	False	2			0	
7513	WASTE	STRENGTHEN	AWP圣诞碎片	AWP圣诞	awpshengdanup	5	3						4#材料兑换	AWP-圣诞的碎片，用于进阶AWP-圣诞	False	2			0	
7514	WASTE	STRENGTHEN	AWP猎豹碎片	AWP猎豹	awpbaowenup	5	3						2#通关【生存模式】;4#材料兑换	AWP-猎豹的碎片，用于进阶AWP-猎豹	False	2			0	
7601	WASTE	STRENGTHEN	USP碎片	USP	uspup	1	1						1#参与【大厅对战】;4#材料兑换	USP的碎片，用于进阶USP	False	2			0	
7602	WASTE	STRENGTHEN	usp_burst碎片	usp_burst	uspup	0	0						1#参与【大厅对战】;4#材料兑换	usp_burst的碎片，用于进阶usp_burst	False	2			0	
7603	WASTE	STRENGTHEN	M9碎片	M9	m9up	1	1						1#参与【大厅对战】;4#材料兑换	M9的碎片，用于进阶M9	False	2			0	
7604	WASTE	STRENGTHEN	沙漠之鹰碎片	沙漠之鹰	desertEagleup	2	2						1#参与【大厅对战】;4#材料兑换	沙漠之鹰的碎片，用于进阶沙漠之鹰	False	2			0	
7605	WASTE	STRENGTHEN	QSZ92碎片	QSZ92	qbz92up	2	2						1#参与【大厅对战】;4#材料兑换	QBZ92的碎片，用于进阶QBZ92	False	2			0	
7606	WASTE	STRENGTHEN	黄金沙鹰碎片	黄金沙鹰	desertEaglegoldup	4	3						3#参与【排位竞技】;1#参与【大厅对战】;4#材料兑换	黄金沙漠之鹰的碎片，用于进阶黄金沙漠之鹰	False	2			0	
7607	WASTE	STRENGTHEN	水晶沙鹰碎片	水晶沙鹰	desertEaglecrystalup	6	4						3#参与【排位竞技】;4#材料兑换	水晶沙漠之鹰的碎片，用于进阶水晶沙漠之鹰	False	2			0	
7608	WASTE	STRENGTHEN	QSZ92红星碎片	QSZ92红星	qsz92redstarup	5	3						4#材料兑换	QSZ92-红星的碎片，用于进阶QSZ92-红星	False	2			0	
7609	WASTE	STRENGTHEN	圣诞沙鹰碎片	圣诞沙鹰	desertEagleshengdanup	5	3						4#材料兑换	圣诞沙鹰的碎片，用于进阶圣诞沙鹰	False	2			0	
7610	WASTE	STRENGTHEN	M608碎片	M608	m608up	2	2						1#参与【大厅对战】;4#材料兑换	M608的碎片，用于进阶M608	False	2			0	
7611	WASTE	STRENGTHEN	Infinity碎片	Infiniy	infinityup	2	2						1#参与【大厅对战】;4#材料兑换	Infinity的碎片，用于进阶Infinity	False	2			0	
7612	WASTE	STRENGTHEN	Infinity樱落碎片	Infiniy樱落	infinityfenup	5	3						2#通关【生存模式】;4#材料兑换	Infinity-樱落的碎片，用于进阶Infinity-樱落	False	2			0	
8001	ITEMS	AVATAR	专属头像		zhuanshutouxiang1											2			0	
8002	ITEMS	AVATAR	专属头像		zhuanshutouxiang2											2			0	
8003	ITEMS	AVATAR	专属头像		zhuanshutouxiang3											2			0	
8004	ITEMS	AVATAR	专属头像		zhuanshutouxiang4											2			0	
8005	ITEMS	AVATAR	专属头像		zhuanshutouxiang5											2			0	
8006	ITEMS	AVATAR	专属头像		zhuanshutouxiang6											2			0	
8007	ITEMS	AVATAR	夏日乐悠悠		zhuanshutouxiang7											2			0	
9001	ITEMS	ITEM	会员卡(7天)		VIP		1				add_vip	1;7		获得7天会员资格	False	2			0	
9002	ITEMS	ITEM	GM卡		redstar		1				set_gm	2			False	2			0	
9003	ITEMS	ITEM	会员卡(30天)		VIP		1				add_vip	1;30		获得30天会员资格	False	2			0	
9004	ITEMS	ITEM	尊贵会员卡(7天)		VIP2		2				add_vip	2;7		获得7天尊贵会员资格	False	2			0	
9005	ITEMS	ITEM	尊贵会员卡(30天)		VIP2		3				add_vip	2;30		获得30天尊贵会员资格	False	2			0	
41001	DECORATION	HEAD	圣诞帽		VIP2						DECORATION			挂件测试哦		1			0	
42001	DECORATION	FACE	圣诞面具		VIP2						DECORATION			挂件测试哦		1			0	
43001	DECORATION	SHOULDER	圣诞背包		VIP2						DECORATION			挂件测试哦		1			0	
44001	DECORATION	WAIST	圣诞腰带		VIP2						DECORATION			挂件测试哦		1			0	
9006	ITEMS	ITEM	背包2		bag		2				add_equip_bag	2		增加背包2		3		True	0	
66601	ITEMS	ITEM	生化防护服		shenghuafu		3							【购买后自动装备】人类使用后能抵御一次生化僵尸的攻击；生化体使用后能增加300点HP		1			0	
66602	ITEMS	CLIP	生化额外弹夹		clip_zombie		1					3;1;1#2#3#4#5#6		【购买后自动装备】在生化战斗中为所有武器增加一个额外弹夹		1			0	
66603	ITEMS	CLIP	生存额外弹夹		clip_PVE		1					2;1;1#2#3#4#5#6		【购买后自动装备】在生存战斗中为所有武器增加一个额外弹夹		1			0	
66604	ITEMS	CLIP	步枪额外弹夹		clip_rifle		1					1#2#3;1;2		【购买后自动装备】为突击步枪增加一个额外弹夹		1			0	
66605	ITEMS	CLIP	冲锋枪额外弹夹		clip_submachine		1					1#2#3;1;3		【购买后自动装备】为冲锋枪增加一个额外弹夹		1			0	
66606	ITEMS	CLIP	霰弹枪额外弹夹		clip_shotgun		1					1#2#3;1;4		【购买后自动装备】为霰弹枪增加一个额外弹夹		1			0	
66607	ITEMS	CLIP	机枪额外弹夹		clip_machinegun		1					1#2#3;1;5		【购买后自动装备】为机枪增加一个额外弹夹		1			0	
66608	ITEMS	CLIP	狙击枪额外弹夹		clip_sniper		1					1#2#3;1;6		【购买后自动装备】为狙击枪增加一个额外弹夹		1			0	
66609	ITEMS	CLIP	手枪额外弹夹		clip_pistol		1					1#2#3;1;1		【购买后自动装备】为手枪增加一个额外弹夹		1			0	
66610	ITEMS	ITEM	生化利刃		shenghualiren		3							【购买后自动装备】生化体专用道具，能增加攻击距离，增快攻击速度		1			0	0.2;0.2
66611	ITEMS	ITEM	C4工具钳		gongjuqian		3							【购买后自动装备】加快安放和拆解C4炸弹的速度		1	4		0	
9007	ITEMS	HEROCARD	英雄卡		hero		3				add_hero_card	1		每日礼包:5点券+1复活币(7日可领8次,30日可领31次);每日任务;战斗经验金币+10%;紫色头像框聊天框;紫色房间色		2		True	0	
9008	ITEMS	HEROCARD	超级英雄卡		hero2		4				add_hero_card	2		每日礼包:10点券+2复活币(7日可领8次,30日可领31次);每日任务;战斗经验金币+20%;金色头像框聊天框;豆娃表情;金色房间色		2		True	0	
9009	ITEMS	HEROCARD	传奇英雄卡		hero3		5				add_hero_card	3		每日礼包:20点券+3复活币+8白晶(7日可领8次,30日领31次);每日任务;战斗经验金币+40%;红色头像框聊天框;豆娃表情;红色房间色;每局防T1次(每天3次)		2		True	0	
9010	ITEMS	ITEM	背包3		bag		3				add_equip_bag	3		增加背包3		3		True	0	
9011	ITEMS	ITEM	30级冲级基金		fund1		3							20级以下可买，共返60点券+20钻石(10级起领)		2		True	0	
9012	ITEMS	ITEM	40级冲级基金		fund2		3							30级以下可买，共返120点券+50钻石(20级起领)		2		True	0	
9013	ITEMS	ITEM	60级冲级基金		fund3		4							50级以下可买，共返360点券+600钻石(40级起领)		2		True	0	
9014	ITEMS	ITEM	躲猫猫大师卡		duomaomaomaster		3							猫猫：免费使用第三卡槽;免费重新随机物件;嘲讽CD-20%  人类：专属开场武器;专属扫荡武器;霰弹枪伤害惩罚-1		1				
9015	ITEMS	ITEM	80级冲级基金		fund4		5							70级以下可买，共返780点券+2400钻石(60级起领)		2		True	0	
