Round	DropPos	DropTime	DropId	DropCount	MaxDrop
1	1	10	19050	4	1
2	1	10	19050	0	1
3	1	10	19050	6	1
4	1	10	19050	0	1
5	1	10	19050	0	1
6	1	10	19050	0	1
7	1	10		6	1
8	1	10	19050	0	1
9	1	10		8	1
10	1	10	19050	0	1
11	1	10	19050	4	1
12	1	10	19050	0	1
13	1	10	19050	6	1
14	1	10	19050	0	1
15	1	10	19050	0	1
16	1	10	19050	0	1
17	1	10		6	1
18	1	10	19050	0	1
19	1	10		8	1
20	1	10	19050	0	1
21	1	10	19050	4	1
22	1	10	19050	0	1
23	1	10	19050	6	1
24	1	10	19050	0	1
25	1	10	19050	0	1
26	1	10	19050	0	1
27	1	10		6	1
28	1	10	19050	0	1
29	1	10		8	1
30	1	10	19050	0	1
31	1	10	19050	4	1
32	1	10	19050	0	1
33	1	10	19050	6	1
34	1	10	19050	0	1
35	1	10	19050	0	1
36	1	10	19050	0	1
37	1	10		6	1
38	1	10	19050	0	1
39	1	10		8	1
40	1	10	19050	0	1
41	1	10	19050	4	1
42	1	10	19050	0	1
43	1	10	19050	6	1
44	1	10	19050	0	1
45	1	10	19050	0	1
46	1	10	19050	0	1
47	1	10		6	1
48	1	10	19050	0	1
49	1	10		8	1
50	1	10	19050	0	1
201	1	40	19051	0	1
202	1	40	19051	1	1
203	1	40	19051	0	1
204	1	40	19051	1	1
205	1	40	19051	0	1
206	1	40	19051	2	2
207	1	40	19051	0	2
208	1	40	19051	2	2
209	1	40	19051	0	2
210	1	40	19051	2	2
211	1	40	19051	0	1
212	1	40	19051	1	1
213	1	40	19051	0	1
214	1	40	19051	1	1
215	1	40	19051	0	1
216	1	40	19051	2	2
217	1	40	19051	0	2
218	1	40	19051	2	2
219	1	40	19051	0	2
220	1	40	19051	2	2
221	1	40	19051	0	1
222	1	40	19051	1	1
223	1	40	19051	0	1
224	1	40	19051	1	1
225	1	40	19051	0	1
226	1	40	19051	2	2
227	1	40	19051	0	2
228	1	40	19051	2	2
229	1	40	19051	0	2
230	1	40	19051	2	2
231	1	40	19051	0	1
232	1	40	19051	1	1
233	1	40	19051	0	1
234	1	40	19051	1	1
235	1	40	19051	0	1
236	1	40	19051	2	2
237	1	40	19051	0	2
238	1	40	19051	2	2
239	1	40	19051	0	2
240	1	40	19051	2	2
241	1	40	19051	0	1
242	1	40	19051	1	1
243	1	40	19051	0	1
244	1	40	19051	1	1
245	1	40	19051	0	1
246	1	40	19051	2	2
247	1	40	19051	0	2
248	1	40	19051	2	2
249	1	40	19051	0	2
250	1	40	19051	2	2
301	1	10	19050	4	1
302	1	10	19050	0	1
303	1	10	19050	6	1
304	1	10	19050	0	1
305	1	10	19050	0	1
306	1	10	19050	0	1
307	1	10		6	1
308	1	10	19050	0	1
309	1	10		8	1
310	1	10	19050	0	1
311	1	10	19050	4	1
312	1	10	19050	0	1
313	1	10	19050	6	1
314	1	10	19050	0	1
315	1	10	19050	0	1
316	1	10	19050	0	1
317	1	10		6	1
318	1	10	19050	0	1
319	1	10		8	1
320	1	10	19050	0	1
321	1	10	19050	4	1
322	1	10	19050	0	1
323	1	10	19050	6	1
324	1	10	19050	0	1
325	1	10	19050	0	1
326	1	10	19050	0	1
327	1	10		6	1
328	1	10	19050	0	1
329	1	10		8	1
330	1	10	19050	0	1
331	1	10	19050	4	1
332	1	10	19050	0	1
333	1	10	19050	6	1
334	1	10	19050	0	1
335	1	10	19050	0	1
336	1	10	19050	0	1
337	1	10		6	1
338	1	10	19050	0	1
339	1	10		8	1
340	1	10	19050	0	1
341	1	10	19050	4	1
342	1	10	19050	0	1
343	1	10	19050	6	1
344	1	10	19050	0	1
345	1	10	19050	0	1
346	1	10	19050	0	1
347	1	10		6	1
348	1	10	19050	0	1
349	1	10		8	1
350	1	10	19050	0	1
604	4	10	19052	4	1
606	6	10	19053	1	1
614	4	10	19052	4	1
616	6	10	19053	1	1
624	4	10	19052	4	1
626	6	10	19053	1	1
634	4	10	19052	4	1
636	6	10	19053	1	1
644	4	10	19052	4	1
646	6	10	19053	1	1
4021	6	10	19050	6	1
4022	6	10	19050	8	1
4031	1	15	20003	12	3
4032	1	15	20003	15	3
4033	1	15	20003	18	3
4041	1	10	19050	8	1
4052	6	10	19050	6	1
4053	6	10	19050	8	1
4061	2	15	20003	20	3
4062	2	15	20003	25	3
4063	1	15	20003	30	6
4064	1	15	20003	35	6
4071	1	10	19050	4	1
4073	1	10	19050	6	1
4082	1	10	19050	6	1
4084	1	10	19050	8	1
4091	1	50	19051	6	3
4092	1	50	19051	6	3
4093	1	50	19051	6	3
4094	1	50	19051	6	3
4095	1	50	19051	6	3
4096	1	50	19051	6	3
4101	1	10	19050	6	1
4103	1	10	19050	8	1
4111	1	40	19051	2	1
4112	1	40	19051	2	1
4113	1	40	19051	3	1
4114	1	40	19051	3	1
4115	1	40	19051	4	2
4116	1	40	19051	4	2
4117	1	40	19051	5	2
4118	1	40	19051	5	2
4121	1	20	20003	30	3
