ID	Round	StartTime	Monster	Count	BornPos	LoopTimes	LoopTime
1	1	9	321	3	0	11	5
4	2	9	321	2	0	11	5
5	2	15	301	2	0	7	7
9	3	9	331	3	0	13	5
10	4	9	322	2	0	11	6
12	4	18	332	3	0	6	9
13	4	25	311	1	0		
15	5	9	302	2	0	12	5
16	5	15	332	2	0	9	7
17	6	9	322	1	0	12	5
18	6	12	302	2	0	10	6
19	6	18	332	2	0	8	7
20	7	9	323	2	0	9	6
21	7	12	303	2	0	8	8
22	7	15	333	2	0	7	9
24	8	9	323	2	0	10	6
25	8	12	303	1	0	8	8
26	8	15	333	3	0	7	9
27	8	25	311	2	0		
