key	boolField	floatField	stringField	floatArrayField	vector2Field	vector3Field
//主键字符串	备注	备注	备注	备注	水电费	
1	TRUE	1.23	VIP购买	23.3;234.4;32	300.3#100;200#223	300.3#100#332
2	TRUE	1.23	VIP购买	23.3;214.4;33	300#100;200#224	300.3#100#333
3	TRUE	1.23	VIP购买	23.3;234.4;34	300#100;200#225	300.3#100#334
4	TRUE	1.23	VIP购买	23.3;234.4;35	300#103	300.3#100#335
5	FALSE	1.23	VIP购买	23.3;234.4;36	300#104	300.3#100#336
6	FALSE	1.23	VIP购买	23.3;234.4;37	300#105	
7	FALSE	1.23	VIP购买	23.3;234.4;38	300#106	
8	FALSE	1.23	VIP购买	23.3;234.4;39	300#107	
9	FALSE	1.23	VIP购买	23.3;234.4;40	300#108	
10	FALSE	1.23	VIP购买	23.3;234.4;41	300#109	
