ID	Type	Num	Rule	Map	TypePC
1	jlv5;jlv4	9	team_pvp40	"1002";"1003"	jlv5;jlv4;jlv3
2	jlv4;jlv3	9	team_pvp40	"1002";"1003"	jlv4;jlv3;jlv2
3	jlv4;jlv3	6	team_pvp40	"1002";"1003"	jlv4;jlv3;jlv2
4	jlv4;jlv3	6	team_pvp40	"1002";"1003"	jlv4;jlv3;jlv2
5	jlv4;jlv3	6	team_pvp40	"1002";"1003"	jlv4;jlv3;jlv2
6	jlv3;jlv2	6	team_pvp40	"1002";"1003"	jlv3;jlv2;jlv1
7	jlv3;jlv2	6	team_pvp40	"1002";"1003"	jlv3;jlv2;jlv1
8	jlv3;jlv2	4	team_pvp40	"1001";"1003";"1004"	jlv3;jlv2;jlv1
9	jlv3;jlv2	4	team_pvp40	"1001";"1003";"1004"	jlv3;jlv2;jlv1
10	jlv3;jlv2	4	team_pvp40	"1001";"1003";"1004"	jlv3;jlv2;jlv1
