%YAML 1.1
%TAG !u! tag:unity3d.com,2011:
--- !u!21 &2100000
Material:
  serializedVersion: 3
  m_ObjectHideFlags: 0
  m_PrefabParentObject: {fileID: 0}
  m_PrefabInternal: {fileID: 0}
  m_Name: mat_uiShanGuang
  m_Shader: {fileID: 4800000, guid: 0f83d558a65e947418e41603f1fbc1d6, type: 3}
  m_ShaderKeywords: []
  m_CustomRenderQueue: -1
  m_SavedProperties:
    serializedVersion: 2
    m_TexEnvs:
      data:
        first:
          name: _MainTex
        second:
          m_Texture: {fileID: 0}
          m_Scale: {x: 1, y: 1}
          m_Offset: {x: 0, y: 0}
      data:
        first:
          name: _FlowTex
        second:
          m_Texture: {fileID: 0}
          m_Scale: {x: 1, y: 1}
          m_Offset: {x: 0, y: 0}
    m_Floats:
      data:
        first:
          name: _FlowDir_X
        second: 1
      data:
        first:
          name: _FlowDir_Y
        second: 1
      data:
        first:
          name: _FlowSpeed
        second: 5
      data:
        first:
          name: _IntervalTime
        second: 3.29999995
      data:
        first:
          name: _Duration
        second: 1
    m_Colors:
      data:
        first:
          name: _Color
        second: {r: 1, g: 1, b: 1, a: 1}
      data:
        first:
          name: _FlowColor
        second: {r: 1, g: 1, b: 1, a: 1}
