%YAML 1.1
%TAG !u! tag:unity3d.com,2011:
--- !u!21 &2100000
Material:
  serializedVersion: 3
  m_ObjectHideFlags: 0
  m_PrefabParentObject: {fileID: 0}
  m_PrefabInternal: {fileID: 0}
  m_Name: mat_tujian_weapon_crystal
  m_Shader: {fileID: 4800000, guid: d9860dd97192c8c48b3111c2e8bcef42, type: 3}
  m_ShaderKeywords: []
  m_CustomRenderQueue: -1
  m_SavedProperties:
    serializedVersion: 2
    m_TexEnvs:
      data:
        first:
          name: _MainTex
        second:
          m_Texture: {fileID: 0}
          m_Scale: {x: 1, y: 1}
          m_Offset: {x: 0, y: 0}
    m_Floats:
      data:
        first:
          name: _LightDir_X
        second: .107142881
      data:
        first:
          name: _LightDir_Y
        second: 2.07551896e-08
      data:
        first:
          name: _LightDir_Z
        second: -2.12873741e-09
      data:
        first:
          name: _AmbientBrightness
        second: 1
      data:
        first:
          name: _DiffBrightness
        second: 1
      data:
        first:
          name: _SpecularBrightness
        second: 1
      data:
        first:
          name: _SpecularPower
        second: 20
      data:
        first:
          name: _LightDir2_X
        second: -.321428567
      data:
        first:
          name: _LightDir2_Y
        second: .035714291
      data:
        first:
          name: _LightDir2_Z
        second: .142857149
    m_Colors:
      data:
        first:
          name: _LightColor
        second: {r: .933823526, g: .555937529, b: .151059672, a: 1}
      data:
        first:
          name: _Color
        second: {r: 1, g: 1, b: 1, a: 1}
      data:
        first:
          name: _LightColor2
        second: {r: .0745097995, g: .598729014, b: .909803927, a: 1}
