%YAML 1.1
%TAG !u! tag:unity3d.com,2011:
--- !u!21 &2100000
Material:
  serializedVersion: 3
  m_ObjectHideFlags: 0
  m_PrefabParentObject: {fileID: 0}
  m_PrefabInternal: {fileID: 0}
  m_Name: mat_hall_weapon
  m_Shader: {fileID: 4800000, guid: 5a6a007eb9691ce4ea0b54c18c25ffa5, type: 3}
  m_ShaderKeywords: []
  m_CustomRenderQueue: -1
  m_SavedProperties:
    serializedVersion: 2
    m_TexEnvs:
      data:
        first:
          name: _MainTex
        second:
          m_Texture: {fileID: 0}
          m_Scale: {x: 1, y: 1}
          m_Offset: {x: 0, y: 0}
    m_Floats:
      data:
        first:
          name: _LightDir_X
        second: 1
      data:
        first:
          name: _LightDir_Y
        second: -.678571403
      data:
        first:
          name: _LightDir_Z
        second: .142857134
      data:
        first:
          name: _AmbientBrightness
        second: 1.03571427
      data:
        first:
          name: _DiffBrightness
        second: 1.03571427
      data:
        first:
          name: _SpecularBrightness
        second: 9
      data:
        first:
          name: _SpecularPower
        second: 10
    m_Colors:
      data:
        first:
          name: _LightColor
        second: {r: .166522503, g: .489887983, b: .808823526, a: 1}
      data:
        first:
          name: _Color
        second: {r: 1, g: 1, b: 1, a: 1}
      data:
        first:
          name: _MainColor
        second: {r: 1, g: 1, b: 1, a: 1}
