%YAML 1.1
%TAG !u! tag:unity3d.com,2011:
--- !u!21 &2100000
Material:
  serializedVersion: 3
  m_ObjectHideFlags: 0
  m_PrefabParentObject: {fileID: 0}
  m_PrefabInternal: {fileID: 0}
  m_Name: mat_legion2_battle
  m_Shader: {fileID: 4800000, guid: 44a1c440879f33f49aafab80338f8696, type: 3}
  m_ShaderKeywords: []
  m_CustomRenderQueue: -1
  m_SavedProperties:
    serializedVersion: 2
    m_TexEnvs:
      data:
        first:
          name: _MainTex
        second:
          m_Texture: {fileID: 2800000, guid: 9538c744f88df3a4db58db7097a9695e, type: 3}
          m_Scale: {x: 1, y: 1}
          m_Offset: {x: 0, y: 0}
      data:
        first:
          name: _BumpMap
        second:
          m_Texture: {fileID: 0}
          m_Scale: {x: 1, y: 1}
          m_Offset: {x: 0, y: 0}
      data:
        first:
          name: _FlowTex
        second:
          m_Texture: {fileID: 0}
          m_Scale: {x: 1, y: 1}
          m_Offset: {x: 0, y: 0}
    m_Floats:
      data:
        first:
          name: _Shininess
        second: .078125
      data:
        first:
          name: _IntervalTime
        second: 2
      data:
        first:
          name: _Duration
        second: .75
      data:
        first:
          name: _FlowDir_X
        second: 1
      data:
        first:
          name: _FlowDir_Y
        second: 1
      data:
        first:
          name: _FlowSpeed
        second: 5
      data:
        first:
          name: _InvFade
        second: 1
      data:
        first:
          name: _LightDir_X
        second: 1
      data:
        first:
          name: _LightDir_Y
        second: -1
      data:
        first:
          name: _LightDir_Z
        second: -1
      data:
        first:
          name: _AmbientBrightness
        second: 1
      data:
        first:
          name: _DiffBrightness
        second: 1
      data:
        first:
          name: _SpecularBrightness
        second: 1
      data:
        first:
          name: _SpecularPower
        second: 1
      data:
        first:
          name: _Alpha
        second: 0
      data:
        first:
          name: _BaseBrightness
        second: .800000012
      data:
        first:
          name: _LightDir2_X
        second: 1
      data:
        first:
          name: _LightDir2_Y
        second: 0
      data:
        first:
          name: _LightDir2_Z
        second: 0
      data:
        first:
          name: _SpecBrightness
        second: 1
      data:
        first:
          name: _SpecPow
        second: 20
    m_Colors:
      data:
        first:
          name: _LightColor
        second: {r: 1, g: 1, b: 1, a: 1}
      data:
        first:
          name: _Color
        second: {r: 1, g: 1, b: 1, a: 1}
      data:
        first:
          name: _SpecColor
        second: {r: .5, g: .5, b: .5, a: 1}
      data:
        first:
          name: _FlowColor
        second: {r: 1, g: 1, b: 1, a: 1}
      data:
        first:
          name: _TintColor
        second: {r: 0, g: .245436132, b: .647058845, a: 1}
      data:
        first:
          name: _LightColor2
        second: {r: 1, g: 1, b: 1, a: 1}
