%YAML 1.1
%TAG !u! tag:unity3d.com,2011:
--- !u!74 &7400000
AnimationClip:
  m_ObjectHideFlags: 0
  m_PrefabParentObject: {fileID: 0}
  m_PrefabInternal: {fileID: 0}
  m_Name: cg01
  serializedVersion: 4
  m_AnimationType: 1
  m_Compressed: 0
  m_UseHighQualityCurve: 1
  m_RotationCurves:
  - curve:
      serializedVersion: 2
      m_Curve:
      - time: 0
        value: {x: .0230295155, y: -0, z: -0, w: .999734819}
        inSlope: {x: .0292014871, y: 0, z: 0, w: -.00068664545}
        outSlope: {x: .0292014871, y: 0, z: 0, w: -.00068664545}
        tangentMode: 0
      - time: .566666722
        value: {x: .177978531, y: -0, z: -0, w: .984034359}
        inSlope: {x: .309463918, y: 0, z: 0, w: -.0558498502}
        outSlope: {x: .309463918, y: 0, z: 0, w: -.0558498502}
        tangentMode: 0
      - time: .866666734
        value: {x: .217026681, y: -0, z: -0, w: .976165712}
        inSlope: {x: -1.11758811e-06, y: 0, z: 0, w: 0}
        outSlope: {x: -1.11758811e-06, y: 0, z: 0, w: 0}
        tangentMode: 0
      - time: .900000036
        value: {x: .217026606, y: -0, z: -0, w: .976165712}
        inSlope: {x: -.826277971, y: 0, z: 0, w: .159519777}
        outSlope: {x: -.826277971, y: 0, z: 0, w: .159519777}
        tangentMode: 0
      - time: .933333397
        value: {x: .161941439, y: -0, z: -0, w: .986800373}
        inSlope: {x: -2.56570077, y: 0, z: 0, w: .341650009}
        outSlope: {x: -2.56570077, y: 0, z: 0, w: .341650009}
        tangentMode: 0
      - time: .966666698
        value: {x: .0459799506, y: -0, z: -0, w: .998942375}
        inSlope: {x: -2.86898708, y: 0, z: 0, w: .191543892}
        outSlope: {x: -2.86898708, y: 0, z: 0, w: .191543892}
        tangentMode: 0
      - time: 1
        value: {x: -.0293241907, y: 0, z: -0, w: .999569952}
        inSlope: {x: -.606029153, y: 0, z: 0, w: .0156310126}
        outSlope: {x: -.606029153, y: 0, z: 0, w: .0156310126}
        tangentMode: 0
      - time: 1.03333342
        value: {x: .00557817286, y: -0, z: -0, w: .999984443}
        inSlope: {x: .130856067, y: 0, z: 0, w: .00326780556}
        outSlope: {x: .130856067, y: 0, z: 0, w: .00326780556}
        tangentMode: 0
      - time: 1.10000002
        value: {x: -.0467646234, y: 0, z: -0, w: .998905957}
        inSlope: {x: -.0668859482, y: 0, z: 0, w: -.00152711477}
        outSlope: {x: -.0668859482, y: 0, z: 0, w: -.00152711477}
        tangentMode: 0
      - time: 1.16666675
        value: {x: -.00334231765, y: 0, z: -0, w: .999994457}
        inSlope: {x: .13087, y: 0, z: 0, w: .00270903343}
        outSlope: {x: .13087, y: 0, z: 0, w: .00270903343}
        tangentMode: 0
      - time: 1.23333335
        value: {x: -.0293241907, y: 0, z: -0, w: .999569952}
        inSlope: {x: -.194843203, y: 0, z: 0, w: -.00444978895}
        outSlope: {x: -.194843203, y: 0, z: 0, w: -.00444978895}
        tangentMode: 0
      - time: 1.36666679
        value: {x: -.0293241907, y: 0, z: -0, w: .999569952}
        inSlope: {x: 0, y: 0, z: 0, w: 0}
        outSlope: {x: 0, y: 0, z: 0, w: 0}
        tangentMode: 0
      - time: 1.96666682
        value: {x: -.0285223797, y: -.00023594762, z: 2.16519311e-05, w: .999593139}
        inSlope: {x: .0249367449, y: -.00733734481, z: .000683209335, w: .000702740217}
        outSlope: {x: .0249367449, y: -.00733734481, z: .000683209335, w: .000702740217}
        tangentMode: 0
      - time: 2.13333344
        value: {x: .0111722741, y: -.0118647981, z: .00156590319, w: .999866009}
        inSlope: {x: .583940089, y: -.17013678, z: .030136954, w: -.00973285176}
        outSlope: {x: .583940089, y: -.17013678, z: .030136954, w: -.00973285176}
        tangentMode: 0
      - time: 2.23333335
        value: {x: .0526161008, y: -.0238730703, z: .00416531926, w: .998320758}
        inSlope: {x: .131246999, y: -.0377918221, z: .00972110406, w: -.00766037684}
        outSlope: {x: .131246999, y: -.0377918221, z: .00972110406, w: -.00766037684}
        tangentMode: 0
      - time: 2.60000014
        value: {x: .0568347052, y: -.0250862911, z: .00448650308, w: .998058319}
        inSlope: {x: 0, y: 0, z: 0, w: 0}
        outSlope: {x: 0, y: 0, z: 0, w: 0}
        tangentMode: 0
      - time: 4.23333359
        value: {x: .0568347052, y: -.0250862911, z: .00448650308, w: .998058319}
        inSlope: {x: 0, y: 0, z: 0, w: 0}
        outSlope: {x: 0, y: 0, z: 0, w: 0}
        tangentMode: 0
      - time: 4.53333378
        value: {x: .0540896952, y: -.01601086, z: .00281732599, w: .998403728}
        inSlope: {x: -.0532989986, y: .175531715, z: -.03181348, w: .0058534313}
        outSlope: {x: -.0532989986, y: .175531715, z: -.03181348, w: .0058534313}
        tangentMode: 0
      - time: 5.06666708
        value: {x: .0491914935, y: 1.02830244e-12, z: 2.0878764e-11, w: .99878937}
        inSlope: {x: 0, y: 0, z: 0, w: 0}
        outSlope: {x: 0, y: 0, z: 0, w: 0}
        tangentMode: 0
      - time: 6.73333359
        value: {x: .0491914935, y: 1.02830244e-12, z: 2.0878764e-11, w: .99878937}
        inSlope: {x: 0, y: 0, z: 0, w: 0}
        outSlope: {x: 0, y: 0, z: 0, w: 0}
        tangentMode: 0
      - time: 7.03333378
        value: {x: .0491914935, y: 1.02830244e-12, z: 2.0878764e-11, w: .99878937}
        inSlope: {x: 7.82311702e-07, y: 1.62630475e-17, z: 0, w: 0}
        outSlope: {x: 7.82311702e-07, y: 1.62630475e-17, z: 0, w: 0}
        tangentMode: 0
      - time: 7.13333368
        value: {x: .078970246, y: 1.65079961e-12, z: 2.0838789e-11, w: .996877015}
        inSlope: {x: .76714766, y: 1.60365089e-11, z: -1.33687462e-12, w: -.0639519691}
        outSlope: {x: .76714766, y: 1.60365089e-11, z: -1.33687462e-12, w: -.0639519691}
        tangentMode: 0
      - time: 7.26666689
        value: {x: .196281984, y: 4.10309243e-12, z: 2.04974336e-11, w: .980547488}
        inSlope: {x: .650565743, y: 1.35994696e-11, z: -2.68889338e-12, w: -.128629923}
        outSlope: {x: .650565743, y: 1.35994696e-11, z: -2.68889338e-12, w: -.128629923}
        tangentMode: 0
      - time: 7.53333378
        value: {x: .260363281, y: 5.44265241e-12, z: 2.01831052e-11, w: .965510726}
        inSlope: {x: -.49111563, y: -1.02663225e-11, z: 2.73276454e-12, w: .130729198}
        outSlope: {x: -.49111563, y: -1.02663225e-11, z: 2.73276454e-12, w: .130729198}
        tangentMode: 0
      - time: 7.73333359
        value: {x: .120391749, y: 2.51667762e-12, z: 2.07520268e-11, w: .992726505}
        inSlope: {x: -.504316032, y: -1.05422546e-11, z: 1.31316963e-12, w: .0628200769}
        outSlope: {x: -.504316032, y: -1.05422546e-11, z: 1.31316963e-12, w: .0628200769}
        tangentMode: 0
      - time: 7.93333387
        value: {x: .101761639, y: 2.12723242e-12, z: 2.07955562e-11, w: .994808853}
        inSlope: {x: 0, y: 0, z: 0, w: 0}
        outSlope: {x: 0, y: 0, z: 0, w: 0}
        tangentMode: 0
      - time: 8.90000057
        value: {x: .0997097939, y: .0010008635, z: .000139138196, w: .995016038}
        inSlope: {x: -.03563416, y: .0173786003, z: .00245911116, w: .00354410382}
        outSlope: {x: -.03563416, y: .0173786003, z: .00245911116, w: .00354410382}
        tangentMode: 0
      - time: 9.26666737
        value: {x: .0840797424, y: .00860522781, z: .00133424043, w: .996420979}
        inSlope: {x: -.00198806496, y: .000964626204, z: .000167106307, w: .000159143558}
        outSlope: {x: -.00198806496, y: .000964626204, z: .000167106307, w: .000159143558}
        tangentMode: 0
      - time: 9.53333378
        value: {x: .0840207934, y: .00863393955, z: .00133920193, w: .996425688}
        inSlope: {x: -2.01168746e-06, y: 8.38203107e-07, z: 1.46685551e-07, w: 0}
        outSlope: {x: -2.01168746e-06, y: 8.38203107e-07, z: 1.46685551e-07, w: 0}
        tangentMode: 0
      m_PreInfinity: 2
      m_PostInfinity: 2
    path: 
  m_CompressedRotationCurves: []
  m_PositionCurves:
  - curve:
      serializedVersion: 2
      m_Curve:
      - time: 0
        value: {x: 85.710701, y: 12.3409204, z: -30.017828}
        inSlope: {x: 1.13686827e-12, y: .00012727383, z: .000355717319}
        outSlope: {x: 1.13686827e-12, y: .00012727383, z: .000355717319}
        tangentMode: 0
      - time: .800000072
        value: {x: 85.710701, y: 14.182785, z: -28.0213566}
        inSlope: {x: 4.8722891e-13, y: 1.76358473, z: 1.91175163}
        outSlope: {x: 1.13687152e-12, y: 1.76359451, z: 1.91137838}
        tangentMode: -1118815440
      - time: .933333337
        value: {x: 85.710701, y: 14.3021479, z: -27.8919773}
        inSlope: {x: 4.8722891e-13, y: 2.96250018e-05, z: .000233654937}
        outSlope: {x: 1.1368674e-12, y: -.00249837385, z: -.00755732181}
        tangentMode: 0
      - time: 1
        value: {x: 85.710701, y: 13.1482105, z: -31.6415539}
        inSlope: {x: 4.87229777e-13, y: -.00255592586, z: -.00826883223}
        outSlope: {x: 1.13686946e-12, y: .00239659054, z: -5.68434731e-13}
        tangentMode: 1064953707
      - time: 1.0333333
        value: {x: 85.710701, y: 13.3759327, z: -31.6415539}
        inSlope: {x: 4.87229777e-13, y: .00257097697, z: -2.43614888e-13}
        outSlope: {x: 1.13686534e-12, y: -.000768370752, z: -5.68432671e-13}
        tangentMode: 1046363198
      - time: 1.10000002
        value: {x: 85.710701, y: 13.0428123, z: -31.6415539}
        inSlope: {x: 4.87229777e-13, y: -.000768373546, z: -2.43614888e-13}
        outSlope: {x: 1.13686534e-12, y: .000566197501, z: -5.68432671e-13}
        tangentMode: -1248460791
      - time: 1.16666663
        value: {x: 85.710701, y: 13.3191795, z: -31.6415539}
        inSlope: {x: 4.87231512e-13, y: .000827781972, z: -2.43615756e-13}
        outSlope: {x: 1.13686534e-12, y: -.000313550292, z: -5.68432671e-13}
        tangentMode: -2147483648
      - time: 1.26666677
        value: {x: 85.710701, y: 13.1482105, z: -31.6415539}
        inSlope: {x: 4.87228042e-13, y: 6.09035053e-14, z: -2.43614021e-13}
        outSlope: {x: 1.13686946e-12, y: 1.42108683e-13, z: -5.68434731e-13}
        tangentMode: 1015024796
      - time: 2
        value: {x: 85.7039108, y: 13.1411829, z: -31.5863857}
        inSlope: {x: -.15265134, y: -.157973632, z: 1.24181628}
        outSlope: {x: -.153598338, y: -.158121884, z: 1.24172258}
        tangentMode: 0
      - time: 2.16666675
        value: {x: 85.490036, y: 12.9197187, z: -29.8478851}
        inSlope: {x: -2.10259652, y: -2.17501926, z: 17.0716896}
        outSlope: {x: -2.0983417, y: -2.17466521, z: 17.0716553}
        tangentMode: 0
      - time: 2.36666679
        value: {x: 85.4026413, y: 12.8292274, z: -29.1375084}
        inSlope: {x: 7.30839488e-13, y: 6.09032884e-14, z: -2.43613154e-13}
        outSlope: {x: 1.70530419e-12, y: 1.42108683e-13, z: -5.68434731e-13}
        tangentMode: 927510292
      - time: 4
        value: {x: 85.4026413, y: 12.8292274, z: -29.1375084}
        inSlope: {x: 7.30849951e-13, y: 6.09041558e-14, z: -2.43616623e-13}
        outSlope: {x: 1.7052798e-12, y: 1.4210665e-13, z: -5.68426599e-13}
        tangentMode: 1078635179
      - time: 4.4666667
        value: {x: 85.4026413, y: 12.8292274, z: -29.1375084}
        inSlope: {x: 7.30844692e-13, y: 6.09037221e-14, z: -2.43614888e-13}
        outSlope: {x: .00242666365, y: -.000764805009, z: -.00367314206}
        tangentMode: 1080173091
      - time: 4.5666666
        value: {x: 86.4571991, y: 11.8296289, z: -33.0173836}
        inSlope: {x: 8.51345158, y: -8.1285553, z: -31.321434}
        outSlope: {x: 8.51225948, y: -8.12867641, z: -31.3223972}
        tangentMode: 0
      - time: 4.73333359
        value: {x: 87.2075653, y: 11.0878782, z: -35.7781334}
        inSlope: {x: .355622441, y: -.401091903, z: -1.30495346}
        outSlope: {x: .352441698, y: -.400645584, z: -1.30383766}
        tangentMode: 1065320640
      - time: 5.70000029
        value: {x: 87.2115021, y: 11.0834217, z: -35.7926369}
        inSlope: {x: 2.43614888e-13, y: -0, z: -2.43614888e-13}
        outSlope: {x: 5.68434731e-13, y: -0, z: -5.68434731e-13}
        tangentMode: 1030042134
      - time: 7.0666666
        value: {x: 87.2115021, y: 11.0834217, z: -35.7926369}
        inSlope: {x: 2.43618385e-13, y: -0, z: -2.43618385e-13}
        outSlope: {x: 5.68426599e-13, y: -.000176107278, z: -.000296349317}
        tangentMode: 1065332905
      - time: 7.83333397
        value: {x: 87.2115021, y: 10.2749338, z: -39.8862572}
        inSlope: {x: 2.43611419e-13, y: 3.04514274e-14, z: -2.43611419e-13}
        outSlope: {x: 5.68434731e-13, y: 7.10543413e-14, z: -5.68434731e-13}
        tangentMode: 0
      - time: 8.73333359
        value: {x: 87.2101898, y: 10.2761908, z: -39.908989}
        inSlope: {x: -.0597386286, y: .0564513989, z: -1.02192879}
        outSlope: {x: -.0589835718, y: .056498602, z: -1.0218786}
        tangentMode: 0
      - time: 8.96666622
        value: {x: 87.0079269, y: 10.4705734, z: -43.4230843}
        inSlope: {x: -2.2698586, y: 2.18299723, z: -39.4663734}
        outSlope: {x: -2.27068639, y: 2.18234015, z: -39.4571724}
        tangentMode: 1028226323
      - time: 9.10000038
        value: {x: 86.585434, y: 10.8765774, z: -50.7629204}
        inSlope: {x: -.868163049, y: .83424443, z: -15.0877666}
        outSlope: {x: -.86804074, y: .834691584, z: -15.0855455}
        tangentMode: 766953799
      - time: 9.53333378
        value: {x: 86.5174179, y: 10.9419432, z: -51.9446259}
        inSlope: {x: 4.8723677e-13, y: -5.75483209e-05, z: .000397606636}
        outSlope: {x: 4.8723677e-13, y: -5.75483209e-05, z: .000397606636}
        tangentMode: -1396233102
      m_PreInfinity: 2
      m_PostInfinity: 2
    path: 
  m_ScaleCurves:
  - curve:
      serializedVersion: 2
      m_Curve:
      - time: 0
        value: {x: 1, y: 1, z: 1}
        inSlope: {x: 0, y: 0, z: 0}
        outSlope: {x: 0, y: 0, z: 0}
        tangentMode: 1065353216
      - time: 9.53333378
        value: {x: 1, y: 1, z: 1}
        inSlope: {x: 0, y: 0, z: 0}
        outSlope: {x: 0, y: 0, z: 0}
        tangentMode: 58
      m_PreInfinity: 2
      m_PostInfinity: 2
    path: 
  m_FloatCurves: []
  m_PPtrCurves: []
  m_SampleRate: 30
  m_WrapMode: 0
  m_Bounds:
    m_Center: {x: 0, y: 0, z: 0}
    m_Extent: {x: 0, y: 0, z: 0}
  m_ClipBindingConstant:
    genericBindings: []
    pptrCurveMapping: []
  m_AnimationClipSettings:
    serializedVersion: 2
    m_StartTime: 0
    m_StopTime: 9.53333378
    m_OrientationOffsetY: 0
    m_Level: 0
    m_CycleOffset: 0
    m_LoopTime: 0
    m_LoopBlend: 0
    m_LoopBlendOrientation: 0
    m_LoopBlendPositionY: 0
    m_LoopBlendPositionXZ: 0
    m_KeepOriginalOrientation: 0
    m_KeepOriginalPositionY: 1
    m_KeepOriginalPositionXZ: 0
    m_HeightFromFeet: 0
    m_Mirror: 0
  m_EditorCurves: []
  m_EulerEditorCurves: []
  m_Events: []
