%YAML 1.1
%TAG !u! tag:unity3d.com,2011:
--- !u!74 &7400000
AnimationClip:
  m_ObjectHideFlags: 0
  m_PrefabParentObject: {fileID: 0}
  m_PrefabInternal: {fileID: 0}
  m_Name: mp_camera_idle_gun
  serializedVersion: 4
  m_AnimationType: 1
  m_Compressed: 0
  m_UseHighQualityCurve: 1
  m_RotationCurves: []
  m_CompressedRotationCurves: []
  m_PositionCurves:
  - curve:
      serializedVersion: 2
      m_Curve:
      - time: 0
        value: {x: 0, y: 0, z: 0}
        inSlope: {x: .00300000003, y: .00300000003, z: .00300000003}
        outSlope: {x: .00300000003, y: .00300000003, z: .00300000003}
        tangentMode: 28277
      - time: .333333343
        value: {x: .00100000005, y: .00100000005, z: .00100000005}
        inSlope: {x: 0, y: 0, z: 0}
        outSlope: {x: 0, y: 0, z: 0}
        tangentMode: 996929019
      - time: .666666687
        value: {x: 0, y: 0, z: 0}
        inSlope: {x: -.00300000003, y: -.00300000003, z: -.00300000003}
        outSlope: {x: -.00300000003, y: -.00300000003, z: -.00300000003}
        tangentMode: 0
      - time: 1
        value: {x: -.00100000005, y: -.00100000005, z: -.00100000005}
        inSlope: {x: -2.32830644e-10, y: -2.32830644e-10, z: -2.32830644e-10}
        outSlope: {x: -2.32830644e-10, y: -2.32830644e-10, z: -2.32830644e-10}
        tangentMode: -1150554628
      - time: 1.33333337
        value: {x: 0, y: 0, z: 0}
        inSlope: {x: .00299999979, y: .00299999979, z: .00299999979}
        outSlope: {x: .00299999979, y: .00299999979, z: .00299999979}
        tangentMode: -1346371584
      m_PreInfinity: 2
      m_PostInfinity: 2
    path: 
  m_ScaleCurves: []
  m_FloatCurves: []
  m_PPtrCurves: []
  m_SampleRate: 60
  m_WrapMode: 2
  m_Bounds:
    m_Center: {x: 0, y: 0, z: 0}
    m_Extent: {x: 0, y: 0, z: 0}
  m_ClipBindingConstant:
    genericBindings: []
    pptrCurveMapping: []
  m_AnimationClipSettings:
    serializedVersion: 2
    m_StartTime: 0
    m_StopTime: 1.33333337
    m_OrientationOffsetY: 0
    m_Level: 0
    m_CycleOffset: 0
    m_LoopTime: 0
    m_LoopBlend: 0
    m_LoopBlendOrientation: 0
    m_LoopBlendPositionY: 0
    m_LoopBlendPositionXZ: 0
    m_KeepOriginalOrientation: 0
    m_KeepOriginalPositionY: 1
    m_KeepOriginalPositionXZ: 0
    m_HeightFromFeet: 0
    m_Mirror: 0
  m_EditorCurves:
  - curve:
      serializedVersion: 2
      m_Curve:
      - time: 0
        value: 0
        inSlope: .00300000003
        outSlope: .00300000003
        tangentMode: 10
      - time: .333333343
        value: .00100000005
        inSlope: 0
        outSlope: 0
        tangentMode: 10
      - time: .666666687
        value: 0
        inSlope: -.00300000003
        outSlope: -.00300000003
        tangentMode: 10
      - time: 1
        value: -.00100000005
        inSlope: -2.32830644e-10
        outSlope: -2.32830644e-10
        tangentMode: 10
      - time: 1.33333337
        value: 0
        inSlope: .00299999979
        outSlope: .00299999979
        tangentMode: 10
      m_PreInfinity: 2
      m_PostInfinity: 2
    attribute: m_LocalPosition.x
    path: 
    classID: 4
    script: {fileID: 0}
  - curve:
      serializedVersion: 2
      m_Curve:
      - time: 0
        value: 0
        inSlope: .00300000003
        outSlope: .00300000003
        tangentMode: 10
      - time: .333333343
        value: .00100000005
        inSlope: 0
        outSlope: 0
        tangentMode: 10
      - time: .666666687
        value: 0
        inSlope: -.00300000003
        outSlope: -.00300000003
        tangentMode: 10
      - time: 1
        value: -.00100000005
        inSlope: -2.32830644e-10
        outSlope: -2.32830644e-10
        tangentMode: 10
      - time: 1.33333337
        value: 0
        inSlope: .00299999979
        outSlope: .00299999979
        tangentMode: 10
      m_PreInfinity: 2
      m_PostInfinity: 2
    attribute: m_LocalPosition.y
    path: 
    classID: 4
    script: {fileID: 0}
  - curve:
      serializedVersion: 2
      m_Curve:
      - time: 0
        value: 0
        inSlope: .00300000003
        outSlope: .00300000003
        tangentMode: 10
      - time: .333333343
        value: .00100000005
        inSlope: 0
        outSlope: 0
        tangentMode: 10
      - time: .666666687
        value: 0
        inSlope: -.00300000003
        outSlope: -.00300000003
        tangentMode: 10
      - time: 1
        value: -.00100000005
        inSlope: -2.32830644e-10
        outSlope: -2.32830644e-10
        tangentMode: 10
      - time: 1.33333337
        value: 0
        inSlope: .00299999979
        outSlope: .00299999979
        tangentMode: 10
      m_PreInfinity: 2
      m_PostInfinity: 2
    attribute: m_LocalPosition.z
    path: 
    classID: 4
    script: {fileID: 0}
  m_EulerEditorCurves: []
  m_Events: []
